<?xml version="1.0" encoding="UTF-8" standalone="no"?>
<svg
   xmlns:dc="http://purl.org/dc/elements/1.1/"
   xmlns:cc="http://creativecommons.org/ns#"
   xmlns:rdf="http://www.w3.org/1999/02/22-rdf-syntax-ns#"
   xmlns:svg="http://www.w3.org/2000/svg"
   xmlns="http://www.w3.org/2000/svg"
   xmlns:sodipodi="http://sodipodi.sourceforge.net/DTD/sodipodi-0.dtd"
   xmlns:inkscape="http://www.inkscape.org/namespaces/inkscape"
   version="1.1"
   x="0px"
   y="0px"
   viewBox="0 0 97.314453 298.94141"
   enable-background="new 0 0 100 100"
   xml:space="preserve"
   id="svg26"
   sodipodi:docname="pillar.svg"
   width="97.314453"
   height="298.94141"
   inkscape:version="0.92.2 2405546, 2018-03-11"><metadata
     id="metadata32"><rdf:RDF><cc:Work
         rdf:about=""><dc:format>image/svg+xml</dc:format><dc:type
           rdf:resource="http://purl.org/dc/dcmitype/StillImage" /><dc:title></dc:title></cc:Work></rdf:RDF></metadata><defs
     id="defs30" /><sodipodi:namedview
     pagecolor="#ffffff"
     bordercolor="#666666"
     borderopacity="1"
     objecttolerance="10"
     gridtolerance="10"
     guidetolerance="10"
     inkscape:pageopacity="0"
     inkscape:pageshadow="2"
     inkscape:window-width="1920"
     inkscape:window-height="1152"
     id="namedview28"
     showgrid="false"
     fit-margin-top="0"
     fit-margin-left="0"
     fit-margin-right="0"
     fit-margin-bottom="0"
     inkscape:zoom="1.888"
     inkscape:cx="-116.04871"
     inkscape:cy="122.11624"
     inkscape:window-x="0"
     inkscape:window-y="20"
     inkscape:window-maximized="1"
     inkscape:current-layer="svg26" /><path
     style="color:#000000;font-style:normal;font-variant:normal;font-weight:normal;font-stretch:normal;font-size:medium;line-height:normal;font-family:sans-serif;font-variant-ligatures:normal;font-variant-position:normal;font-variant-caps:normal;font-variant-numeric:normal;font-variant-alternates:normal;font-feature-settings:normal;text-indent:0;text-align:start;text-decoration:none;text-decoration-line:none;text-decoration-style:solid;text-decoration-color:#000000;letter-spacing:normal;word-spacing:normal;text-transform:none;writing-mode:lr-tb;direction:ltr;text-orientation:mixed;dominant-baseline:auto;baseline-shift:baseline;text-anchor:start;white-space:normal;shape-padding:0;clip-rule:nonzero;display:inline;overflow:visible;visibility:visible;opacity:1;isolation:auto;mix-blend-mode:normal;color-interpolation:sRGB;color-interpolation-filters:linearRGB;solid-color:#000000;solid-opacity:1;vector-effect:none;fill:#103942;fill-opacity:1;fill-rule:nonzero;stroke:none;stroke-width:2;stroke-linecap:butt;stroke-linejoin:miter;stroke-miterlimit:10;stroke-dasharray:none;stroke-dashoffset:0;stroke-opacity:1;color-rendering:auto;image-rendering:auto;shape-rendering:auto;text-rendering:auto;enable-background:accumulate"
     d="m 26.037109,0 v 261.57226 c -2.75e-4,0.43755 -0.500858,0.68612 -0.849609,0.42188 -2.295857,-1.75008 -5.144958,-2.80078 -8.246094,-2.80078 C 7.592018,259.19336 0,266.78537 0,276.13476 c 0,5.82928 2.7226832,10.66035 6.875,13.99414 2.8028601,2.25035 6.261227,3.81303 9.992187,4.60352 0.244574,0.0518 0.419624,0.26758 0.419922,0.51758 v 3.6914 h 61.941406 v -3.41797 c 4e-4,-0.25817 0.186853,-0.47844 0.441407,-0.52148 4.07437,-0.6916 7.854051,-2.31389 10.86914,-4.73242 4.096713,-3.28615 6.775391,-8.05802 6.775391,-13.83985 0,-9.27645 -7.531201,-16.81054 -16.808594,-16.81054 -3.351522,0 -6.411412,1.22798 -8.779297,3.25195 -0.3436,0.29245 -0.872158,0.0489 -0.873047,-0.40234 V 0 h -0.941406 v 264.49609 c 0.01953,0.14096 -0.01848,0.28386 -0.105468,0.39649 -0.503797,0.65038 -0.948333,1.34317 -1.328126,2.07812 -0.254922,0.4918 -0.998345,0.31175 -1,-0.24219 V 0 h -0.941406 v 281.75 c 4.15e-4,0.30651 -0.258606,0.54939 -0.564453,0.52929 l -5.125,-0.33203 c -0.278413,-0.0187 -0.494548,-0.25025 -0.494141,-0.52929 V 0 h -0.941406 v 280.53906 c 2.79e-4,0.30487 -0.256198,0.54705 -0.560547,0.5293 -0.466749,-0.0268 -0.923436,-0.0508 -1.371093,-0.0742 -0.281499,-0.0148 -0.502121,-0.24741 -0.501954,-0.5293 V 0 h -0.941406 v 281.07226 c 4.21e-4,0.30651 -0.258602,0.5494 -0.564453,0.5293 l -4.164062,-0.26953 c -0.278417,-0.0187 -0.494553,-0.25025 -0.494141,-0.5293 V 0 h -0.941406 v 280.53906 c 2.79e-4,0.30487 -0.256198,0.54705 -0.560547,0.5293 -0.46675,-0.0268 -0.923436,-0.0508 -1.371094,-0.0742 -0.281499,-0.0148 -0.50212,-0.24741 -0.501953,-0.5293 V 0 h -0.941406 v 280.78711 c 2.77e-4,0.28046 -0.218092,0.51252 -0.498047,0.52929 l -4.585938,0.26953 c -0.304346,0.0178 -0.56082,-0.22443 -0.560547,-0.52929 V 0 h -0.941406 v 280.5 c 1.62e-4,0.28188 -0.220458,0.51452 -0.501953,0.52929 -0.449476,0.0234 -0.908023,0.0479 -1.373047,0.0742 -0.303593,0.0166 -0.558803,-0.22524 -0.558594,-0.52929 V 0 h -0.941406 v 281.375 c 2.77e-4,0.28046 -0.218092,0.51252 -0.498047,0.52929 l -4.9375,0.29102 c -0.304349,0.0177 -0.560826,-0.22443 -0.560547,-0.5293 v -7.91211 c 1.37e-4,-0.0137 8.04e-4,-0.0274 0.002,-0.041 0.02374,-0.30103 0.04492,-0.58963 0.04492,-0.8711 0,-0.27726 -0.02677,-0.56789 -0.04688,-0.88086 -3.47e-4,-0.0111 -3.47e-4,-0.0221 0,-0.0332 V 0 h -0.941446 v 265.54101 c -0.0016,0.53486 -0.704703,0.73055 -0.982422,0.27344 -0.439706,-0.72789 -0.941497,-1.40874 -1.503906,-2.03906 -0.08691,-0.0972 -0.134893,-0.22311 -0.134766,-0.35352 V 0 Z m -9.095703,260.13476 c 6.693105,0 12.15891,5.16756 12.65625,11.73438 0.0011,0.013 0.0018,0.026 0.002,0.0391 v 1.87109 c 1.47e-4,0.017 -5.21e-4,0.0339 -0.002,0.0508 -0.444541,4.58037 -3.948301,8.24452 -8.447265,8.94921 -0.01682,0.003 -0.03377,0.005 -0.05078,0.006 l -1.849609,0.10938 c -0.01887,10e-4 -0.03777,10e-4 -0.05664,0 -4.224096,-0.19966 -7.580078,-3.67211 -7.580078,-7.94531 0,-3.46844 2.805967,-6.2754 6.275391,-6.2754 2.722915,0 4.925781,2.20412 4.925781,4.92774 0,2.12578 -1.722247,3.8457 -3.847656,3.8457 -1.648277,0 -2.982422,-1.33722 -2.982422,-2.98437 0,-1.26533 1.029103,-2.29297 2.292969,-2.29297 0.0026,-2e-5 0.0052,-2e-5 0.0078,0 0.248514,0.004 0.476563,-0.22217 0.476563,-0.4707 0,-0.24854 -0.228049,-0.47422 -0.476563,-0.47071 -0.0026,2e-5 -0.0052,2e-5 -0.0078,0 -1.776496,0 -3.234375,1.45725 -3.234375,3.23438 0,2.1583 1.764428,3.92578 3.923828,3.92578 2.636097,0 4.789062,-2.15125 4.789062,-4.78711 0,-3.23316 -2.63525,-5.86914 -5.867187,-5.86914 -3.978464,0 -7.216797,3.23934 -7.216797,7.2168 0,4.71677 3.688852,8.57474 8.330078,8.87304 0.01832,10e-4 0.03658,0.003 0.05469,0.006 0.04439,0.007 0.08564,0.0108 0.136718,0.008 0.01627,-7.5e-4 0.03256,-7.5e-4 0.04883,0 0.146522,0.005 0.255792,0.0176 0.333985,0.0176 0.532119,0 1.058571,-0.0518 1.58789,-0.1289 0.01488,-0.003 0.02987,-0.005 0.04492,-0.006 l 27.41211,-1.61524 c 0.02146,-10e-4 0.04299,-10e-4 0.06445,0 l 26.857422,1.73438 c 0.02564,0.002 0.0511,0.006 0.07617,0.0117 0.734736,0.15631 1.49406,0.24023 2.273437,0.24023 0.267886,0 0.535222,-0.0162 0.806641,-0.041 0.0091,-9e-4 0.01821,-0.002 0.02734,-0.002 4.47844,-0.42308 8,-4.20236 8,-8.79297 0,-3.94842 -3.213682,-7.16211 -7.162109,-7.16211 -3.209007,0 -5.824219,2.61324 -5.824219,5.82227 0,2.61758 2.137315,4.75586 4.753907,4.75586 2.143175,0 3.896484,-1.7533 3.896484,-3.89649 0,-1.76616 -1.448448,-3.21289 -3.210938,-3.21289 -0.0026,2e-5 -0.0052,2e-5 -0.0078,0 -0.248514,-0.004 -0.476563,0.22217 -0.476563,0.47071 0,0.24854 0.228049,0.47421 0.476563,0.4707 0.0026,-2e-5 0.0052,-2e-5 0.0078,0 1.249942,0 2.269532,1.01735 2.269532,2.27148 0,1.63217 -1.322911,2.95508 -2.955078,2.95508 -2.106849,0 -3.812501,-1.70671 -3.8125,-3.81445 0,-2.69958 2.183291,-4.88086 4.882812,-4.88086 3.43935,0 6.220703,2.78136 6.220703,6.2207 0,4.06203 -3.053753,7.40244 -7,7.84375 -0.03113,0.003 -0.0625,0.004 -0.09375,0.002 l -2.921875,-0.18946 c -0.02695,-0.002 -0.05372,-0.006 -0.08008,-0.0117 -4.45998,-1.0019 -7.783203,-4.97572 -7.783203,-9.73632 0,-6.96272 5.635898,-12.60157 12.599609,-12.60157 8.768936,0 15.867188,7.10128 15.867188,15.86914 0,5.49303 -2.512189,9.97287 -6.419922,13.10743 -3.910438,3.13673 -9.223829,4.9082 -14.763672,4.9082 l -52.792969,-0.0566 c -5.584142,0 -10.964485,-1.80901 -14.9316403,-4.99414 -3.9645624,-3.18302 -6.52343748,-7.72178 -6.52343748,-13.25977 0,-8.84094 7.15905298,-16 15.99999978,-16 z m 51.082031,18.26172 c 0.182393,0.005 0.34917,0.10428 0.441407,0.26172 0.668562,1.14152 1.530074,2.15412 2.548828,2.98242 0.399316,0.32516 0.146789,0.97126 -0.367188,0.93946 l -2.671875,-0.17188 c -0.279188,-0.0178 -0.49644,-0.24955 -0.496094,-0.5293 v -2.95312 c 1.1e-4,-0.29843 0.246611,-0.53787 0.544922,-0.5293 z m -38.988281,0.46094 c 0.305851,-0.0201 0.564874,0.22279 0.564453,0.5293 v 2.39648 c 2.83e-4,0.28046 -0.218088,0.51253 -0.498047,0.5293 l -2.40039,0.14258 c -0.520434,0.0323 -0.76945,-0.6277 -0.357422,-0.94727 0.880737,-0.6895 1.655517,-1.50303 2.291015,-2.42188 0.09158,-0.1333 0.239042,-0.21746 0.400391,-0.22851 z m 49.742188,5.1875 -0.02539,0.002 c 0.0065,-1.2e-4 0.01302,-1.2e-4 0.01953,0 -0.02336,-10e-4 0.0013,-10e-5 0.0078,0 l -0.002,-0.002 z m -60.056641,11.02344 c 0.03585,-0.002 0.07184,-9.7e-4 0.107422,0.004 1.180334,0.15843 2.370318,0.25782 3.568359,0.25782 l 52.791016,0.0566 h 0.002 c 0.841708,0 1.681127,-0.0521 2.519531,-0.13086 0.310303,-0.0285 0.578033,0.21573 0.578125,0.52734 v 1.68744 c -2.28e-4,0.29223 -0.237068,0.52907 -0.529297,0.5293 h -59 c -0.292247,-2e-4 -0.529116,-0.23705 -0.529344,-0.5293 v -1.87305 c -4.77e-4,-0.27834 0.214546,-0.50957 0.492188,-0.52929 z"
     id="polyline2"
     inkscape:connector-curvature="0"
     sodipodi:nodetypes="cccsssccccccsssccccccccccccccccccccccccccccccccccccccccccccccccccccscccccccccccccccccccsssssccsccsssssccccsccccccsccsssssccsccsssssccccsssscccsccccccccccccccccccccccccccccscccccccc" /></svg>