<?xml version="1.0" encoding="UTF-8" standalone="no"?>
<!-- Created with Inkscape (http://www.inkscape.org/) -->

<svg
   xmlns:dc="http://purl.org/dc/elements/1.1/"
   xmlns:cc="http://creativecommons.org/ns#"
   xmlns:rdf="http://www.w3.org/1999/02/22-rdf-syntax-ns#"
   xmlns:svg="http://www.w3.org/2000/svg"
   xmlns="http://www.w3.org/2000/svg"
   xmlns:sodipodi="http://sodipodi.sourceforge.net/DTD/sodipodi-0.dtd"
   xmlns:inkscape="http://www.inkscape.org/namespaces/inkscape"
   width="64px"
   height="64px"
   id="svg7789"
   version="1.1"
   inkscape:version="0.92.2 2405546, 2018-03-11"
   inkscape:export-filename="Z:\projects\occam\Large-Icons\error_large.png"
   inkscape:export-xdpi="135"
   inkscape:export-ydpi="135"
   sodipodi:docname="create.svg">
  <defs
     id="defs7791" />
  <sodipodi:namedview
     id="base"
     pagecolor="#ffffff"
     bordercolor="#666666"
     borderopacity="1.0"
     inkscape:pageopacity="0.0"
     inkscape:pageshadow="2"
     inkscape:zoom="5.6568542"
     inkscape:cx="-2.0300158"
     inkscape:cy="33.081084"
     inkscape:current-layer="layer1"
     showgrid="true"
     inkscape:document-units="px"
     inkscape:grid-bbox="true"
     inkscape:window-width="1920"
     inkscape:window-height="1152"
     inkscape:window-x="0"
     inkscape:window-y="20"
     inkscape:window-maximized="1"
     inkscape:snap-global="false" />
  <metadata
     id="metadata7794">
    <rdf:RDF>
      <cc:Work
         rdf:about="">
        <dc:format>image/svg+xml</dc:format>
        <dc:type
           rdf:resource="http://purl.org/dc/dcmitype/StillImage" />
        <dc:title></dc:title>
      </cc:Work>
    </rdf:RDF>
  </metadata>
  <g
     id="layer1"
     inkscape:label="Layer 1"
     inkscape:groupmode="layer">
    <path
       style="fill:#2da0b7;fill-opacity:1;stroke:none;stroke-width:1.18328643"
       d="M 55.431641 18.521484 L 30.244141 31.076172 L 30.244141 57.992188 L 40.251953 53.003906 A 12.691402 12.691402 0 0 1 39.324219 48.257812 A 12.691402 12.691402 0 0 1 52.015625 35.566406 A 12.691402 12.691402 0 0 1 55.431641 36.048828 L 55.431641 18.521484 z "
       id="rect4907" />
    <path
       style="fill:#2da0b7;fill-opacity:1;stroke:none;stroke-width:0.66541749;stroke-miterlimit:4;stroke-dasharray:3.9925049, 3.9925049;stroke-dashoffset:0;stroke-opacity:1"
       d="M 52.015625 37.6875 A 10.570082 10.570082 0 0 0 41.445312 48.257812 A 10.570082 10.570082 0 0 0 52.015625 58.828125 A 10.570082 10.570082 0 0 0 62.583984 48.257812 A 10.570082 10.570082 0 0 0 52.015625 37.6875 z M 52.015625 39.455078 A 8.8023148 8.8023148 0 0 1 60.816406 48.257812 A 8.8023148 8.8023148 0 0 1 52.015625 57.060547 A 8.8023148 8.8023148 0 0 1 43.212891 48.257812 A 8.8023148 8.8023148 0 0 1 52.015625 39.455078 z "
       id="circle3725" />
    <rect
       style="fill:#2da0b7;fill-opacity:1;stroke:none;stroke-width:0.53235799;stroke-miterlimit:4;stroke-dasharray:3.19414816, 3.19414816;stroke-dashoffset:0;stroke-opacity:1"
       id="rect3719"
       width="12.966553"
       height="2.7248554"
       x="45.531391"
       y="46.895821"
       ry="1.3624277" />
    <rect
       ry="1.3624277"
       y="-53.377098"
       x="41.774975"
       height="2.7248554"
       width="12.966553"
       id="rect3721"
       style="fill:#2da0b7;fill-opacity:1;stroke:none;stroke-width:0.53235799;stroke-miterlimit:4;stroke-dasharray:3.19414816, 3.19414816;stroke-dashoffset:0;stroke-opacity:1"
       transform="rotate(90)" />
    <rect
       style="fill:#2da0b7;fill-opacity:1;stroke:none;stroke-width:1.25078285"
       id="rect4892"
       width="27.846344"
       height="27.846344"
       x="-16.491354"
       y="20.942764"
       transform="matrix(0.89442719,-0.4472136,0.89442719,0.4472136,0,0)" />
    <rect
       transform="matrix(-0.8949854,-0.44609543,0,1,0,0)"
       y="17.417025"
       x="-30.971304"
       height="26.91585"
       width="28.142914"
       id="rect4938"
       style="fill:#2da0b7;fill-opacity:1;stroke:none;stroke-width:1.25078285" />
  </g>
</svg>
