<?xml version="1.0" encoding="UTF-8" standalone="no"?>
<!-- Created with Inkscape (http://www.inkscape.org/) -->

<svg
   xmlns:dc="http://purl.org/dc/elements/1.1/"
   xmlns:cc="http://creativecommons.org/ns#"
   xmlns:rdf="http://www.w3.org/1999/02/22-rdf-syntax-ns#"
   xmlns:svg="http://www.w3.org/2000/svg"
   xmlns="http://www.w3.org/2000/svg"
   xmlns:sodipodi="http://sodipodi.sourceforge.net/DTD/sodipodi-0.dtd"
   xmlns:inkscape="http://www.inkscape.org/namespaces/inkscape"
   width="64px"
   height="64px"
   id="svg4864"
   version="1.1"
   inkscape:version="0.92.2 2405546, 2018-03-11"
   sodipodi:docname="curation.svg"
   inkscape:export-filename="C:\Users\wilkie\occam\object_large.png"
   inkscape:export-xdpi="135"
   inkscape:export-ydpi="135">
  <defs
     id="defs4866" />
  <sodipodi:namedview
     id="base"
     pagecolor="#ffffff"
     bordercolor="#666666"
     borderopacity="1.0"
     inkscape:pageopacity="0.0"
     inkscape:pageshadow="2"
     inkscape:zoom="32"
     inkscape:cx="33.076844"
     inkscape:cy="13.012323"
     inkscape:current-layer="layer1"
     showgrid="true"
     inkscape:document-units="px"
     inkscape:grid-bbox="true"
     inkscape:window-width="1920"
     inkscape:window-height="1152"
     inkscape:window-x="0"
     inkscape:window-y="20"
     inkscape:window-maximized="1"
     inkscape:snap-global="false" />
  <metadata
     id="metadata4869">
    <rdf:RDF>
      <cc:Work
         rdf:about="">
        <dc:format>image/svg+xml</dc:format>
        <dc:type
           rdf:resource="http://purl.org/dc/dcmitype/StillImage" />
        <dc:title></dc:title>
      </cc:Work>
    </rdf:RDF>
  </metadata>
  <g
     id="layer1"
     inkscape:label="Layer 1"
     inkscape:groupmode="layer">
    <path
       style="fill:#2da0b7;fill-opacity:1;stroke:none;stroke-width:1.19140756"
       d="m 52.822651,19.479516 v 3.310546 l 3.320312,-1.65625 z m 4.451171,19.480468 -9.533203,5.085938 9.533203,4.751953 z"
       id="rect929"
       inkscape:connector-curvature="0" />
    <path
       style="fill:#2da0b7;fill-opacity:1;stroke:none;stroke-width:1.19140756"
       d="m 11.246479,19.442406 -3.2109378,1.59961 3.2109378,1.601562 z M 6.719135,39.126 v 9.671875 L 16.092182,44.126 Z"
       id="rect927"
       inkscape:connector-curvature="0" />
    <rect
       style="fill:#64c4d9;fill-opacity:1;stroke:none;stroke-width:0.94378656"
       id="rect4892"
       width="21.011644"
       height="21.011644"
       x="-6.0170932"
       y="20.722136"
       transform="matrix(0.89442719,-0.4472136,0.89442719,0.4472136,0,0)" />
    <path
       style="fill:#64c4d9;fill-opacity:1;stroke:none;stroke-width:0.89285672"
       d="m 51.974994,13.301781 -19.005859,9.472656 v 9.91211 l 19.005859,-9.47461 z M 32.969135,38.206078 v 4.876953 l 2.181641,-1.087891 z"
       id="rect4907"
       inkscape:connector-curvature="0" />
    <path
       style="fill:#64c4d9;fill-opacity:1;stroke:none;stroke-width:0.89285672"
       d="m 12.058979,13.420922 v 9.626953 l 19.003906,9.472656 v -9.628906 z m 19.003906,25.037109 -2.123047,3.685547 2.123047,1.058594 z"
       id="rect4938"
       inkscape:connector-curvature="0" />
    <path
       style="fill:#2da0b7;fill-opacity:1;stroke:none;stroke-width:1.19140756"
       d="M 32.4375 37.285156 L 32.4375 61.255859 L 57.308594 48.640625 L 57.3125 38.941406 L 39.882812 48.240234 C 39.397981 48.498773 38.795466 48.325884 38.521484 47.849609 L 32.4375 37.285156 z M 31.6875 37.375 L 25.613281 47.919922 A 1.1735571 1.1735571 0 0 1 24.042969 48.369141 L 6.71875 39.126953 L 6.71875 48.798828 L 31.6875 61.244141 L 31.6875 37.375 z "
       id="rect923" />
    <path
       style="fill:#2da0b7;fill-opacity:1;stroke:none;stroke-width:1.0611608"
       d="M 0.90321904,34.692536 6.7195412,21.698027 32.079905,34.338616 24.59615,47.333125 Z"
       id="rect933"
       inkscape:connector-curvature="0"
       sodipodi:nodetypes="ccccc" />
    <path
       sodipodi:nodetypes="ccccc"
       inkscape:connector-curvature="0"
       id="path940"
       d="M 63.096781,34.699561 57.280459,21.705053 31.920095,34.345642 39.40385,47.340151 Z"
       style="fill:#2da0b7;fill-opacity:1;stroke:none;stroke-width:1.0611608" />
  </g>
</svg>
