<?xml version="1.0" encoding="UTF-8" standalone="no"?>
<svg
   xmlns:dc="http://purl.org/dc/elements/1.1/"
   xmlns:cc="http://creativecommons.org/ns#"
   xmlns:rdf="http://www.w3.org/1999/02/22-rdf-syntax-ns#"
   xmlns:svg="http://www.w3.org/2000/svg"
   xmlns="http://www.w3.org/2000/svg"
   xmlns:sodipodi="http://sodipodi.sourceforge.net/DTD/sodipodi-0.dtd"
   xmlns:inkscape="http://www.inkscape.org/namespaces/inkscape"
   version="1.1"
   width="32"
   height="32"
   data-icon="people"
   data-container-transform="translate(0 8)"
   viewBox="0 0 32 32"
   id="svg2"
   inkscape:version="0.92.2 5c3e80d, 2017-08-06"
   sodipodi:docname="facets.svg"
   inkscape:export-filename="architecture.png"
   inkscape:export-xdpi="56.25"
   inkscape:export-ydpi="56.25">
  <metadata
     id="metadata10">
    <rdf:RDF>
      <cc:Work
         rdf:about="">
        <dc:format>image/svg+xml</dc:format>
        <dc:type
           rdf:resource="http://purl.org/dc/dcmitype/StillImage" />
        <dc:title></dc:title>
      </cc:Work>
    </rdf:RDF>
  </metadata>
  <defs
     id="defs8" />
  <sodipodi:namedview
     pagecolor="#ffffff"
     bordercolor="#666666"
     borderopacity="1"
     objecttolerance="10"
     gridtolerance="10"
     guidetolerance="10"
     inkscape:pageopacity="0"
     inkscape:pageshadow="2"
     inkscape:window-width="1920"
     inkscape:window-height="1152"
     id="namedview6"
     showgrid="false"
     inkscape:zoom="5.2480581"
     inkscape:cx="-44.996593"
     inkscape:cy="5.7903501"
     inkscape:window-x="0"
     inkscape:window-y="20"
     inkscape:window-maximized="1"
     inkscape:current-layer="svg2" />
  <path
     style="fill:#6aa3ae;fill-opacity:1;stroke:none;stroke-width:0.86367863;stroke-linejoin:miter;stroke-opacity:0.58139535"
     d="M 7.6113281 5.8222656 C 5.6794073 5.8222656 4.125 7.378626 4.125 9.3105469 L 4.125 10.978516 C 4.125 12.910436 5.6794073 14.466797 7.6113281 14.466797 L 9.7636719 14.466797 C 11.695593 14.466797 13.25 12.910436 13.25 10.978516 L 13.25 9.3105469 C 13.25 7.378626 11.695593 5.8222656 9.7636719 5.8222656 L 7.6113281 5.8222656 z M 7.8613281 6.8222656 L 9.5136719 6.8222656 C 10.998566 6.8222656 12.193359 8.019012 12.193359 9.5039062 L 12.193359 10.785156 C 12.193359 12.270051 10.998566 13.466797 9.5136719 13.466797 L 7.8613281 13.466797 C 6.3764339 13.466797 5.1816406 12.270051 5.1816406 10.785156 L 5.1816406 9.5039062 C 5.1816406 8.019012 6.3764339 6.8222656 7.8613281 6.8222656 z "
     id="rect4159-4" />
  <rect
     style="fill:#6aa3ae;fill-opacity:1;stroke:none;stroke-width:0.48896667;stroke-linejoin:miter;stroke-opacity:0.58139535"
     id="rect2316"
     width="5.1660666"
     height="4.8934259"
     x="6.1044669"
     y="7.6976852"
     ry="1.9742706" />
  <path
     style="fill:#6aa3ae;fill-opacity:1;stroke:none;stroke-width:0.86367863;stroke-linejoin:miter;stroke-opacity:0.58139535"
     d="M 7.6113281 17.822266 C 5.6794073 17.822266 4.125 19.378626 4.125 21.310547 L 4.125 22.978516 C 4.125 24.910436 5.6794073 26.466797 7.6113281 26.466797 L 9.7636719 26.466797 C 11.695593 26.466797 13.25 24.910436 13.25 22.978516 L 13.25 21.310547 C 13.25 19.378626 11.695593 17.822266 9.7636719 17.822266 L 7.6113281 17.822266 z M 7.8613281 18.822266 L 9.5136719 18.822266 C 10.998566 18.822266 12.193359 20.019012 12.193359 21.503906 L 12.193359 22.785156 C 12.193359 24.270051 10.998566 25.466797 9.5136719 25.466797 L 7.8613281 25.466797 C 6.3764339 25.466797 5.1816406 24.270051 5.1816406 22.785156 L 5.1816406 21.503906 C 5.1816406 20.019012 6.3764339 18.822266 7.8613281 18.822266 z "
     id="rect2329" />
  <rect
     style="fill:#6aa3ae;fill-opacity:1;stroke:none;stroke-width:3.77952766;stroke-miterlimit:4;stroke-dasharray:none;stroke-opacity:1"
     id="rect2338"
     width="6.5"
     height="2.75"
     x="18.935472"
     y="-6.5899124"
     ry="1.375"
     transform="rotate(45)" />
  <rect
     transform="rotate(120)"
     ry="1.375"
     y="-26.076826"
     x="-7.42276"
     height="2.75"
     width="10"
     id="rect2340"
     style="fill:#6aa3ae;fill-opacity:1;stroke:none;stroke-width:4.68792725;stroke-miterlimit:4;stroke-dasharray:none;stroke-opacity:1" />
</svg>
