<?xml version="1.0" encoding="UTF-8" standalone="no"?>
<svg
   xmlns:dc="http://purl.org/dc/elements/1.1/"
   xmlns:cc="http://creativecommons.org/ns#"
   xmlns:rdf="http://www.w3.org/1999/02/22-rdf-syntax-ns#"
   xmlns:svg="http://www.w3.org/2000/svg"
   xmlns="http://www.w3.org/2000/svg"
   xmlns:sodipodi="http://sodipodi.sourceforge.net/DTD/sodipodi-0.dtd"
   xmlns:inkscape="http://www.inkscape.org/namespaces/inkscape"
   version="1.1"
   x="0px"
   y="0px"
   viewBox="0 0 81.300003 61"
   enable-background="new 0 0 100 100"
   xml:space="preserve"
   id="svg2"
   inkscape:version="0.91 r13725"
   sodipodi:docname="fork.svg"
   width="81.300003"
   height="61"
   inkscape:export-filename="Z:\projects\occam\UI\fork.png"
   inkscape:export-xdpi="21.379999"
   inkscape:export-ydpi="21.379999"><metadata
     id="metadata14"><rdf:RDF><cc:Work
         rdf:about=""><dc:format>image/svg+xml</dc:format><dc:type
           rdf:resource="http://purl.org/dc/dcmitype/StillImage" /><dc:title></dc:title></cc:Work></rdf:RDF></metadata><defs
     id="defs12" /><sodipodi:namedview
     pagecolor="#ffffff"
     bordercolor="#666666"
     borderopacity="1"
     objecttolerance="10"
     gridtolerance="10"
     guidetolerance="10"
     inkscape:pageopacity="0"
     inkscape:pageshadow="2"
     inkscape:window-width="1680"
     inkscape:window-height="1028"
     id="namedview10"
     showgrid="false"
     fit-margin-top="0"
     fit-margin-left="0"
     fit-margin-right="0"
     fit-margin-bottom="0"
     inkscape:zoom="5.3400704"
     inkscape:cx="32.352731"
     inkscape:cy="48.228532"
     inkscape:window-x="1912"
     inkscape:window-y="10"
     inkscape:window-maximized="1"
     inkscape:current-layer="svg2" /><path
     d="m 63.1,45.5 -3.8,0 C 52.9,45.5 49.1,39 43.8,28.3 38.4,17.6 32.4,5.5 19.3,5.5 l -19.3,0 0,10 19.3,0 c 6.4,0 10.2,6.5 15.5,17.2 5.4,10.7 11.4,22.8 24.5,22.8 l 3.8,0 0,5.5 L 81.3,50.5 63.1,40 Z m -22.2,-30 22.2,0 0,5.5 L 81.3,10.5 63.1,0 l 0,5.5 -32.9,0 c 4.4,2.1 7.9,5.8 10.7,10 z"
     id="path4"
     inkscape:connector-curvature="0"
     style="fill:#004a4a;fill-opacity:1"
     sodipodi:nodetypes="cscsccscsccccccccccccc" /></svg>