<?xml version="1.0" encoding="UTF-8" standalone="no"?>
<svg
   xmlns:dc="http://purl.org/dc/elements/1.1/"
   xmlns:cc="http://creativecommons.org/ns#"
   xmlns:rdf="http://www.w3.org/1999/02/22-rdf-syntax-ns#"
   xmlns:svg="http://www.w3.org/2000/svg"
   xmlns="http://www.w3.org/2000/svg"
   xmlns:sodipodi="http://sodipodi.sourceforge.net/DTD/sodipodi-0.dtd"
   xmlns:inkscape="http://www.inkscape.org/namespaces/inkscape"
   version="1.1"
   x="0px"
   y="0px"
   width="100px"
   height="100px"
   viewBox="0 0 100 100"
   enable-background="new 0 0 100 100"
   xml:space="preserve"
   id="svg2"
   inkscape:version="0.91 r13725"
   sodipodi:docname="application-zip.small.svg"
   inkscape:export-filename="C:\Users\wilkie\occam\configuration.png"
   inkscape:export-xdpi="18"
   inkscape:export-ydpi="18"><metadata
     id="metadata122"><rdf:RDF><cc:Work
         rdf:about=""><dc:format>image/svg+xml</dc:format><dc:type
           rdf:resource="http://purl.org/dc/dcmitype/StillImage" /><dc:title /></cc:Work></rdf:RDF></metadata><defs
     id="defs120" /><sodipodi:namedview
     pagecolor="#ffffff"
     bordercolor="#666666"
     borderopacity="1"
     objecttolerance="10"
     gridtolerance="10"
     guidetolerance="10"
     inkscape:pageopacity="0"
     inkscape:pageshadow="2"
     inkscape:window-width="1920"
     inkscape:window-height="1057"
     id="namedview118"
     showgrid="false"
     inkscape:zoom="3.337544"
     inkscape:cx="56.114443"
     inkscape:cy="73.03688"
     inkscape:window-x="-8"
     inkscape:window-y="1072"
     inkscape:window-maximized="1"
     inkscape:current-layer="svg2"
     inkscape:object-nodes="false" /><path
     style="color:#000000;font-style:normal;font-variant:normal;font-weight:normal;font-stretch:normal;font-size:medium;line-height:normal;font-family:sans-serif;font-variant-ligatures:normal;font-variant-position:normal;font-variant-caps:normal;font-variant-numeric:normal;font-variant-alternates:normal;font-feature-settings:normal;text-indent:0;text-align:start;text-decoration:none;text-decoration-line:none;text-decoration-style:solid;text-decoration-color:#000000;letter-spacing:normal;word-spacing:normal;text-transform:none;writing-mode:lr-tb;direction:ltr;text-orientation:mixed;dominant-baseline:auto;baseline-shift:baseline;text-anchor:start;white-space:normal;shape-padding:0;clip-rule:nonzero;display:inline;overflow:visible;visibility:visible;opacity:1;isolation:auto;mix-blend-mode:normal;color-interpolation:sRGB;color-interpolation-filters:linearRGB;solid-color:#000000;solid-opacity:1;vector-effect:none;fill:#2da0b7;fill-opacity:1;fill-rule:nonzero;stroke:none;stroke-width:3.74525785;stroke-linecap:butt;stroke-linejoin:miter;stroke-miterlimit:4;stroke-dasharray:none;stroke-dashoffset:0;stroke-opacity:1;color-rendering:auto;image-rendering:auto;shape-rendering:auto;text-rendering:auto;enable-background:accumulate"
     d="m 15.884766,5.5253906 5.804687,3.6699219 H 94.353516 V 51.783203 c 0.05441,0.02406 0.107837,0.05012 0.160156,0.07813 l 2.753906,1.525391 c 0.276993,0.154946 0.517688,0.36306 0.707031,0.611328 l 0.08008,0.04492 c 0.0415,0.02527 0.08252,0.05132 0.123046,0.07813 V 5.5253906 Z M 3.5175781,18.244141 v 65.308593 h 3.4707031 l 2,-3.669922 H 7.3398438 v -54.71875 z m 94.6601559,43.398437 -3.824218,6.625 V 79.882812 H 77.003174 l -1.198486,3.669922 h 22.373046 z"
     id="rect962"
     inkscape:connector-curvature="0"
     sodipodi:nodetypes="ccccccccccccccccccccccccc" /><path
     style="fill:#2da0b7;fill-opacity:1;stroke:none;stroke-width:1.89847457px;stroke-linecap:butt;stroke-linejoin:miter;stroke-opacity:1"
     d="M 9.92893,6.3922492 4.5004788,11.8207 20.38908,40.579624 37.282538,23.686168 Z m 11.450176,15.8626448 7.467826,3.326038 -6.956129,6.956131 -2.74389,-8.046269 z"
     id="path964"
     inkscape:connector-curvature="0" /><rect
     transform="rotate(-60)"
     y="44.631676"
     x="-20.324116"
     height="3.1779659"
     width="13.135592"
     id="rect975"
     style="fill:#2da0b7;fill-opacity:1;stroke:none;stroke-width:0.77710754" /><rect
     style="fill:#2da0b7;fill-opacity:1;stroke:none;stroke-width:0.77710754"
     id="rect977"
     width="13.135592"
     height="3.1779659"
     x="-32.535686"
     y="45.124783"
     transform="rotate(-75)" /><rect
     transform="rotate(-90)"
     y="42.45998"
     x="-44.340508"
     height="3.1779659"
     width="13.135592"
     id="rect979"
     style="fill:#2da0b7;fill-opacity:1;stroke:none;stroke-width:0.77710754" /><rect
     style="fill:#2da0b7;fill-opacity:1;stroke:none;stroke-width:0.77710754"
     id="rect981"
     width="13.135592"
     height="3.1779659"
     x="-30.914459"
     y="56.384686"
     transform="rotate(-75)" /><rect
     transform="rotate(-60)"
     y="66.15786"
     x="-14.417633"
     height="3.1779659"
     width="13.135592"
     id="rect983"
     style="fill:#2da0b7;fill-opacity:1;stroke:none;stroke-width:0.77710754" /><rect
     style="fill:#2da0b7;fill-opacity:1;stroke:none;stroke-width:0.77710754"
     id="rect985"
     width="13.135592"
     height="3.1779659"
     x="3.8077452"
     y="71.326118"
     transform="rotate(-45)" /><rect
     transform="rotate(-30)"
     y="71.7099"
     x="23.046448"
     height="3.1779659"
     width="13.135592"
     id="rect987"
     style="fill:#2da0b7;fill-opacity:1;stroke:none;stroke-width:0.77710754" /><path
     sodipodi:type="inkscape:offset"
     inkscape:radius="0"
     inkscape:original="M 1.6816406 -111.93945 L 1.6816406 -108.76172 L 14.816406 -108.76172 L 14.816406 -111.93945 L 1.6816406 -111.93945 z "
     style="fill:#2da0b7;fill-opacity:1;stroke:none;stroke-width:0.77710754"
     id="rect989"
     d="m 1.6816406,-111.93945 v 3.17773 H 14.816406 v -3.17773 z"
     transform="rotate(120)" /><rect
     transform="rotate(105)"
     y="-100.41635"
     x="29.243723"
     height="3.1779659"
     width="13.135592"
     id="rect991"
     style="fill:#2da0b7;fill-opacity:1;stroke:none;stroke-width:0.77710754" /><rect
     style="fill:#2da0b7;fill-opacity:1;stroke:none;stroke-width:0.77710754"
     id="rect993"
     width="13.135592"
     height="3.1779659"
     x="53.00264"
     y="-82.132278"
     transform="rotate(90)" /><rect
     transform="rotate(105)"
     y="-89.156448"
     x="30.864946"
     height="3.1779659"
     width="13.135592"
     id="rect995"
     style="fill:#2da0b7;fill-opacity:1;stroke:none;stroke-width:0.77710754" /><rect
     style="fill:#2da0b7;fill-opacity:1;stroke:none;stroke-width:0.77710754"
     id="rect997"
     width="13.135592"
     height="3.1779659"
     x="7.5878739"
     y="-90.41378"
     transform="rotate(120)" /><rect
     transform="rotate(135)"
     y="-85.605911"
     x="-15.460287"
     height="3.1779659"
     width="13.135592"
     id="rect999"
     style="fill:#2da0b7;fill-opacity:1;stroke:none;stroke-width:0.77710754" /><g
     style="font-style:normal;font-variant:normal;font-weight:normal;font-stretch:normal;font-size:42.87388992px;line-height:1.25;font-family:inconsolata;-inkscape-font-specification:inconsolata;letter-spacing:0px;word-spacing:0px;fill:#2da0b7;fill-opacity:1;stroke:none;stroke-width:1.0718472"
     id="text1005"><path
       d="m 32.19214,96.340126 -22.7767537,0 0,-4.207838 14.6750957,-21.039189 -14.2773398,0 0,-5.359236 21.9812428,0 0,4.186903 -14.654162,21.060124 15.051917,0 0,5.359236 z"
       style="font-style:normal;font-variant:normal;font-weight:bold;font-stretch:normal;font-family:'Open Sans';-inkscape-font-specification:'Open Sans Bold';fill:#2da0b7;fill-opacity:1;stroke-width:1.0718472"
       id="path5280" /><path
       d="m 37.111751,96.340126 0,-30.606263 6.4897,0 0,30.606263 -6.4897,0 z"
       style="font-style:normal;font-variant:normal;font-weight:bold;font-stretch:normal;font-family:'Open Sans';-inkscape-font-specification:'Open Sans Bold';fill:#2da0b7;fill-opacity:1;stroke-width:1.0718472"
       id="path5282" /><path
       d="m 57.836921,80.13681 2.135321,0 q 2.993636,0 4.479986,-1.172333 1.486351,-1.193267 1.486351,-3.454195 0,-2.281862 -1.256071,-3.370457 -1.235137,-1.088595 -3.89382,-1.088595 l -2.951767,0 0,9.08558 z m 14.654162,-4.856808 q 0,4.940546 -3.098309,7.557361 -3.077374,2.616814 -8.771562,2.616814 l -2.784291,0 0,10.885949 -6.4897,0 0,-30.606263 9.776419,0 q 5.568581,0 8.457545,2.407469 2.909898,2.386535 2.909898,7.13867 z"
       style="font-style:normal;font-variant:normal;font-weight:bold;font-stretch:normal;font-family:'Open Sans';-inkscape-font-specification:'Open Sans Bold';fill:#2da0b7;fill-opacity:1;stroke-width:1.0718472"
       id="path5284" /></g></svg>