<?xml version="1.0" encoding="UTF-8" standalone="no"?>
<svg
   xmlns:dc="http://purl.org/dc/elements/1.1/"
   xmlns:cc="http://creativecommons.org/ns#"
   xmlns:rdf="http://www.w3.org/1999/02/22-rdf-syntax-ns#"
   xmlns:svg="http://www.w3.org/2000/svg"
   xmlns="http://www.w3.org/2000/svg"
   xmlns:sodipodi="http://sodipodi.sourceforge.net/DTD/sodipodi-0.dtd"
   xmlns:inkscape="http://www.inkscape.org/namespaces/inkscape"
   version="1.1"
   x="0px"
   y="0px"
   width="100px"
   height="100px"
   viewBox="0 0 100 100"
   enable-background="new 0 0 100 100"
   xml:space="preserve"
   id="svg2"
   inkscape:version="0.91 r13725"
   sodipodi:docname="git.svg"
   inkscape:export-filename="C:\Users\wilkie\occam\configuration.png"
   inkscape:export-xdpi="18"
   inkscape:export-ydpi="18"><metadata
     id="metadata122"><rdf:RDF><cc:Work
         rdf:about=""><dc:format>image/svg+xml</dc:format><dc:type
           rdf:resource="http://purl.org/dc/dcmitype/StillImage" /><dc:title></dc:title></cc:Work></rdf:RDF></metadata><defs
     id="defs120" /><sodipodi:namedview
     pagecolor="#ffffff"
     bordercolor="#666666"
     borderopacity="1"
     objecttolerance="10"
     gridtolerance="10"
     guidetolerance="10"
     inkscape:pageopacity="0"
     inkscape:pageshadow="2"
     inkscape:window-width="1920"
     inkscape:window-height="1057"
     id="namedview118"
     showgrid="false"
     inkscape:zoom="6.675088"
     inkscape:cx="20.569263"
     inkscape:cy="54.464644"
     inkscape:window-x="-8"
     inkscape:window-y="1072"
     inkscape:window-maximized="1"
     inkscape:current-layer="svg2"
     inkscape:object-nodes="false" /><path
     id="path10"
     d="M 96.310059,45.713214 54.28407,3.6923829 c -2.418067,-2.4202642 -6.34314,-2.4202642 -8.764249,0 L 36.793589,12.41946 47.86253,23.4884 c 2.573263,-0.868821 5.522727,-0.286295 7.572957,1.76434 2.060874,2.063408 2.639243,5.038049 1.748625,7.619929 l 10.668492,10.668492 c 2.581036,-0.889436 5.558971,-0.3148 7.61993,1.749808 2.881371,2.880527 2.881371,7.548119 0,10.429406 -2.881794,2.882216 -7.549386,2.882216 -10.432785,0 -2.166563,-2.168252 -2.702437,-5.351565 -1.60509,-8.020969 l -9.949543,-9.949543 -8.45e-4,26.182074 c 0.702475,0.347748 1.365412,0.81188 1.950793,1.394727 2.880527,2.880189 2.880527,7.546936 0,10.43194 -2.881371,2.880105 -7.551075,2.880105 -10.429405,0 -2.880949,-2.88475 -2.880949,-7.551498 0,-10.43194 0.711979,-0.710712 1.535813,-1.248656 2.414857,-1.609229 l 0,-26.425385 C 46.54105,36.932998 45.718187,36.399067 45.005152,35.682652 42.82296,33.50215 42.297393,30.299406 43.416537,27.619695 L 32.504734,16.706203 3.6910194,45.519073 c -2.4210244,2.422123 -2.4210244,6.347195 0,8.767628 L 45.71447,96.307617 c 2.419419,2.420264 6.34314,2.420264 8.765938,0 L 96.309543,54.485236 c 2.420273,-2.421447 2.420273,-6.347702 0,-8.768473"
     style="font-style:normal;font-variant:normal;font-weight:normal;font-stretch:normal;font-size:medium;line-height:1.25;font-family:inconsolata;-inkscape-font-specification:inconsolata;letter-spacing:0px;word-spacing:0px;fill:#2da0b7;fill-opacity:1;stroke:none;stroke-width:0.80709034"
     inkscape:connector-curvature="0" /></svg>