<?xml version="1.0" encoding="UTF-8" standalone="no"?>
<svg
   xmlns:dc="http://purl.org/dc/elements/1.1/"
   xmlns:cc="http://creativecommons.org/ns#"
   xmlns:rdf="http://www.w3.org/1999/02/22-rdf-syntax-ns#"
   xmlns:svg="http://www.w3.org/2000/svg"
   xmlns="http://www.w3.org/2000/svg"
   xmlns:sodipodi="http://sodipodi.sourceforge.net/DTD/sodipodi-0.dtd"
   xmlns:inkscape="http://www.inkscape.org/namespaces/inkscape"
   version="1.1"
   x="0px"
   y="0px"
   width="100px"
   height="100px"
   viewBox="0 0 100 100"
   enable-background="new 0 0 100 100"
   xml:space="preserve"
   id="svg2"
   inkscape:version="0.92.4 5da689c313, 2019-01-14"
   sodipodi:docname="text-tsv.small.svg"
   inkscape:export-filename="C:\Users\wilkie\occam\configuration.png"
   inkscape:export-xdpi="18"
   inkscape:export-ydpi="18"><metadata
     id="metadata122"><rdf:RDF><cc:Work
         rdf:about=""><dc:format>image/svg+xml</dc:format><dc:type
           rdf:resource="http://purl.org/dc/dcmitype/StillImage" /><dc:title></dc:title></cc:Work></rdf:RDF></metadata><defs
     id="defs120" /><sodipodi:namedview
     pagecolor="#ffffff"
     bordercolor="#666666"
     borderopacity="1"
     objecttolerance="10"
     gridtolerance="10"
     guidetolerance="10"
     inkscape:pageopacity="0"
     inkscape:pageshadow="2"
     inkscape:window-width="1920"
     inkscape:window-height="1152"
     id="namedview118"
     showgrid="false"
     inkscape:zoom="8.9"
     inkscape:cx="28.426966"
     inkscape:cy="50"
     inkscape:window-x="0"
     inkscape:window-y="20"
     inkscape:window-maximized="1"
     inkscape:current-layer="svg2"
     inkscape:object-nodes="false" /><path
     style="color:#000000;font-style:normal;font-variant:normal;font-weight:normal;font-stretch:normal;font-size:medium;line-height:normal;font-family:sans-serif;text-indent:0;text-align:start;text-decoration:none;text-decoration-line:none;text-decoration-style:solid;text-decoration-color:#000000;letter-spacing:normal;word-spacing:normal;text-transform:none;direction:ltr;writing-mode:lr-tb;baseline-shift:baseline;text-anchor:start;white-space:normal;clip-rule:nonzero;display:inline;overflow:visible;visibility:visible;opacity:1;isolation:auto;mix-blend-mode:normal;color-interpolation:sRGB;color-interpolation-filters:linearRGB;solid-color:#000000;solid-opacity:1;fill:#2da0b7;fill-opacity:1;fill-rule:nonzero;stroke:none;stroke-width:3.84708214;stroke-linecap:butt;stroke-linejoin:miter;stroke-miterlimit:4;stroke-dasharray:none;stroke-dashoffset:0;stroke-opacity:1;color-rendering:auto;image-rendering:auto;shape-rendering:auto;text-rendering:auto;enable-background:accumulate"
     d="M 32.353516,1.0390625 C 25.446321,7.8584722 18.363873,15.024901 12.439451,20.95117 l 0,2.054687 22.736328,0 0,-21.9667945 z m 4.757812,0 0,5.8476563 44.601563,0 c 0.0032,24.7111032 0,61.5166852 0,86.2265622 l -63.425782,0 c 0,-19.218353 -6.21e-4,-44.849981 0,-68.171875 l -5.847656,0 0,73.835938 0,0.183594 0.183594,0 74.753906,0 0.183594,0 0,-0.183594 0,-97.5546878 0,-0.1835937 -0.183594,0 z m -6.105469,7.2871094 0,10.4628901 -10.46289,0 z"
     id="rect962-5"
     inkscape:connector-curvature="0"
     sodipodi:nodetypes="ccccccccccccccccccccccccccc" /><rect
     style="fill:#2da0b7;fill-opacity:1;stroke:none;stroke-width:5.3294673;stroke-miterlimit:4;stroke-dasharray:none;stroke-dashoffset:0;stroke-opacity:1"
     id="rect1716"
     width="23.629709"
     height="14.640147"
     x="51.649117"
     y="31.167255"
     ry="0" /><rect
     ry="0"
     y="31.256159"
     x="23.956215"
     height="14.640147"
     width="23.629709"
     id="rect1770"
     style="fill:#2da0b7;fill-opacity:1;stroke:none;stroke-width:5.3294673;stroke-miterlimit:4;stroke-dasharray:none;stroke-dashoffset:0;stroke-opacity:1" /><rect
     style="fill:#2da0b7;fill-opacity:1;stroke:none;stroke-width:5.3294673;stroke-miterlimit:4;stroke-dasharray:none;stroke-dashoffset:0;stroke-opacity:1"
     id="rect1772"
     width="23.629709"
     height="14.640147"
     x="23.956215"
     y="50.047764"
     ry="0" /><rect
     ry="0"
     y="68.839378"
     x="23.956215"
     height="14.640147"
     width="23.629709"
     id="rect1774"
     style="fill:#2da0b7;fill-opacity:1;stroke:none;stroke-width:5.3294673;stroke-miterlimit:4;stroke-dasharray:none;stroke-dashoffset:0;stroke-opacity:1" /><path
     inkscape:connector-curvature="0"
     style="fill:#2da0b7;fill-opacity:1;stroke:none;stroke-width:5.3294673;stroke-miterlimit:4;stroke-dasharray:none;stroke-dashoffset:0;stroke-opacity:1"
     d="M 51.650181,50.080279 V 64.721141 H 75.279743 V 50.080279 Z m 2.859888,2.569166 h 17.906407 v 9.502531 H 54.510069 Z"
     id="path1833" /><path
     id="path1835"
     d="M 51.650181,68.882845 V 83.523707 H 75.279743 V 68.882845 Z m 2.859888,2.569165 h 17.906407 v 9.502531 H 54.510069 Z"
     style="fill:#2da0b7;fill-opacity:1;stroke:none;stroke-width:5.3294673;stroke-miterlimit:4;stroke-dasharray:none;stroke-dashoffset:0;stroke-opacity:1"
     inkscape:connector-curvature="0" /></svg>