<?xml version="1.0" encoding="UTF-8" standalone="no"?>
<!-- Created with Inkscape (http://www.inkscape.org/) -->

<svg
   xmlns:dc="http://purl.org/dc/elements/1.1/"
   xmlns:cc="http://creativecommons.org/ns#"
   xmlns:rdf="http://www.w3.org/1999/02/22-rdf-syntax-ns#"
   xmlns:svg="http://www.w3.org/2000/svg"
   xmlns="http://www.w3.org/2000/svg"
   xmlns:sodipodi="http://sodipodi.sourceforge.net/DTD/sodipodi-0.dtd"
   xmlns:inkscape="http://www.inkscape.org/namespaces/inkscape"
   width="68.26667"
   height="68.26667"
   id="svg4864"
   version="1.1"
   inkscape:version="0.92.2 2405546, 2018-03-11"
   sodipodi:docname="text-x-c.svg"
   inkscape:export-filename="C:\Users\wilkie\occam\object_large.png"
   inkscape:export-xdpi="135"
   inkscape:export-ydpi="135">
  <defs
     id="defs4866" />
  <sodipodi:namedview
     id="base"
     pagecolor="#ffffff"
     bordercolor="#666666"
     borderopacity="1.0"
     inkscape:pageopacity="0.0"
     inkscape:pageshadow="2"
     inkscape:zoom="5.0236343"
     inkscape:cx="58.698267"
     inkscape:cy="48.845224"
     inkscape:current-layer="layer1"
     showgrid="true"
     inkscape:document-units="px"
     inkscape:grid-bbox="true"
     inkscape:window-width="1920"
     inkscape:window-height="1152"
     inkscape:window-x="0"
     inkscape:window-y="20"
     inkscape:window-maximized="1"
     inkscape:snap-others="false"
     inkscape:object-nodes="false"
     inkscape:snap-nodes="false"
     inkscape:snap-global="false" />
  <metadata
     id="metadata4869">
    <rdf:RDF>
      <cc:Work
         rdf:about="">
        <dc:format>image/svg+xml</dc:format>
        <dc:type
           rdf:resource="http://purl.org/dc/dcmitype/StillImage" />
        <dc:title />
      </cc:Work>
    </rdf:RDF>
  </metadata>
  <g
     id="layer1"
     inkscape:label="Layer 1"
     inkscape:groupmode="layer">
    <path
       d="m 46.333181,26.684835 c 0,0 -0.939943,-8.763599 -9.635195,-9.006956 -8.695252,-0.243356 -13.160932,6.5727 -13.160932,16.309898 0,9.737199 4.935306,17.527372 13.395659,17.527372 8.460525,0 9.400468,-9.737199 9.400468,-9.737199 l 16.215662,0.973599 c 0,0 0.954787,8.794321 -5.830893,15.503887 C 49.932098,64.964484 41.603089,66.060624 35.78652,66.01506 29.969953,65.96863 21.905356,66.10619 14.106554,58.118569 6.3077505,50.13095 4.9843058,42.371326 4.9843058,34.748913 c 0,-7.622757 1.478952,-17.720676 10.7518742,-25.378123 6.302073,-5.2033443 12.690616,-7.1205106 19.080194,-7.1205106 26.674472,0 28.46599,24.6021436 28.46599,24.6021436 z"
       id="path3"
       inkscape:connector-curvature="0"
       style="fill:#2da0b7;fill-opacity:1;stroke-width:0.17259334" />
  </g>
</svg>
