[
      {"latitude": 22, "longitude": 88},
          {"latitude": 12.61315, "longitude": 38.37723},
              {"latitude": -30, "longitude": -58},
                  {"latitude": -14.270972, "longitude": -170.132217},
                      {"latitude": 28.033886, "longitude": 1.659626},
                          {"latitude": 40.463667, "longitude": -3.74922},
                              {"latitude": 35.907757, "longitude": 127.766922},
                                  {"latitude": 23.634501, "longitude": -102.552784}
]
