<?xml version="1.0" encoding="UTF-8" standalone="no"?>
<svg
   xmlns:dc="http://purl.org/dc/elements/1.1/"
   xmlns:cc="http://creativecommons.org/ns#"
   xmlns:rdf="http://www.w3.org/1999/02/22-rdf-syntax-ns#"
   xmlns:svg="http://www.w3.org/2000/svg"
   xmlns="http://www.w3.org/2000/svg"
   xmlns:sodipodi="http://sodipodi.sourceforge.net/DTD/sodipodi-0.dtd"
   xmlns:inkscape="http://www.inkscape.org/namespaces/inkscape"
   version="1.1"
   id="Layer_2"
   x="0px"
   y="0px"
   width="100px"
   height="100px"
   viewBox="0 0 100 100"
   enable-background="new 0 0 100 100"
   xml:space="preserve"
   inkscape:version="0.91 r13725"
   sodipodi:docname="font_large.svg"
   inkscape:export-filename="Z:\projects\occam\Large-Icons\experiment_large.png"
   inkscape:export-xdpi="86.400002"
   inkscape:export-ydpi="86.400002"><metadata
     id="metadata17"><rdf:RDF><cc:Work
         rdf:about=""><dc:format>image/svg+xml</dc:format><dc:type
           rdf:resource="http://purl.org/dc/dcmitype/StillImage" /><dc:title /></cc:Work></rdf:RDF></metadata><defs
     id="defs15"><marker
       inkscape:stockid="TriangleInL"
       orient="auto"
       refY="0.0"
       refX="0.0"
       id="TriangleInL"
       style="overflow:visible"><path
         id="path3916"
         d="M 5.77,0.0 L -2.88,5.0 L -2.88,-5.0 L 5.77,0.0 z "
         style="fill-rule:evenodd;stroke:#000000;stroke-width:1.0pt"
         transform="scale(-0.8)" /></marker><marker
       inkscape:stockid="Arrow2Lstart"
       orient="auto"
       refY="0.0"
       refX="0.0"
       id="Arrow2Lstart"
       style="overflow:visible"><path
         id="path3801"
         style="fill-rule:evenodd;stroke-width:0.62500000;stroke-linejoin:round"
         d="M 8.7185878,4.0337352 L -2.2072895,0.016013256 L 8.7185884,-4.0017078 C 6.9730900,-1.6296469 6.9831476,1.6157441 8.7185878,4.0337352 z "
         transform="scale(1.1) translate(1,0)" /></marker><marker
       inkscape:stockid="Arrow1Lstart"
       orient="auto"
       refY="0.0"
       refX="0.0"
       id="Arrow1Lstart"
       style="overflow:visible"><path
         id="path3783"
         d="M 0.0,0.0 L 5.0,-5.0 L -12.5,0.0 L 5.0,5.0 L 0.0,0.0 z "
         style="fill-rule:evenodd;stroke:#000000;stroke-width:1.0pt"
         transform="scale(0.8) translate(12.5,0)" /></marker></defs><sodipodi:namedview
     pagecolor="#ffffff"
     bordercolor="#666666"
     borderopacity="1"
     objecttolerance="10"
     gridtolerance="10"
     guidetolerance="10"
     inkscape:pageopacity="0"
     inkscape:pageshadow="2"
     inkscape:window-width="1920"
     inkscape:window-height="1176"
     id="namedview13"
     showgrid="false"
     inkscape:zoom="2.8284271"
     inkscape:cx="-47.849567"
     inkscape:cy="19.732749"
     inkscape:window-x="0"
     inkscape:window-y="24"
     inkscape:window-maximized="1"
     inkscape:current-layer="Layer_2" /><g
     style="font-style:normal;font-weight:normal;font-size:53.12707138px;line-height:125%;font-family:sans-serif;letter-spacing:0px;word-spacing:0px;fill:#2da0b7;fill-opacity:1;stroke:none;stroke-width:1px;stroke-linecap:butt;stroke-linejoin:miter;stroke-opacity:1"
     id="text8400"
     transform="matrix(1.5503328,0,0,1.5503328,-27.516639,-27.516632)"><path
       d="m 53.489059,68.91095 -5.473541,0 -3.787379,-10.765496 -16.705974,0 -3.787379,10.765496 -5.214132,0 14.059997,-38.626079 6.848411,0 14.059997,38.626079 z M 42.64574,53.735492 35.875152,34.772656 l -6.79653,18.962836 13.567118,0 z"
       id="path8409"
       inkscape:connector-curvature="0" /><path
       d="m 81.479346,68.91095 -4.850958,0 0,-3.086974 q -0.648524,0.440997 -1.763985,1.245166 -1.08952,0.778229 -2.127158,1.245166 -1.219225,0.596642 -2.801623,0.985756 -1.582398,0.415055 -3.709556,0.415055 -3.917084,0 -6.640884,-2.594095 -2.7238,-2.594095 -2.7238,-6.614943 0,-3.294501 1.400811,-5.317895 1.426753,-2.049336 4.046789,-3.216678 2.645977,-1.167343 6.355533,-1.582399 3.709557,-0.415055 7.963873,-0.622582 l 0,-0.752288 q 0,-1.660221 -0.596642,-2.749741 -0.570701,-1.08952 -1.660221,-1.712103 -1.037638,-0.596642 -2.490332,-0.80417 -1.452693,-0.207527 -3.035091,-0.207527 -1.91963,0 -4.280257,0.518819 -2.360627,0.492878 -4.876899,1.452693 l -0.25941,0 0,-4.954722 q 1.426753,-0.389114 4.124612,-0.856051 2.697859,-0.466937 5.317895,-0.466937 3.061032,0 5.317895,0.518819 2.282804,0.492878 3.943025,1.712103 1.63428,1.193283 2.490332,3.086973 0.856051,1.89369 0.856051,4.695312 l 0,19.663243 z m -4.850958,-7.133762 0,-8.067637 q -2.230922,0.129705 -5.266014,0.389115 -3.00915,0.259409 -4.773135,0.752287 -2.101217,0.596642 -3.398265,1.867749 -1.297047,1.245166 -1.297047,3.450147 0,2.490331 1.504575,3.761438 1.504575,1.245166 4.591549,1.245166 2.568154,0 4.695312,-0.985757 2.127158,-1.011697 3.943025,-2.412508 z"
       id="path8411"
       inkscape:connector-curvature="0" /></g></svg>