<?xml version="1.0" encoding="UTF-8" standalone="no"?>
<svg
   xmlns:dc="http://purl.org/dc/elements/1.1/"
   xmlns:cc="http://creativecommons.org/ns#"
   xmlns:rdf="http://www.w3.org/1999/02/22-rdf-syntax-ns#"
   xmlns:svg="http://www.w3.org/2000/svg"
   xmlns="http://www.w3.org/2000/svg"
   xmlns:sodipodi="http://sodipodi.sourceforge.net/DTD/sodipodi-0.dtd"
   xmlns:inkscape="http://www.inkscape.org/namespaces/inkscape"
   version="1.1"
   x="0px"
   y="0px"
   width="100px"
   height="100px"
   viewBox="0 0 100 100"
   enable-background="new 0 0 100 100"
   xml:space="preserve"
   id="svg2"
   inkscape:version="0.91 r13725"
   sodipodi:docname="zip-template.svg"
   inkscape:export-filename="C:\Users\wilkie\occam\configuration.png"
   inkscape:export-xdpi="18"
   inkscape:export-ydpi="18"><metadata
     id="metadata122"><rdf:RDF><cc:Work
         rdf:about=""><dc:format>image/svg+xml</dc:format><dc:type
           rdf:resource="http://purl.org/dc/dcmitype/StillImage" /><dc:title></dc:title></cc:Work></rdf:RDF></metadata><defs
     id="defs120" /><sodipodi:namedview
     pagecolor="#ffffff"
     bordercolor="#666666"
     borderopacity="1"
     objecttolerance="10"
     gridtolerance="10"
     guidetolerance="10"
     inkscape:pageopacity="0"
     inkscape:pageshadow="2"
     inkscape:window-width="1920"
     inkscape:window-height="1057"
     id="namedview118"
     showgrid="false"
     inkscape:zoom="6.675088"
     inkscape:cx="15.138458"
     inkscape:cy="59.065641"
     inkscape:window-x="-8"
     inkscape:window-y="1072"
     inkscape:window-maximized="1"
     inkscape:current-layer="svg2"
     inkscape:object-nodes="false" /><text
     xml:space="preserve"
     style="font-style:normal;font-variant:normal;font-weight:normal;font-stretch:normal;font-size:32.28361511px;line-height:1.25;font-family:inconsolata;-inkscape-font-specification:inconsolata;letter-spacing:0px;word-spacing:0px;fill:#2da0b7;fill-opacity:1;stroke:none;stroke-width:0.80709034"
     x="16.088623"
     y="95.855942"
     id="text1005"><tspan
       sodipodi:role="line"
       id="tspan1003"
       x="16.088623"
       y="95.855942"
       style="font-style:normal;font-variant:normal;font-weight:bold;font-stretch:normal;font-family:'Open Sans';-inkscape-font-specification:'Open Sans Bold';fill:#2da0b7;fill-opacity:1;stroke-width:0.80709034">GZ</tspan></text>
<path
     style="color:#000000;font-style:normal;font-variant:normal;font-weight:normal;font-stretch:normal;font-size:medium;line-height:normal;font-family:sans-serif;text-indent:0;text-align:start;text-decoration:none;text-decoration-line:none;text-decoration-style:solid;text-decoration-color:#000000;letter-spacing:normal;word-spacing:normal;text-transform:none;direction:ltr;writing-mode:lr-tb;baseline-shift:baseline;text-anchor:start;white-space:normal;clip-rule:nonzero;display:inline;overflow:visible;visibility:visible;opacity:1;isolation:auto;mix-blend-mode:normal;color-interpolation:sRGB;color-interpolation-filters:linearRGB;solid-color:#000000;solid-opacity:1;fill:#2da0b7;fill-opacity:1;fill-rule:nonzero;stroke:none;stroke-width:3.8235395;stroke-linecap:butt;stroke-linejoin:miter;stroke-miterlimit:4;stroke-dasharray:none;stroke-dashoffset:0;stroke-opacity:1;color-rendering:auto;image-rendering:auto;shape-rendering:auto;text-rendering:auto;enable-background:accumulate"
     d="m 3.4189743,5.4625032 0,0.18164 0.18164,-0.18164 z m 14.9238287,0 4.048828,3.824219 71.863282,0 0,44.3867178 c 0.0544,0.02527 0.10784,0.05264 0.16015,0.08203 l 2.75391,1.589844 c 0.39015,0.226156 0.70631,0.560637 0.91016,0.962891 l 0,-50.8457018 z M 3.4189743,17.411721 l 0,69.373045 10.2656257,0 0,-3.824219 -6.4433607,0 0,-52.630856 z M 98.079134,58.415626 c -0.0185,0.0383 -0.038,0.0761 -0.0586,0.11328 l -3.765629,6.52344 0,17.908201 -32.48242,0 0,3.824219 36.30664,0 z"
     id="rect962-5"
     inkscape:connector-curvature="0"
     sodipodi:nodetypes="cccccccccccccccccccccccccccc" /><path
     style="fill:#2da0b7;fill-opacity:1;stroke:none;stroke-width:1.31233025px;stroke-linecap:butt;stroke-linejoin:miter;stroke-opacity:1"
     d="M 9.7914083,3.0281017 5.1545893,5.6091072 10.271906,27.737046 24.701787,19.704899 Z m 4.6085667,12.7138663 4.334916,3.625271 -5.941716,3.307356 -0.300573,-5.868845 z"
     id="path964"
     inkscape:connector-curvature="0" /><path
     inkscape:connector-curvature="0"
     style="fill:#2da0b7;fill-opacity:1;stroke:none;stroke-width:0.77710754"
     d="m 23.006866,23.251565 -7.804688,4.345703 1.730469,1.730469 6.074219,-6.076172 z"
     id="rect969" /><rect
     transform="matrix(0.70710678,-0.70710678,0.70710678,0.70710678,0,0)"
     y="35.189232"
     x="-8.7653074"
     height="3.1779659"
     width="13.135592"
     id="rect971"
     style="fill:#2da0b7;fill-opacity:1;stroke:none;stroke-width:0.77710754" /><rect
     style="fill:#2da0b7;fill-opacity:1;stroke:none;stroke-width:0.77710754"
     id="rect973"
     width="13.135592"
     height="3.1779659"
     x="-8.7653074"
     y="40.846092"
     transform="matrix(0.70710678,-0.70710678,0.70710678,0.70710678,0,0)" /><rect
     transform="matrix(0.5,-0.8660254,0.8660254,0.5,0,0)"
     y="44.514843"
     x="-20.318956"
     height="3.1779659"
     width="13.135592"
     id="rect975"
     style="fill:#2da0b7;fill-opacity:1;stroke:none;stroke-width:0.77710754" /><rect
     style="fill:#2da0b7;fill-opacity:1;stroke:none;stroke-width:0.77710754"
     id="rect977"
     width="13.135592"
     height="3.1779659"
     x="-32.500465"
     y="45.013268"
     transform="matrix(0.25881905,-0.96592583,0.96592583,0.25881905,0,0)" /><rect
     transform="matrix(0,-1,1,0,0,0)"
     y="42.361374"
     x="-44.277618"
     height="3.1779659"
     width="13.135592"
     id="rect979"
     style="fill:#2da0b7;fill-opacity:1;stroke:none;stroke-width:0.77710754" /><rect
     style="fill:#2da0b7;fill-opacity:1;stroke:none;stroke-width:0.77710754"
     id="rect981"
     width="13.135592"
     height="3.1779659"
     x="-30.879232"
     y="56.273167"
     transform="matrix(0.25881905,-0.96592583,0.96592583,0.25881905,0,0)" /><rect
     transform="matrix(0.5,-0.8660254,0.8660254,0.5,0,0)"
     y="66.041023"
     x="-14.412474"
     height="3.1779659"
     width="13.135592"
     id="rect983"
     style="fill:#2da0b7;fill-opacity:1;stroke:none;stroke-width:0.77710754" /><rect
     style="fill:#2da0b7;fill-opacity:1;stroke:none;stroke-width:0.77710754"
     id="rect985"
     width="13.135592"
     height="3.1779659"
     x="3.7824905"
     y="71.211929"
     transform="matrix(0.70710678,-0.70710678,0.70710678,0.70710678,0,0)" /><rect
     transform="matrix(0.8660254,-0.5,0.5,0.8660254,0,0)"
     y="71.606133"
     x="22.992498"
     height="3.1779659"
     width="13.135592"
     id="rect987"
     style="fill:#2da0b7;fill-opacity:1;stroke:none;stroke-width:0.77710754" /><rect
     style="fill:#2da0b7;fill-opacity:1;stroke:none;stroke-width:0.77710754"
     id="rect989"
     width="13.135592"
     height="3.1779659"
     x="1.6762298"
     y="-111.82312"
     transform="matrix(-0.5,0.8660254,-0.8660254,-0.5,0,0)" /><rect
     transform="matrix(-0.25881905,0.96592583,-0.96592583,-0.25881905,0,0)"
     y="-100.30484"
     x="29.208502"
     height="3.1779659"
     width="13.135592"
     id="rect991"
     style="fill:#2da0b7;fill-opacity:1;stroke:none;stroke-width:0.77710754" /><rect
     style="fill:#2da0b7;fill-opacity:1;stroke:none;stroke-width:0.77710754"
     id="rect993"
     width="13.135592"
     height="3.1779659"
     x="52.939751"
     y="-82.033669"
     transform="matrix(0,1,-1,0,0,0)" /><rect
     transform="matrix(-0.25881905,0.96592583,-0.96592583,-0.25881905,0,0)"
     y="-89.04493"
     x="30.829725"
     height="3.1779659"
     width="13.135592"
     id="rect995"
     style="fill:#2da0b7;fill-opacity:1;stroke:none;stroke-width:0.77710754" /><rect
     style="fill:#2da0b7;fill-opacity:1;stroke:none;stroke-width:0.77710754"
     id="rect997"
     width="13.135592"
     height="3.1779659"
     x="7.5827165"
     y="-90.296944"
     transform="matrix(-0.5,0.8660254,-0.8660254,-0.5,0,0)" /><rect
     transform="matrix(-0.70710678,0.70710678,-0.70710678,-0.70710678,0,0)"
     y="-85.491714"
     x="-15.435032"
     height="3.1779659"
     width="13.135592"
     id="rect999"
     style="fill:#2da0b7;fill-opacity:1;stroke:none;stroke-width:0.77710754" /></svg>