<?xml version="1.0" encoding="UTF-8" standalone="no"?>
<svg
   xmlns:dc="http://purl.org/dc/elements/1.1/"
   xmlns:cc="http://creativecommons.org/ns#"
   xmlns:rdf="http://www.w3.org/1999/02/22-rdf-syntax-ns#"
   xmlns:svg="http://www.w3.org/2000/svg"
   xmlns="http://www.w3.org/2000/svg"
   xmlns:sodipodi="http://sodipodi.sourceforge.net/DTD/sodipodi-0.dtd"
   xmlns:inkscape="http://www.inkscape.org/namespaces/inkscape"
   version="1.1"
   x="0px"
   y="0px"
   width="100px"
   height="100px"
   viewBox="0 0 100 100"
   enable-background="new 0 0 100 100"
   xml:space="preserve"
   id="svg2"
   inkscape:version="0.91 r13725"
   sodipodi:docname="image-bmp.small.svg"
   inkscape:export-filename="C:\Users\wilkie\occam\configuration.png"
   inkscape:export-xdpi="18"
   inkscape:export-ydpi="18"><metadata
     id="metadata122"><rdf:RDF><cc:Work
         rdf:about=""><dc:format>image/svg+xml</dc:format><dc:type
           rdf:resource="http://purl.org/dc/dcmitype/StillImage" /><dc:title></dc:title></cc:Work></rdf:RDF></metadata><defs
     id="defs120" /><sodipodi:namedview
     pagecolor="#ffffff"
     bordercolor="#666666"
     borderopacity="1"
     objecttolerance="10"
     gridtolerance="10"
     guidetolerance="10"
     inkscape:pageopacity="0"
     inkscape:pageshadow="2"
     inkscape:window-width="1920"
     inkscape:window-height="1057"
     id="namedview118"
     showgrid="false"
     inkscape:zoom="6.675088"
     inkscape:cx="17.944109"
     inkscape:cy="33.736644"
     inkscape:window-x="-8"
     inkscape:window-y="1072"
     inkscape:window-maximized="1"
     inkscape:current-layer="svg2"
     inkscape:object-nodes="false" /><path
     style="fill:#2da0b7;fill-opacity:1;fill-rule:evenodd;stroke:none;stroke-width:1px;stroke-linecap:butt;stroke-linejoin:miter;stroke-opacity:1"
     d="M 55.628906 44.185547 C 47.130915 50.561768 38.471778 56.304621 28.373047 61.222656 C 29.806688 61.503426 31.154323 61.912853 32.419922 62.517578 A 4.8618391 4.8618391 0 0 1 36.058594 60.871094 L 44.863281 60.871094 A 4.8618391 4.8618391 0 0 1 49.507812 64.294922 L 52.279297 73.251953 L 55.246094 64.216797 A 4.8618391 4.8618391 0 0 1 59.865234 60.871094 L 68.671875 60.871094 A 4.8618391 4.8618391 0 0 1 69.818359 61.013672 A 4.9804384 4.9804384 0 0 1 71.400391 60.751953 L 81.144531 60.751953 C 85.552989 60.751953 89.615149 61.696338 92.742188 64.292969 C 95.081344 66.216768 96.522976 68.984264 97.125 71.972656 L 97.125 62.425781 C 87.257289 59.086396 74.052075 53.451546 55.628906 44.185547 z "
     id="path5837" /><path
     style="color:#000000;font-style:normal;font-variant:normal;font-weight:normal;font-stretch:normal;font-size:medium;line-height:normal;font-family:sans-serif;text-indent:0;text-align:start;text-decoration:none;text-decoration-line:none;text-decoration-style:solid;text-decoration-color:#000000;letter-spacing:normal;word-spacing:normal;text-transform:none;direction:ltr;writing-mode:lr-tb;baseline-shift:baseline;text-anchor:start;white-space:normal;clip-rule:nonzero;display:inline;overflow:visible;visibility:visible;opacity:1;isolation:auto;mix-blend-mode:normal;color-interpolation:sRGB;color-interpolation-filters:linearRGB;solid-color:#000000;solid-opacity:1;fill:#2da0b7;fill-opacity:1;fill-rule:nonzero;stroke:none;stroke-width:3.74525785;stroke-linecap:butt;stroke-linejoin:miter;stroke-miterlimit:4;stroke-dasharray:none;stroke-dashoffset:0;stroke-opacity:1;color-rendering:auto;image-rendering:auto;shape-rendering:auto;text-rendering:auto;enable-background:accumulate"
     d="M 3.5175781 5.5253906 L 3.5175781 83.552734 L 7.2832031 83.552734 L 7.2832031 65.732422 A 5.0364633 5.0364633 0 0 1 7.3417969 64.992188 C 7.3412007 46.393625 7.3417969 27.796499 7.3417969 9.1953125 L 94.353516 9.1953125 C 94.355202 29.077928 94.353984 47.213602 94.353516 65.951172 C 96.428191 68.502637 97.455078 71.866889 97.455078 75.246094 C 97.455078 78.199578 96.682563 81.118866 95.171875 83.552734 L 98.177734 83.552734 L 98.177734 5.5253906 L 3.5175781 5.5253906 z "
     id="rect962" /><path
     d="m 12.318209,65.731756 9.493693,0 q 6.489095,0 9.410231,1.857008 2.942001,1.836143 2.942001,5.863137 0,2.733349 -1.293646,4.486031 -1.27278,1.752682 -3.401037,2.107391 l 0,0.208653 q 2.900271,0.646822 4.173052,2.420369 1.293646,1.773547 1.293646,4.715549 0,4.173051 -3.025462,6.50996 -3.004598,2.336909 -8.179182,2.336909 l -11.413296,0 0,-30.505007 z m 6.46823,12.080984 3.755747,0 q 2.629022,0 3.797477,-0.813745 1.189319,-0.813745 1.189319,-2.691618 0,-1.752682 -1.293646,-2.503831 -1.27278,-0.772014 -4.04786,-0.772014 l -3.401037,0 0,6.781208 z m 0,5.132854 0,7.949663 4.214782,0 q 2.670753,0 3.943534,-1.022398 1.272781,-1.022397 1.272781,-3.129788 0,-3.797477 -5.424967,-3.797477 l -4.00613,0 z"
     style="font-style:normal;font-variant:normal;font-weight:bold;font-stretch:normal;font-size:medium;line-height:1.25;font-family:'Open Sans';-inkscape-font-specification:'Open Sans Bold';letter-spacing:-4.96999788px;word-spacing:0px;fill:#2da0b7;fill-opacity:1;stroke:none;stroke-width:0.80709034"
     id="path12391"
     inkscape:connector-curvature="0" /><path
     d="m 48.974401,96.236763 -7.344571,-23.932451 -0.187787,0 q 0.39644,7.302841 0.39644,9.744076 l 0,14.188375 -5.779677,0 0,-30.505007 8.805139,0 7.219379,23.327358 0.125192,0 7.657549,-23.327358 8.805139,0 0,30.505007 -6.030059,0 0,-14.438758 q 0,-1.022398 0.02087,-2.357775 0.04173,-1.335376 0.292114,-7.094187 l -0.187788,0 -7.866202,23.89072 -5.925733,0 z"
     style="font-style:normal;font-variant:normal;font-weight:bold;font-stretch:normal;font-size:medium;line-height:1.25;font-family:'Open Sans';-inkscape-font-specification:'Open Sans Bold';letter-spacing:-4.96999788px;word-spacing:0px;fill:#2da0b7;fill-opacity:1;stroke:none;stroke-width:0.80709034"
     id="path12393"
     inkscape:connector-curvature="0" /><path
     d="m 77.868719,80.087053 2.128256,0 q 2.983732,0 4.465165,-1.168454 1.481433,-1.18932 1.481433,-3.442768 0,-2.274313 -1.251915,-3.359306 -1.23105,-1.084993 -3.880938,-1.084993 l -2.942001,0 0,9.055521 z m 14.60568,-4.840739 q 0,4.9242 -3.088058,7.532358 -3.067193,2.608157 -8.742543,2.608157 l -2.775079,0 0,10.849934 -6.46823,0 0,-30.505007 9.744075,0 q 5.550159,0 8.429564,2.399505 2.900271,2.378639 2.900271,7.115053 z"
     style="font-style:normal;font-variant:normal;font-weight:bold;font-stretch:normal;font-size:medium;line-height:1.25;font-family:'Open Sans';-inkscape-font-specification:'Open Sans Bold';letter-spacing:-4.96999788px;word-spacing:0px;fill:#2da0b7;fill-opacity:1;stroke:none;stroke-width:0.80709034"
     id="path12395"
     inkscape:connector-curvature="0" /><circle
     style="opacity:1;fill:#2da0b7;fill-opacity:1;stroke:none"
     id="path9965"
     cx="23.819912"
     cy="26.892349"
     r="10.636564" /><path
     style="fill:#2da0b7;fill-opacity:1;fill-rule:evenodd;stroke:none;stroke-width:1px;stroke-linecap:butt;stroke-linejoin:miter;stroke-opacity:1"
     d="M 50.535541,28.605039 C 39.465183,43.635567 26.719842,54.121355 13.498431,63.314022 29.159836,57.559396 42.29625,50.172443 53.701556,41.614804 c 0.52628,-0.394592 1.160964,-0.618198 1.81836,-0.640625 0.537869,-0.01852 1.071776,0.09834 1.552734,0.339844 14.014449,7.048616 24.906719,11.924405 33.580078,15.30078 l 0,-3.185547 C 77.540903,47.698589 64.256141,40.267911 50.535541,28.605039 Z"
     id="path5839"
     inkscape:connector-curvature="0"
     sodipodi:nodetypes="cccccccc" /></svg>