<?xml version="1.0" encoding="UTF-8" standalone="no"?>
<svg
   xmlns:dc="http://purl.org/dc/elements/1.1/"
   xmlns:cc="http://creativecommons.org/ns#"
   xmlns:rdf="http://www.w3.org/1999/02/22-rdf-syntax-ns#"
   xmlns:svg="http://www.w3.org/2000/svg"
   xmlns="http://www.w3.org/2000/svg"
   xmlns:sodipodi="http://sodipodi.sourceforge.net/DTD/sodipodi-0.dtd"
   xmlns:inkscape="http://www.inkscape.org/namespaces/inkscape"
   version="1.1"
   x="0px"
   y="0px"
   width="100px"
   height="100px"
   viewBox="0 0 100 100"
   enable-background="new 0 0 100 100"
   xml:space="preserve"
   id="svg2"
   inkscape:version="0.91 r13725"
   sodipodi:docname="image-png.small.svg"
   inkscape:export-filename="C:\Users\wilkie\occam\configuration.png"
   inkscape:export-xdpi="18"
   inkscape:export-ydpi="18"><metadata
     id="metadata122"><rdf:RDF><cc:Work
         rdf:about=""><dc:format>image/svg+xml</dc:format><dc:type
           rdf:resource="http://purl.org/dc/dcmitype/StillImage" /><dc:title></dc:title></cc:Work></rdf:RDF></metadata><defs
     id="defs120" /><sodipodi:namedview
     pagecolor="#ffffff"
     bordercolor="#666666"
     borderopacity="1"
     objecttolerance="10"
     gridtolerance="10"
     guidetolerance="10"
     inkscape:pageopacity="0"
     inkscape:pageshadow="2"
     inkscape:window-width="1920"
     inkscape:window-height="1057"
     id="namedview118"
     showgrid="false"
     inkscape:zoom="6.2932504"
     inkscape:cx="15.761388"
     inkscape:cy="45.098157"
     inkscape:window-x="-8"
     inkscape:window-y="1072"
     inkscape:window-maximized="1"
     inkscape:current-layer="svg2"
     inkscape:object-nodes="false" /><path
     style="fill:#2da0b7;fill-opacity:1;fill-rule:evenodd;stroke:none;stroke-width:1px;stroke-linecap:butt;stroke-linejoin:miter;stroke-opacity:1"
     d="M 55.628906 44.185547 C 47.006085 50.655431 38.212213 56.469957 27.921875 61.435547 C 29.107242 61.745352 30.239645 62.164974 31.298828 62.720703 A 5.211305 5.211305 0 0 1 35.542969 60.521484 L 43.701172 60.521484 A 5.211305 5.211305 0 0 1 48.208984 63.119141 L 51.572266 68.917969 L 51.572266 65.732422 A 5.211305 5.211305 0 0 1 56.783203 60.521484 L 62.605469 60.521484 A 5.211305 5.211305 0 0 1 67.589844 64.216797 C 71.31783 61.420006 76.084248 60.095703 81.197266 60.095703 C 85.0212 60.095703 88.780367 60.879105 92.308594 62.398438 A 5.1980338 5.1980338 0 0 1 95.052734 69.166016 L 92.904297 74.339844 A 5.1980338 5.1980338 0 0 1 92.804688 74.560547 A 5.1980338 5.1980338 0 0 1 92.943359 74.642578 C 94.346832 74.464788 95.741735 74.279624 97.125 74.082031 L 97.125 62.425781 C 87.257289 59.086396 74.052075 53.451546 55.628906 44.185547 z "
     id="path5837" /><path
     style="color:#000000;font-style:normal;font-variant:normal;font-weight:normal;font-stretch:normal;font-size:medium;line-height:normal;font-family:sans-serif;text-indent:0;text-align:start;text-decoration:none;text-decoration-line:none;text-decoration-style:solid;text-decoration-color:#000000;letter-spacing:normal;word-spacing:normal;text-transform:none;direction:ltr;writing-mode:lr-tb;baseline-shift:baseline;text-anchor:start;white-space:normal;clip-rule:nonzero;display:inline;overflow:visible;visibility:visible;opacity:1;isolation:auto;mix-blend-mode:normal;color-interpolation:sRGB;color-interpolation-filters:linearRGB;solid-color:#000000;solid-opacity:1;fill:#2da0b7;fill-opacity:1;fill-rule:nonzero;stroke:none;stroke-width:3.74525785;stroke-linecap:butt;stroke-linejoin:miter;stroke-miterlimit:4;stroke-dasharray:none;stroke-dashoffset:0;stroke-opacity:1;color-rendering:auto;image-rendering:auto;shape-rendering:auto;text-rendering:auto;enable-background:accumulate"
     d="M 3.5175781 5.5253906 L 3.5175781 83.552734 L 7.3300781 83.552734 L 7.3300781 65.732422 C 7.3300982 65.653264 7.3381308 65.576302 7.3417969 65.498047 C 7.3411544 46.730839 7.3417969 27.965139 7.3417969 9.1953125 L 94.353516 9.1953125 C 94.355279 29.983829 94.353945 48.882077 94.353516 68.537109 L 94.386719 68.537109 L 94.386719 83.552734 L 98.177734 83.552734 L 98.177734 5.5253906 L 3.5175781 5.5253906 z "
     id="rect962" /><path
     d="m 18.786439,80.087053 2.128257,0 q 2.983732,0 4.465165,-1.168454 1.481433,-1.18932 1.481433,-3.442768 0,-2.274313 -1.251915,-3.359306 -1.231051,-1.084993 -3.880938,-1.084993 l -2.942002,0 0,9.055521 z M 33.39212,75.246314 q 0,4.9242 -3.088058,7.532358 -3.067193,2.608157 -8.742543,2.608157 l -2.77508,0 0,10.849934 -6.46823,0 0,-30.505007 9.744076,0 q 5.550158,0 8.429564,2.399505 2.900271,2.378639 2.900271,7.115053 z"
     style="font-style:normal;font-variant:normal;font-weight:bold;font-stretch:normal;font-size:medium;line-height:1.25;font-family:'Open Sans';-inkscape-font-specification:'Open Sans Bold';letter-spacing:-3.6500001px;word-spacing:0px;fill:#2da0b7;fill-opacity:1;stroke:none;stroke-width:0.80709034"
     id="path9986"
     inkscape:connector-curvature="0" /><path
     d="m 62.604902,96.236763 -8.220912,0 -13.270304,-23.076975 -0.187787,0 q 0.39644,6.11352 0.39644,8.721678 l 0,14.355297 -5.779677,0 0,-30.505007 8.158316,0 13.249439,22.847457 0.146057,0 q -0.312979,-5.946598 -0.312979,-8.408699 l 0,-14.438758 5.821407,0 0,30.505007 z"
     style="font-style:normal;font-variant:normal;font-weight:bold;font-stretch:normal;font-size:medium;line-height:1.25;font-family:'Open Sans';-inkscape-font-specification:'Open Sans Bold';letter-spacing:-3.6500001px;word-spacing:0px;fill:#2da0b7;fill-opacity:1;stroke:none;stroke-width:0.80709034"
     id="path9988"
     inkscape:connector-curvature="0" /><path
     d="m 78.192667,79.106386 12.101849,0 0,15.815866 q -2.942001,0.959802 -5.550158,1.335376 -2.587292,0.39644 -5.299776,0.39644 -6.9064,0 -10.55782,-4.04786 -3.630555,-4.068725 -3.630555,-11.663679 0,-7.386301 4.214782,-11.517622 4.235647,-4.131321 11.726275,-4.131321 4.694683,0 9.055522,1.877873 l -2.149122,5.174584 q -3.338441,-1.669221 -6.948131,-1.669221 -4.193917,0 -6.718613,2.81681 -2.524696,2.81681 -2.524696,7.574089 0,4.965931 2.02393,7.594953 2.044795,2.608158 5.925733,2.608158 2.02393,0 4.110456,-0.417306 l 0,-6.363903 -5.779676,0 0,-5.383237 z"
     style="font-style:normal;font-variant:normal;font-weight:bold;font-stretch:normal;font-size:medium;line-height:1.25;font-family:'Open Sans';-inkscape-font-specification:'Open Sans Bold';letter-spacing:-3.6500001px;word-spacing:0px;fill:#2da0b7;fill-opacity:1;stroke:none;stroke-width:0.80709034"
     id="path9990"
     inkscape:connector-curvature="0" /><circle
     style="opacity:1;fill:#2da0b7;fill-opacity:1;stroke:none"
     id="path9965"
     cx="23.819912"
     cy="26.892349"
     r="10.636564" /><path
     style="fill:#2da0b7;fill-opacity:1;fill-rule:evenodd;stroke:none;stroke-width:1px;stroke-linecap:butt;stroke-linejoin:miter;stroke-opacity:1"
     d="M 50.535541,28.605039 C 39.465183,43.635567 26.719842,54.121355 13.498431,63.314022 29.159836,57.559396 42.29625,50.172443 53.701556,41.614804 c 0.52628,-0.394592 1.160964,-0.618198 1.81836,-0.640625 0.537869,-0.01852 1.071776,0.09834 1.552734,0.339844 14.014449,7.048616 24.906719,11.924405 33.580078,15.30078 l 0,-3.185547 C 77.540903,47.698589 64.256141,40.267911 50.535541,28.605039 Z"
     id="path5839"
     inkscape:connector-curvature="0"
     sodipodi:nodetypes="cccccccc" /></svg>