<?xml version="1.0" encoding="UTF-8" standalone="no"?>
<svg
   xmlns:dc="http://purl.org/dc/elements/1.1/"
   xmlns:cc="http://creativecommons.org/ns#"
   xmlns:rdf="http://www.w3.org/1999/02/22-rdf-syntax-ns#"
   xmlns:svg="http://www.w3.org/2000/svg"
   xmlns="http://www.w3.org/2000/svg"
   xmlns:sodipodi="http://sodipodi.sourceforge.net/DTD/sodipodi-0.dtd"
   xmlns:inkscape="http://www.inkscape.org/namespaces/inkscape"
   version="1.1"
   x="0px"
   y="0px"
   width="100px"
   height="100px"
   viewBox="0 0 100 100"
   enable-background="new 0 0 100 100"
   xml:space="preserve"
   id="svg2"
   inkscape:version="0.91 r13725"
   sodipodi:docname="image-x-pcx.small.svg"
   inkscape:export-filename="C:\Users\wilkie\occam\configuration.png"
   inkscape:export-xdpi="18"
   inkscape:export-ydpi="18"><metadata
     id="metadata122"><rdf:RDF><cc:Work
         rdf:about=""><dc:format>image/svg+xml</dc:format><dc:type
           rdf:resource="http://purl.org/dc/dcmitype/StillImage" /><dc:title></dc:title></cc:Work></rdf:RDF></metadata><defs
     id="defs120" /><sodipodi:namedview
     pagecolor="#ffffff"
     bordercolor="#666666"
     borderopacity="1"
     objecttolerance="10"
     gridtolerance="10"
     guidetolerance="10"
     inkscape:pageopacity="0"
     inkscape:pageshadow="2"
     inkscape:window-width="1920"
     inkscape:window-height="1057"
     id="namedview118"
     showgrid="false"
     inkscape:zoom="6.675088"
     inkscape:cx="17.944109"
     inkscape:cy="33.736644"
     inkscape:window-x="-8"
     inkscape:window-y="1072"
     inkscape:window-maximized="1"
     inkscape:current-layer="svg2"
     inkscape:object-nodes="false" /><path
     style="fill:#2da0b7;fill-opacity:1;fill-rule:evenodd;stroke:none;stroke-width:1px;stroke-linecap:butt;stroke-linejoin:miter;stroke-opacity:1"
     d="M 55.628906 44.185547 C 47.024449 50.641651 38.250317 56.445653 27.988281 61.404297 C 30.093659 61.958421 32.03046 62.864173 33.697266 64.248047 C 34.803736 65.158255 35.698223 66.265458 36.412109 67.486328 C 37.853466 65.493116 39.667911 63.791984 41.787109 62.546875 C 44.867949 60.731421 48.450273 59.876953 52.150391 59.876953 C 55.132777 59.876953 58.099532 60.456451 60.972656 61.525391 A 4.7686028 4.7686028 0 0 1 63.208984 60.964844 L 70.34375 60.964844 A 4.7686028 4.7686028 0 0 1 74.433594 63.28125 L 76.876953 67.361328 L 79.253906 63.316406 A 4.7686028 4.7686028 0 0 1 83.365234 60.964844 L 90.333984 60.964844 A 4.7686028 4.7686028 0 0 1 94.363281 68.283203 L 90.126953 74.974609 C 92.486818 74.703169 94.82392 74.410729 97.125 74.082031 L 97.125 62.425781 C 87.257289 59.086396 74.052075 53.451546 55.628906 44.185547 z M 63.714844 75.353516 A 5.4161185 5.4161185 0 0 1 62.949219 76.390625 C 63.4323 76.397415 63.907391 76.397042 64.386719 76.400391 L 63.714844 75.353516 z "
     id="path5837" /><path
     style="color:#000000;font-style:normal;font-variant:normal;font-weight:normal;font-stretch:normal;font-size:medium;line-height:normal;font-family:sans-serif;text-indent:0;text-align:start;text-decoration:none;text-decoration-line:none;text-decoration-style:solid;text-decoration-color:#000000;letter-spacing:normal;word-spacing:normal;text-transform:none;direction:ltr;writing-mode:lr-tb;baseline-shift:baseline;text-anchor:start;white-space:normal;clip-rule:nonzero;display:inline;overflow:visible;visibility:visible;opacity:1;isolation:auto;mix-blend-mode:normal;color-interpolation:sRGB;color-interpolation-filters:linearRGB;solid-color:#000000;solid-opacity:1;fill:#2da0b7;fill-opacity:1;fill-rule:nonzero;stroke:none;stroke-width:3.74525785;stroke-linecap:butt;stroke-linejoin:miter;stroke-miterlimit:4;stroke-dasharray:none;stroke-dashoffset:0;stroke-opacity:1;color-rendering:auto;image-rendering:auto;shape-rendering:auto;text-rendering:auto;enable-background:accumulate"
     d="M 3.5175781 5.5253906 L 3.5175781 83.552734 L 7.2832031 83.552734 L 7.2832031 65.732422 A 5.0364633 5.0364633 0 0 1 7.3417969 64.992188 C 7.3412007 46.393625 7.3417969 27.796499 7.3417969 9.1953125 L 94.353516 9.1953125 C 94.355119 28.106342 94.354005 45.407556 94.353516 63.177734 A 4.7686028 4.7686028 0 0 1 94.363281 68.283203 L 94.353516 68.298828 C 94.353431 72.134414 94.353516 75.967627 94.353516 79.882812 L 87.019531 79.882812 L 86.447266 80.785156 L 88.302734 83.552734 L 98.177734 83.552734 L 98.177734 5.5253906 L 3.5175781 5.5253906 z "
     id="rect962" /><path
     d="m 18.786439,80.087053 2.128257,0 q 2.983732,0 4.465165,-1.168454 1.481433,-1.18932 1.481433,-3.442768 0,-2.274313 -1.251915,-3.359306 -1.231051,-1.084993 -3.880938,-1.084993 l -2.942002,0 0,9.055521 z M 33.39212,75.246314 q 0,4.9242 -3.088058,7.532358 -3.067193,2.608157 -8.742543,2.608157 l -2.77508,0 0,10.849934 -6.46823,0 0,-30.505007 9.744076,0 q 5.550158,0 8.429564,2.399505 2.900271,2.378639 2.900271,7.115053 z"
     style="font-style:normal;font-variant:normal;font-weight:bold;font-stretch:normal;font-size:medium;line-height:1.25;font-family:'Open Sans';-inkscape-font-specification:'Open Sans Bold';letter-spacing:0px;word-spacing:0px;fill:#2da0b7;fill-opacity:1;stroke:none;stroke-width:0.80709034"
     id="path11803"
     inkscape:connector-curvature="0" /><path
     d="m 52.149987,70.676822 q -3.65142,0 -5.654485,2.754214 -2.003064,2.733349 -2.003064,7.636685 0,10.203111 7.657549,10.203111 3.21325,0 7.782741,-1.606625 l 0,5.424967 q -3.755746,1.564894 -8.387833,1.564894 -6.656018,0 -10.182246,-4.026995 -3.526229,-4.04786 -3.526229,-11.601083 0,-4.757279 1.731817,-8.325238 1.731816,-3.588824 4.965931,-5.487563 3.25498,-1.919603 7.615819,-1.919603 4.4443,0 8.93033,2.149121 l -2.086525,5.258045 q -1.710951,-0.813745 -3.442768,-1.418837 -1.731816,-0.605093 -3.401037,-0.605093 z"
     style="font-style:normal;font-variant:normal;font-weight:bold;font-stretch:normal;font-size:medium;line-height:1.25;font-family:'Open Sans';-inkscape-font-specification:'Open Sans Bold';letter-spacing:0px;word-spacing:0px;fill:#2da0b7;fill-opacity:1;stroke:none;stroke-width:0.80709034"
     id="path11805"
     inkscape:connector-curvature="0" /><path
     d="m 91.063693,96.236763 -7.386302,0 -7.094187,-11.538488 -7.094188,11.538488 -6.927266,0 10.11965,-15.732404 -9.472827,-14.772603 7.135919,0 6.572556,10.975126 6.447364,-10.975126 6.968997,0 -9.577154,15.127312 10.307438,15.377695 z"
     style="font-style:normal;font-variant:normal;font-weight:bold;font-stretch:normal;font-size:medium;line-height:1.25;font-family:'Open Sans';-inkscape-font-specification:'Open Sans Bold';letter-spacing:0px;word-spacing:0px;fill:#2da0b7;fill-opacity:1;stroke:none;stroke-width:0.80709034"
     id="path11807"
     inkscape:connector-curvature="0" /><circle
     style="opacity:1;fill:#2da0b7;fill-opacity:1;stroke:none"
     id="path9965"
     cx="23.819912"
     cy="26.892349"
     r="10.636564" /><path
     style="fill:#2da0b7;fill-opacity:1;fill-rule:evenodd;stroke:none;stroke-width:1px;stroke-linecap:butt;stroke-linejoin:miter;stroke-opacity:1"
     d="M 50.535541,28.605039 C 39.465183,43.635567 26.719842,54.121355 13.498431,63.314022 29.159836,57.559396 42.29625,50.172443 53.701556,41.614804 c 0.52628,-0.394592 1.160964,-0.618198 1.81836,-0.640625 0.537869,-0.01852 1.071776,0.09834 1.552734,0.339844 14.014449,7.048616 24.906719,11.924405 33.580078,15.30078 l 0,-3.185547 C 77.540903,47.698589 64.256141,40.267911 50.535541,28.605039 Z"
     id="path5839"
     inkscape:connector-curvature="0"
     sodipodi:nodetypes="cccccccc" /></svg>