<?xml version="1.0" encoding="UTF-8" standalone="no"?>
<svg
   xmlns:dc="http://purl.org/dc/elements/1.1/"
   xmlns:cc="http://creativecommons.org/ns#"
   xmlns:rdf="http://www.w3.org/1999/02/22-rdf-syntax-ns#"
   xmlns:svg="http://www.w3.org/2000/svg"
   xmlns="http://www.w3.org/2000/svg"
   xmlns:sodipodi="http://sodipodi.sourceforge.net/DTD/sodipodi-0.dtd"
   xmlns:inkscape="http://www.inkscape.org/namespaces/inkscape"
   version="1.1"
   x="0px"
   y="0px"
   width="100px"
   height="100px"
   viewBox="0 0 100 100"
   enable-background="new 0 0 100 100"
   xml:space="preserve"
   id="svg2"
   inkscape:version="0.91 r13725"
   sodipodi:docname="image-jpeg.small.svg"
   inkscape:export-filename="C:\Users\wilkie\occam\configuration.png"
   inkscape:export-xdpi="18"
   inkscape:export-ydpi="18"><metadata
     id="metadata122"><rdf:RDF><cc:Work
         rdf:about=""><dc:format>image/svg+xml</dc:format><dc:type
           rdf:resource="http://purl.org/dc/dcmitype/StillImage" /><dc:title></dc:title></cc:Work></rdf:RDF></metadata><defs
     id="defs120" /><sodipodi:namedview
     pagecolor="#ffffff"
     bordercolor="#666666"
     borderopacity="1"
     objecttolerance="10"
     gridtolerance="10"
     guidetolerance="10"
     inkscape:pageopacity="0"
     inkscape:pageshadow="2"
     inkscape:window-width="1920"
     inkscape:window-height="1057"
     id="namedview118"
     showgrid="false"
     inkscape:zoom="6.675088"
     inkscape:cx="40.340817"
     inkscape:cy="33.736644"
     inkscape:window-x="-8"
     inkscape:window-y="1072"
     inkscape:window-maximized="1"
     inkscape:current-layer="svg2"
     inkscape:object-nodes="false" /><path
     style="fill:#2da0b7;fill-opacity:1;fill-rule:evenodd;stroke:none;stroke-width:1px;stroke-linecap:butt;stroke-linejoin:miter;stroke-opacity:1"
     d="M 55.628906 44.185547 C 47.289337 50.442901 38.791742 56.088777 28.933594 60.945312 L 33.320312 60.945312 C 37.08038 60.945312 40.566599 61.643749 43.427734 63.457031 A 4.6902878 4.6902878 0 0 1 47.521484 61.042969 L 65.089844 61.042969 A 4.6902878 4.6902878 0 0 1 69.640625 64.626953 C 73.305662 61.826018 78.023026 60.5 83.128906 60.5 C 86.898943 60.5 90.601308 61.270655 94.082031 62.769531 A 4.7944233 4.7944233 0 0 1 96.613281 69.011719 L 94.462891 74.185547 A 4.7944233 4.7944233 0 0 1 94.332031 74.457031 C 95.264742 74.333689 96.201074 74.21401 97.125 74.082031 L 97.125 62.425781 C 87.257289 59.086396 74.052075 53.451546 55.628906 44.185547 z "
     id="path5837" /><path
     style="color:#000000;font-style:normal;font-variant:normal;font-weight:normal;font-stretch:normal;font-size:medium;line-height:normal;font-family:sans-serif;text-indent:0;text-align:start;text-decoration:none;text-decoration-line:none;text-decoration-style:solid;text-decoration-color:#000000;letter-spacing:normal;word-spacing:normal;text-transform:none;direction:ltr;writing-mode:lr-tb;baseline-shift:baseline;text-anchor:start;white-space:normal;clip-rule:nonzero;display:inline;overflow:visible;visibility:visible;opacity:1;isolation:auto;mix-blend-mode:normal;color-interpolation:sRGB;color-interpolation-filters:linearRGB;solid-color:#000000;solid-opacity:1;fill:#2da0b7;fill-opacity:1;fill-rule:nonzero;stroke:none;stroke-width:3.74525785;stroke-linecap:butt;stroke-linejoin:miter;stroke-miterlimit:4;stroke-dasharray:none;stroke-dashoffset:0;stroke-opacity:1;color-rendering:auto;image-rendering:auto;shape-rendering:auto;text-rendering:auto;enable-background:accumulate"
     d="M 3.5175781 5.5253906 L 3.5175781 83.552734 L 7.375 83.552734 L 7.375 79.882812 L 7.3417969 79.882812 C 7.3391969 56.31924 7.3417969 32.760635 7.3417969 9.1953125 L 94.353516 9.1953125 C 94.355314 30.404621 94.353921 49.651619 94.353516 69.738281 L 94.380859 69.738281 L 94.380859 83.552734 L 98.177734 83.552734 L 98.177734 5.5253906 L 3.5175781 5.5253906 z "
     id="rect962" /><path
     d="m 9.125825,97.20882 c -1.4605681,0 -2.7333488,-0.15301 -3.8183422,-0.45903 l 0,-5.383238 c 1.1128137,0.278203 2.1282563,0.417305 3.0463277,0.417305 1.4188377,0 2.4342805,-0.445126 3.0463275,-1.335377 0.612047,-0.876341 0.918071,-2.253448 0.918071,-4.131321 l 0,-20.585403 6.46823,0 0,20.543673 c 0,3.561004 -0.813745,6.273488 -2.441235,8.137451 -1.62749,1.86396 -4.03395,2.79594 -7.219379,2.79594 z"
     style="font-style:normal;font-variant:normal;font-weight:bold;font-stretch:normal;font-size:medium;line-height:1.25;font-family:'Open Sans';-inkscape-font-specification:'Open Sans Bold';letter-spacing:-2.93000031px;word-spacing:0px;fill:#2da0b7;fill-opacity:1;stroke:none;stroke-width:0.80709034"
     id="path10614"
     inkscape:connector-curvature="0"
     sodipodi:nodetypes="sccscsccsss" /><path
     d="m 30.044815,80.087053 2.128256,0 q 2.983732,0 4.465165,-1.168454 1.481433,-1.18932 1.481433,-3.442768 0,-2.274313 -1.251915,-3.359306 -1.23105,-1.084993 -3.880938,-1.084993 l -2.942001,0 0,9.055521 z m 14.60568,-4.840739 q 0,4.9242 -3.088058,7.532358 -3.067193,2.608157 -8.742543,2.608157 l -2.775079,0 0,10.849934 -6.46823,0 0,-30.505007 9.744075,0 q 5.550159,0 8.429564,2.399505 2.900271,2.378639 2.900271,7.115053 z"
     style="font-style:normal;font-variant:normal;font-weight:bold;font-stretch:normal;font-size:medium;line-height:1.25;font-family:'Open Sans';-inkscape-font-specification:'Open Sans Bold';letter-spacing:-2.93000031px;word-spacing:0px;fill:#2da0b7;fill-opacity:1;stroke:none;stroke-width:0.80709034"
     id="path10616"
     inkscape:connector-curvature="0" /><path
     d="m 65.089584,96.236763 -17.568547,0 0,-30.505007 17.568547,0 0,5.299776 -11.100317,0 0,6.697747 10.328302,0 0,5.299776 -10.328302,0 0,7.866202 11.100317,0 0,5.341506 z"
     style="font-style:normal;font-variant:normal;font-weight:bold;font-stretch:normal;font-size:medium;line-height:1.25;font-family:'Open Sans';-inkscape-font-specification:'Open Sans Bold';letter-spacing:-2.93000031px;word-spacing:0px;fill:#2da0b7;fill-opacity:1;stroke:none;stroke-width:0.80709034"
     id="path10618"
     inkscape:connector-curvature="0" /><path
     d="m 80.12457,79.106386 12.10185,0 0,15.815866 q -2.942001,0.959802 -5.550159,1.335376 -2.587292,0.39644 -5.299775,0.39644 -6.9064,0 -10.557821,-4.04786 -3.630554,-4.068725 -3.630554,-11.663679 0,-7.386301 4.214782,-11.517622 4.235647,-4.131321 11.726275,-4.131321 4.694683,0 9.055521,1.877873 l -2.149121,5.174584 q -3.338441,-1.669221 -6.948131,-1.669221 -4.193917,0 -6.718613,2.81681 -2.524696,2.81681 -2.524696,7.574089 0,4.965931 2.02393,7.594953 2.044795,2.608158 5.925733,2.608158 2.02393,0 4.110456,-0.417306 l 0,-6.363903 -5.779677,0 0,-5.383237 z"
     style="font-style:normal;font-variant:normal;font-weight:bold;font-stretch:normal;font-size:medium;line-height:1.25;font-family:'Open Sans';-inkscape-font-specification:'Open Sans Bold';letter-spacing:-2.93000031px;word-spacing:0px;fill:#2da0b7;fill-opacity:1;stroke:none;stroke-width:0.80709034"
     id="path10620"
     inkscape:connector-curvature="0" /><circle
     style="opacity:1;fill:#2da0b7;fill-opacity:1;stroke:none"
     id="path9965"
     cx="23.819912"
     cy="26.892349"
     r="10.636564" /><path
     style="fill:#2da0b7;fill-opacity:1;fill-rule:evenodd;stroke:none;stroke-width:1px;stroke-linecap:butt;stroke-linejoin:miter;stroke-opacity:1"
     d="M 50.535541,28.605039 C 39.465183,43.635567 26.719842,54.121355 13.498431,63.314022 29.159836,57.559396 42.29625,50.172443 53.701556,41.614804 c 0.52628,-0.394592 1.160964,-0.618198 1.81836,-0.640625 0.537869,-0.01852 1.071776,0.09834 1.552734,0.339844 14.014449,7.048616 24.906719,11.924405 33.580078,15.30078 l 0,-3.185547 C 77.540903,47.698589 64.256141,40.267911 50.535541,28.605039 Z"
     id="path5839"
     inkscape:connector-curvature="0"
     sodipodi:nodetypes="cccccccc" /></svg>