<?xml version="1.0" encoding="UTF-8" standalone="no"?>
<svg
   xmlns:dc="http://purl.org/dc/elements/1.1/"
   xmlns:cc="http://creativecommons.org/ns#"
   xmlns:rdf="http://www.w3.org/1999/02/22-rdf-syntax-ns#"
   xmlns:svg="http://www.w3.org/2000/svg"
   xmlns="http://www.w3.org/2000/svg"
   xmlns:sodipodi="http://sodipodi.sourceforge.net/DTD/sodipodi-0.dtd"
   xmlns:inkscape="http://www.inkscape.org/namespaces/inkscape"
   version="1.1"
   width="32"
   height="32"
   data-icon="people"
   data-container-transform="translate(0 8)"
   viewBox="0 0 32 32"
   id="svg2"
   inkscape:version="0.91 r13725"
   sodipodi:docname="embed-url.svg"
   inkscape:export-filename="architecture.png"
   inkscape:export-xdpi="56.25"
   inkscape:export-ydpi="56.25">
  <metadata
     id="metadata10">
    <rdf:RDF>
      <cc:Work
         rdf:about="">
        <dc:format>image/svg+xml</dc:format>
        <dc:type
           rdf:resource="http://purl.org/dc/dcmitype/StillImage" />
        <dc:title />
      </cc:Work>
    </rdf:RDF>
  </metadata>
  <defs
     id="defs8" />
  <sodipodi:namedview
     pagecolor="#ffffff"
     bordercolor="#666666"
     borderopacity="1"
     objecttolerance="10"
     gridtolerance="10"
     guidetolerance="10"
     inkscape:pageopacity="0"
     inkscape:pageshadow="2"
     inkscape:window-width="1920"
     inkscape:window-height="1058"
     id="namedview6"
     showgrid="false"
     inkscape:zoom="16"
     inkscape:cx="18.416024"
     inkscape:cy="22.019592"
     inkscape:window-x="-8"
     inkscape:window-y="-8"
     inkscape:window-maximized="1"
     inkscape:current-layer="svg2" />
  <g
     transform="matrix(0.18176461,0,0,0.18176461,6.9116985,6.9156665)"
     id="g4760"
     style="fill:#6aa3ae;fill-opacity:1">
    <g
       id="g4762"
       style="fill:#6aa3ae;fill-opacity:1">
      <path
         inkscape:connector-curvature="0"
         d="M 75.394,58.138 88.067,45.463 c 9.245,-9.243 9.245,-24.286 0,-33.529 -9.244,-9.246 -24.286,-9.246 -33.53,0 L 36.248,30.223 c -9.245,9.243 -9.245,24.286 0,33.529 1.365,1.366 2.859,2.524 4.44,3.486 l 9.791,-9.792 C 48.614,57 46.845,56.059 45.393,54.608 c -4.202,-4.202 -4.202,-11.04 0,-15.241 L 63.682,21.078 c 4.202,-4.202 11.04,-4.202 15.241,0 4.202,4.202 4.202,11.039 0,15.241 l -5.373,5.374 c 2.214,5.211 2.826,10.942 1.844,16.445 z"
         id="path4764"
         style="fill:#6aa3ae;fill-opacity:1" />
    </g>
    <g
       id="g4766"
       style="fill:#6aa3ae;fill-opacity:1">
      <path
         inkscape:connector-curvature="0"
         d="M 24.607,41.862 11.934,54.536 c -9.246,9.244 -9.246,24.286 0,33.53 9.243,9.245 24.286,9.245 33.53,0 L 63.752,69.777 c 9.245,-9.244 9.244,-24.286 0,-33.529 -1.364,-1.366 -2.858,-2.524 -4.439,-3.486 l -9.791,9.792 c 1.864,0.447 3.633,1.386 5.086,2.838 4.202,4.202 4.202,11.039 0,15.241 l -18.29,18.289 c -4.202,4.202 -11.039,4.202 -15.241,0 -4.202,-4.202 -4.202,-11.039 0,-15.241 l 5.374,-5.373 C 24.236,53.097 23.624,47.365 24.607,41.862 Z"
         id="path4768"
         style="fill:#6aa3ae;fill-opacity:1" />
    </g>
  </g>
  <text
     x="2.2629106"
     y="43.674801"
     font-size="5px"
     font-weight="bold"
     id="text4770"
     style="font-weight:bold;font-size:1.36620855px;font-family:'Helvetica Neue', Helvetica, Arial-Unicode, Arial, Sans-serif;fill:#000000">Created by Nathan Diesel</text>
  <text
     x="2.2629106"
     y="45.041008"
     font-size="5px"
     font-weight="bold"
     id="text4772"
     style="font-weight:bold;font-size:1.36620855px;font-family:'Helvetica Neue', Helvetica, Arial-Unicode, Arial, Sans-serif;fill:#000000">from the Noun Project</text>
  <path
     style="opacity:1;fill:#6aa3ae;fill-opacity:1;fill-rule:evenodd;stroke:none;stroke-linejoin:miter;stroke-opacity:0.58139535"
     d="M 1.4238281 4 L 1.4238281 28 L 30.576172 28 L 30.576172 4 L 1.4238281 4 z M 20.552734 5.0136719 C 21.724945 5.0136719 22.899258 5.3416269 23.931641 5.9785156 L 28.083984 5.9785156 L 28.083984 26.107422 L 14.773438 26.060547 C 12.723503 27.293635 10.122563 27.286536 8.0800781 26.037109 L 3.9160156 26.021484 L 3.9160156 5.9785156 L 17.173828 5.9785156 C 18.20677 5.3415865 19.380524 5.0136719 20.552734 5.0136719 z "
     id="rect5927" />
</svg>
