<?xml version="1.0" encoding="UTF-8" standalone="no"?>
<svg
   xmlns:dc="http://purl.org/dc/elements/1.1/"
   xmlns:cc="http://creativecommons.org/ns#"
   xmlns:rdf="http://www.w3.org/1999/02/22-rdf-syntax-ns#"
   xmlns:svg="http://www.w3.org/2000/svg"
   xmlns="http://www.w3.org/2000/svg"
   xmlns:sodipodi="http://sodipodi.sourceforge.net/DTD/sodipodi-0.dtd"
   xmlns:inkscape="http://www.inkscape.org/namespaces/inkscape"
   version="1.1"
   x="0px"
   y="0px"
   viewBox="0 0 100 125"
   enable-background="new 0 0 100 100"
   xml:space="preserve"
   id="svg2"
   inkscape:version="0.91 r13725"
   sodipodi:docname="noun_152851_cc.svg"><metadata
     id="metadata14"><rdf:RDF><cc:Work
         rdf:about=""><dc:format>image/svg+xml</dc:format><dc:type
           rdf:resource="http://purl.org/dc/dcmitype/StillImage" /></cc:Work></rdf:RDF></metadata><defs
     id="defs12" /><sodipodi:namedview
     pagecolor="#ffffff"
     bordercolor="#666666"
     borderopacity="1"
     objecttolerance="10"
     gridtolerance="10"
     guidetolerance="10"
     inkscape:pageopacity="0"
     inkscape:pageshadow="2"
     inkscape:window-width="1920"
     inkscape:window-height="1058"
     id="namedview10"
     showgrid="false"
     inkscape:zoom="1.888"
     inkscape:cx="50"
     inkscape:cy="62.5"
     inkscape:window-x="1912"
     inkscape:window-y="-8"
     inkscape:window-maximized="1"
     inkscape:current-layer="svg2" /><path
     fill="#000000"
     d="M59.178,73.35L44.99,87.532c-9.524,9.526-24.634,10.003-33.58,1.057s-8.469-24.057,1.061-33.583  l15.971-15.98c9.398-9.392,24.22-9.979,33.21-1.413c0.069,0.066,0.144,0.123,0.207,0.188c0.019,0.019,0.044,0.044,0.057,0.06  c0.038,0.041,0.075,0.072,0.113,0.11l-0.013,0.01c2.555,2.727,2.505,7.006-0.157,9.668c-2.718,2.718-7.125,2.718-9.844,0  c-0.006-0.01-0.031-0.035-0.031-0.035c-4.118-4.115-10.986-3.814-15.387,0.584l-14.96,14.961  c-4.395,4.395-4.633,11.592-0.509,15.713s11.319,3.889,15.714-0.509l5.543-5.543c0,0,2.53,0.979,7.439,1.475  C54.57,74.778,59.178,73.35,59.178,73.35z M88.59,11.41c-8.946-8.946-24.063-8.466-33.58,1.057L40.822,26.649  c0,0,4.608-1.429,9.354-0.945c4.909,0.496,7.433,1.479,7.433,1.479l5.55-5.547c4.395-4.395,11.589-4.626,15.707-0.505  c4.125,4.118,3.892,11.319-0.502,15.71l-14.96,14.961c-4.401,4.398-11.269,4.699-15.387,0.583c0,0-0.025-0.025-0.031-0.035  c-2.718-2.718-7.125-2.718-9.844,0c-2.668,2.665-2.718,6.943-0.163,9.671l-0.006,0.01c0.038,0.037,0.075,0.066,0.113,0.107  c0.013,0.015,0.038,0.04,0.05,0.062c0.069,0.066,0.144,0.12,0.213,0.183c8.99,8.569,23.806,7.985,33.21-1.41l15.971-15.98  C97.059,35.469,97.536,20.352,88.59,11.41z"
     id="path4" /></svg>