<?xml version="1.0" encoding="UTF-8" standalone="no"?>
<svg
   xmlns:dc="http://purl.org/dc/elements/1.1/"
   xmlns:cc="http://creativecommons.org/ns#"
   xmlns:rdf="http://www.w3.org/1999/02/22-rdf-syntax-ns#"
   xmlns:svg="http://www.w3.org/2000/svg"
   xmlns="http://www.w3.org/2000/svg"
   xmlns:sodipodi="http://sodipodi.sourceforge.net/DTD/sodipodi-0.dtd"
   xmlns:inkscape="http://www.inkscape.org/namespaces/inkscape"
   version="1.1"
   width="32"
   height="32"
   data-icon="people"
   data-container-transform="translate(0 8)"
   viewBox="0 0 32 32"
   id="svg2"
   inkscape:version="0.91 r13725"
   sodipodi:docname="openbook.svg"
   inkscape:export-filename="architecture.png"
   inkscape:export-xdpi="56.25"
   inkscape:export-ydpi="56.25">
  <metadata
     id="metadata10">
    <rdf:RDF>
      <cc:Work
         rdf:about="">
        <dc:format>image/svg+xml</dc:format>
        <dc:type
           rdf:resource="http://purl.org/dc/dcmitype/StillImage" />
        <dc:title></dc:title>
      </cc:Work>
    </rdf:RDF>
  </metadata>
  <defs
     id="defs8">
    <inkscape:path-effect
       effect="envelope"
       id="path-effect4507"
       is_visible="true"
       yy="true"
       xx="true"
       bendpath1="M 1.4478327,15.779472 C 9.6433342,8.5222586 11.366503,9.0572943 13.833967,9.4742017"
       bendpath2="m 13.833967,9.4742017 0,10.2041023"
       bendpath3="M 2.1484183,21.429768 C 6.0436012,19.940914 9.9387839,19.000149 13.833967,19.678304"
       bendpath4="m 1.3310685,15.779472 c 0.7132641,0.9045 1.1432762,2.375504 0.467057,6.058971"
       bendpath1-nodetypes="cc"
       bendpath4-nodetypes="cc"
       bendpath3-nodetypes="cc" />
    <inkscape:path-effect
       effect="envelope"
       id="path-effect4482"
       is_visible="true"
       yy="true"
       xx="true"
       bendpath1="m 17.878111,9.5302244 c 5.061588,-1.2476235 5.556524,1.0435076 12.988534,6.1520436"
       bendpath2="m 30.142875,15.521431 c -1.382441,3.826696 -0.528336,5.379006 -0.04021,6.446523"
       bendpath3="m 17.878111,19.917273 c 4.101658,-1.336339 8.948022,0.475785 12.304973,2.171309"
       bendpath4="m 17.878111,9.5302244 0,10.3870486"
       bendpath1-nodetypes="cc"
       bendpath3-nodetypes="cc"
       bendpath2-nodetypes="cc" />
  </defs>
  <sodipodi:namedview
     pagecolor="#ffffff"
     bordercolor="#666666"
     borderopacity="1"
     objecttolerance="10"
     gridtolerance="10"
     guidetolerance="10"
     inkscape:pageopacity="0"
     inkscape:pageshadow="2"
     inkscape:window-width="1920"
     inkscape:window-height="1057"
     id="namedview6"
     showgrid="false"
     inkscape:zoom="8"
     inkscape:cx="47.060256"
     inkscape:cy="15.581779"
     inkscape:window-x="-8"
     inkscape:window-y="1072"
     inkscape:window-maximized="1"
     inkscape:current-layer="svg2" />
  <path
     style="opacity:1;fill:#6aa3ae;fill-opacity:1;stroke:none;stroke-width:0.1;stroke-miterlimit:4;stroke-dasharray:none"
     d="m 10.677734,20.835938 c -0.9221885,0.01479 -1.8488268,0.15178 -2.7812496,0.380859 -2.0732431,0.509358 -4.1704895,1.480718 -6.28125,2.533203 0.1111819,0.03692 0.2291625,0.05753 0.3535156,0.04102 3.8701301,-1.550755 7.9180261,-2.745979 13.068359,-1.736328 0.100176,-0.0133 0.189892,-0.05028 0.273438,-0.0957 -0.01065,-0.004 -0.02108,-0.0086 -0.03125,-0.01367 -1.537812,-0.81526 -3.064581,-1.134021 -4.601563,-1.109374 z"
     id="rect4234"
     inkscape:connector-curvature="0"
     sodipodi:nodetypes="sscccccs" />
  <path
     style="opacity:1;fill:#6aa3ae;fill-opacity:1;stroke:none;stroke-width:0.1;stroke-miterlimit:4;stroke-dasharray:none"
     d="m 21.322266,20.835938 c -1.536982,-0.02465 -3.063751,0.294114 -4.601563,1.109374 -0.01017,0.0051 -0.0206,0.0097 -0.03125,0.01367 0.08398,0.04593 0.176481,0.08231 0.277344,0.0957 3.803726,-0.894275 8.20436,-0.196793 13.068359,1.736328 0.123416,0.01639 0.241069,-0.0028 0.351563,-0.03906 -2.111553,-1.052938 -4.209192,-2.025609 -6.283203,-2.535156 -0.932423,-0.229079 -1.859062,-0.366072 -2.78125,-0.380859 z"
     id="rect4232"
     inkscape:connector-curvature="0"
     sodipodi:nodetypes="scccccss" />
  <path
     style="opacity:1;fill:#6aa3ae;fill-opacity:1;stroke:none;stroke-width:0.1;stroke-miterlimit:4;stroke-dasharray:none"
     d="M 15.8125 8.4648438 A 0.3273415 0.3273415 0 0 1 15.818359 8.5234375 L 15.761719 21.658203 A 0.3273415 0.3273415 0 0 1 15.279297 21.945312 C 14.839227 21.712012 14.399871 21.532534 13.960938 21.376953 L 13.960938 22.632812 C 13.960938 22.781929 14.081353 22.902344 14.230469 22.902344 L 17.769531 22.902344 C 17.918647 22.902344 18.039062 22.781929 18.039062 22.632812 L 18.039062 21.376953 C 17.600129 21.532534 17.160773 21.712012 16.720703 21.945312 A 0.3273415 0.3273415 0 0 1 16.238281 21.658203 L 16.181641 8.5234375 A 0.3273415 0.3273415 0 0 1 16.1875 8.4648438 L 15.8125 8.4648438 z "
     id="rect4222" />
  <path
     style="fill:#6aa3ae;fill-opacity:1;fill-rule:evenodd;stroke:none;stroke-width:1px;stroke-linecap:butt;stroke-linejoin:miter;stroke-opacity:1"
     d="M 12.013672 7.9179688 C 7.3440325 8.1401534 4.0567315 12.641394 0.20507812 15.427734 C 0.21413613 18.269895 1.8150037 19.093424 0.20507812 24.089844 C 5.2815842 21.518471 10.357089 18.964974 15.433594 21.65625 L 15.490234 8.5214844 C 14.241461 8.0432123 13.091281 7.8666954 12.013672 7.9179688 z M 11.675781 9.3671875 C 12.326363 9.3335226 12.989149 9.3754737 13.640625 9.4433594 C 13.746463 9.4543881 13.831842 9.5319916 13.832031 9.6152344 C 13.832161 9.6724307 13.831922 9.7299164 13.832031 9.7871094 C 13.832189 9.8703161 13.747162 9.9330612 13.644531 9.9257812 C 12.372047 9.8355336 11.072554 9.802151 9.9511719 10.203125 C 7.4947858 11.052558 3.6836608 13.809079 1.6855469 15.841797 C 1.6072528 15.921467 1.5215576 15.955359 1.4941406 15.917969 C 1.4752756 15.892239 1.457126 15.86869 1.4375 15.84375 C 1.4088867 15.807392 1.4458985 15.710376 1.5234375 15.628906 C 3.3384637 13.721904 7.4365935 10.662929 9.7832031 9.7460938 C 10.386778 9.5104617 11.0252 9.4008524 11.675781 9.3671875 z M 11.806641 10.435547 C 12.406982 10.403965 13.031254 10.420778 13.650391 10.439453 C 13.750888 10.442484 13.831983 10.512583 13.832031 10.595703 L 13.832031 10.767578 C 13.832061 10.850688 13.75338 10.920675 13.65625 10.921875 C 12.450415 10.936504 11.225193 10.921848 10.230469 11.220703 C 7.6255967 11.948734 4.2750962 14.242094 1.9609375 16.341797 C 1.8804924 16.414787 1.7998519 16.437571 1.7792969 16.394531 C 1.7650919 16.364791 1.749415 16.335741 1.734375 16.306641 C 1.7125645 16.264437 1.7584156 16.166624 1.8378906 16.089844 C 4.0039006 13.997357 7.5656905 11.498221 10.105469 10.716797 C 10.629738 10.545826 11.206299 10.467128 11.806641 10.435547 z M 13.660156 11.416016 C 13.755331 11.410449 13.832055 11.473551 13.832031 11.556641 L 13.832031 11.728516 C 13.832 11.811609 13.758106 11.888737 13.666016 11.898438 C 12.522382 12.018759 11.346953 12.038356 10.427734 12.277344 C 7.6828862 12.93474 4.7775651 14.867717 2.1523438 16.892578 C 2.0692717 16.956658 1.9923906 16.969105 1.9785156 16.921875 C 1.9688016 16.888815 1.9577906 16.856819 1.9472656 16.824219 C 1.9322116 16.777596 1.9865614 16.683954 2.0683594 16.615234 C 4.535678 14.542282 7.6686913 12.437886 10.339844 11.751953 C 11.291404 11.487319 12.486779 11.484646 13.660156 11.416016 z M 13.669922 12.410156 C 13.760264 12.396162 13.832077 12.452056 13.832031 12.535156 L 13.832031 12.708984 C 13.831986 12.792144 13.761668 12.874988 13.673828 12.892578 C 12.577062 13.112145 11.450871 13.161648 10.570312 13.365234 C 7.6075972 13.998584 5.2833251 15.600005 2.2753906 17.494141 C 2.1893658 17.548311 2.1133388 17.55001 2.1054688 17.5 C 2.0999547 17.464985 2.0940906 17.431234 2.0878906 17.396484 C 2.0790389 17.346862 2.1401444 17.258139 2.2246094 17.199219 C 5.0347103 15.239084 7.6650424 13.477508 10.507812 12.837891 C 11.401558 12.619793 12.554503 12.582945 13.669922 12.410156 z M 13.675781 13.404297 C 13.762284 13.383109 13.832063 13.432425 13.832031 13.515625 L 13.832031 13.6875 C 13.832004 13.770793 13.762474 13.858913 13.677734 13.882812 C 12.635475 14.176707 11.505121 14.259529 10.666016 14.433594 C 7.3329888 15.078885 5.8561686 16.350169 2.3359375 18.117188 C 2.2470038 18.161828 2.1730719 18.152853 2.1699219 18.101562 C 2.1677419 18.066067 2.1647894 18.031514 2.1621094 17.996094 C 2.1582361 17.944962 2.2271671 17.863443 2.3144531 17.814453 C 5.5667732 15.98905 7.4948304 14.55796 10.625 13.921875 C 11.468402 13.737311 12.623083 13.662152 13.675781 13.404297 z M 13.679688 14.375 C 13.76361 14.348698 13.832031 14.393202 13.832031 14.476562 L 13.832031 14.648438 C 13.832037 14.731916 13.764591 14.825626 13.681641 14.853516 C 12.662392 15.196221 11.550944 15.285985 10.726562 15.435547 C 6.8371164 16.10365 6.5335994 17.05579 2.3515625 18.728516 C 2.2601359 18.765086 2.1874265 18.750479 2.1875 18.699219 C 2.1875507 18.663834 2.1858224 18.62921 2.1855469 18.59375 C 2.1851484 18.542461 2.2577203 18.467944 2.3476562 18.427734 C 6.1852472 16.712175 7.1090082 15.607196 10.701172 14.949219 C 11.532235 14.78715 12.650509 14.697536 13.679688 14.375 z M 13.683594 15.367188 C 13.766161 15.338193 13.831997 15.381284 13.832031 15.464844 L 13.832031 15.638672 C 13.83207 15.722367 13.765944 15.812537 13.683594 15.841797 C 12.675034 16.200113 11.573597 16.279288 10.757812 16.398438 C 6.2212298 17.043704 7.2306845 17.759301 2.3378906 19.341797 C 2.2446206 19.371967 2.1718181 19.354907 2.1738281 19.304688 C 2.1752281 19.269764 2.1765044 19.236282 2.1777344 19.201172 C 2.1794937 19.150788 2.2554462 19.081708 2.3476562 19.048828 C 6.9157515 17.419894 6.5117439 16.612619 10.748047 15.945312 C 11.566954 15.810693 12.671519 15.722594 13.683594 15.367188 z M 13.683594 16.328125 C 13.765985 16.299328 13.831977 16.342001 13.832031 16.425781 L 13.832031 16.597656 C 13.832085 16.681571 13.766364 16.773121 13.683594 16.800781 C 12.674777 17.137935 11.575432 17.184798 10.757812 17.267578 C 5.8856062 17.778864 7.5484289 18.470667 2.3085938 19.917969 C 2.2145347 19.943949 2.1416012 19.925673 2.1445312 19.876953 C 2.1465413 19.843543 2.1484606 19.809011 2.1503906 19.775391 C 2.1531971 19.726466 2.2305637 19.664469 2.3242188 19.636719 C 7.4594465 18.115377 5.9950852 17.440406 10.761719 16.847656 C 11.576801 16.746139 12.675938 16.680293 13.683594 16.328125 z M 13.681641 17.302734 C 13.764777 17.277137 13.833943 17.32227 13.833984 17.40625 L 13.833984 17.578125 C 13.834019 17.662233 13.765571 17.750397 13.681641 17.773438 C 12.667838 18.051729 11.556067 18.044847 10.71875 18.085938 C 5.9883503 18.370686 7.3227521 19.205396 2.2695312 20.484375 C 2.175978 20.508055 2.1019187 20.486843 2.1054688 20.439453 C 2.1078987 20.407063 2.1109413 20.374327 2.1132812 20.341797 C 2.1167025 20.29429 2.1950515 20.237461 2.2890625 20.212891 C 7.4901435 18.853374 5.8949263 18.097089 10.744141 17.697266 C 11.569082 17.635711 12.670278 17.614135 13.681641 17.302734 z M 13.679688 18.271484 C 13.764158 18.252005 13.834005 18.300616 13.833984 18.384766 L 13.833984 18.556641 C 13.833945 18.640896 13.763144 18.722681 13.677734 18.738281 C 12.667474 18.922746 11.504212 18.852016 10.621094 18.853516 C 6.2582231 18.914329 6.7958016 19.889301 2.2148438 21.037109 C 2.1233593 21.060039 2.0537537 21.039317 2.0585938 20.992188 C 2.0619037 20.960027 2.0652794 20.926641 2.0683594 20.894531 C 2.0728666 20.847537 2.1511856 20.792731 2.2441406 20.769531 C 7.0688237 19.565343 6.1294309 18.65036 10.677734 18.486328 C 11.535223 18.466561 12.665173 18.505427 13.679688 18.271484 z M 13.675781 19.216797 C 13.761738 19.205834 13.832179 19.25949 13.832031 19.34375 C 13.83193 19.401487 13.832153 19.459848 13.832031 19.517578 C 13.831852 19.601933 13.760578 19.675641 13.673828 19.681641 C 12.73188 19.747006 11.372459 19.607174 10.447266 19.583984 C 6.4222375 19.483889 6.2121844 20.519907 2.1308594 21.587891 C 2.0430842 21.610861 1.9783281 21.589966 1.9863281 21.541016 C 1.9918391 21.507299 1.9969731 21.472803 2.0019531 21.439453 C 2.009174 21.391081 2.0874014 21.33553 2.1777344 21.3125 C 6.5027874 20.209631 6.3632549 19.194729 10.544922 19.224609 C 11.45765 19.238559 12.682114 19.34354 13.675781 19.216797 z "
     id="path4214" />
  <path
     style="fill:#6aa3ae;fill-opacity:1;fill-rule:evenodd;stroke:none;stroke-width:1px;stroke-linecap:butt;stroke-linejoin:miter;stroke-opacity:1"
     d="M 19.988281 7.9179688 C 18.910672 7.8666954 17.758539 8.0432123 16.509766 8.5214844 L 16.566406 21.65625 C 21.642912 18.964974 26.720369 21.518471 31.796875 24.089844 C 30.186949 19.093424 31.787775 18.269895 31.796875 15.427734 C 27.945221 12.641394 24.657921 8.1401534 19.988281 7.9179688 z M 20.228516 9.3691406 C 20.46286 9.3669537 20.696241 9.3728944 20.925781 9.3925781 C 21.265412 9.4217143 21.597627 9.4830897 21.925781 9.5742188 C 22.113944 9.626471 22.198986 9.8067865 22.134766 9.9648438 C 21.718758 10.98864 21.521759 12.097226 21.414062 13.138672 C 21.397345 13.300328 21.269944 13.408589 21.128906 13.386719 C 20.87683 13.347629 20.633287 13.321344 20.384766 13.302734 C 19.670146 13.222709 18.890257 13.208443 18.125 13.066406 C 17.972532 13.038107 17.851109 12.890771 17.849609 12.742188 C 17.840022 11.810132 17.825429 10.745968 17.849609 9.8046875 C 17.853448 9.6552696 17.998996 9.5212305 18.177734 9.5078125 C 18.814655 9.4599997 19.525482 9.3757015 20.228516 9.3691406 z M 22.820312 9.9453125 C 22.866691 9.9328805 22.91927 9.9388566 22.96875 9.9628906 C 23.140047 10.046091 23.308706 10.134619 23.472656 10.230469 C 23.992732 10.534455 24.493997 10.86936 24.980469 11.21875 C 25.780318 11.793255 29.773244 14.982295 30.355469 15.46875 C 30.431859 15.532536 30.469726 15.619256 30.441406 15.666016 C 30.421936 15.698176 30.401853 15.731112 30.382812 15.763672 C 30.355149 15.810962 30.273826 15.799768 30.197266 15.736328 C 29.221423 14.927802 25.945493 12.394879 24.734375 11.585938 C 24.241713 11.255722 23.738491 10.947288 23.216797 10.669922 C 23.056093 10.585561 22.8918 10.506264 22.726562 10.433594 C 22.632533 10.392238 22.586603 10.290918 22.626953 10.205078 C 22.654563 10.146351 22.683331 10.087517 22.712891 10.029297 C 22.734504 9.9867359 22.773934 9.9577445 22.820312 9.9453125 z M 22.382812 10.949219 C 22.42212 10.932039 22.46957 10.930969 22.515625 10.949219 C 22.675474 11.012562 22.834523 11.080187 22.992188 11.154297 C 23.513501 11.406723 24.018722 11.694664 24.515625 12.005859 C 25.936471 12.889692 28.87118 15.080867 30.039062 16.03125 C 30.115673 16.093594 30.155239 16.182702 30.130859 16.232422 C 30.114049 16.266676 30.098301 16.301358 30.082031 16.335938 C 30.058445 16.386057 29.980337 16.378679 29.904297 16.318359 C 28.635986 15.312318 25.880335 13.318379 24.34375 12.419922 C 23.844578 12.125311 23.339842 11.856872 22.820312 11.625 C 22.665145 11.558937 22.509163 11.497496 22.353516 11.441406 C 22.264738 11.409411 22.213534 11.313569 22.240234 11.224609 C 22.258524 11.163683 22.279108 11.103589 22.298828 11.042969 C 22.313231 10.998699 22.343505 10.966399 22.382812 10.949219 z M 22.216797 11.974609 C 22.368755 12.024326 22.520965 12.079762 22.673828 12.138672 C 23.190469 12.351369 23.69507 12.598681 24.195312 12.876953 C 25.81355 13.766741 28.438137 15.611999 29.773438 16.632812 C 29.849288 16.6908 29.890714 16.778208 29.871094 16.830078 C 29.857544 16.865894 29.844951 16.90146 29.832031 16.9375 C 29.813336 16.98959 29.740996 16.988434 29.666016 16.933594 C 28.287101 15.925098 25.753962 14.194029 24.080078 13.322266 C 23.579702 13.058162 23.075928 12.82582 22.5625 12.628906 C 22.411491 12.57562 22.26241 12.525219 22.113281 12.480469 C 22.028098 12.454904 21.973314 12.365781 21.990234 12.275391 C 22.001834 12.213426 22.012781 12.151714 22.025391 12.089844 C 22.043796 11.99957 22.129387 11.946009 22.216797 11.974609 z M 22.027344 13.021484 C 22.17404 13.061829 22.321355 13.106057 22.470703 13.154297 C 22.980585 13.336442 23.480505 13.552534 23.980469 13.802734 C 25.702285 14.651646 28.15033 16.282545 29.566406 17.259766 C 29.641153 17.311352 29.686035 17.396049 29.671875 17.449219 C 29.662075 17.486021 29.653631 17.523637 29.644531 17.560547 C 29.631401 17.613837 29.562251 17.618122 29.488281 17.570312 C 28.038255 16.633167 25.672033 15.089536 23.908203 14.261719 C 23.408854 14.023552 22.911044 13.818323 22.404297 13.648438 C 22.256225 13.604243 22.109729 13.564174 21.964844 13.527344 C 21.881994 13.506284 21.823844 13.420278 21.833984 13.330078 C 21.840934 13.268207 21.847769 13.206501 21.855469 13.144531 C 21.866626 13.05417 21.943094 12.998314 22.027344 13.021484 z M 18.025391 13.535156 C 18.800448 13.71689 19.631247 13.744605 20.359375 13.828125 C 21.030925 13.880287 21.621826 13.975545 22.349609 14.175781 C 22.853504 14.334015 23.348944 14.525601 23.847656 14.751953 C 25.659128 15.560077 27.913178 17.002359 29.408203 17.892578 C 29.482188 17.936631 29.533591 18.016482 29.525391 18.070312 C 29.519721 18.107639 29.514666 18.146244 29.509766 18.183594 C 29.502668 18.237434 29.438804 18.249074 29.365234 18.208984 C 27.808691 17.360856 25.68321 16.010021 23.806641 15.210938 C 23.308323 14.994842 22.814363 14.814346 22.3125 14.666016 C 21.58577 14.480667 21.007105 14.39648 20.339844 14.34375 C 19.624691 14.260868 18.789781 14.222248 18.027344 14.021484 C 17.943629 13.99944 17.875484 13.910712 17.875 13.826172 C 17.874651 13.76784 17.875389 13.710664 17.875 13.652344 C 17.874437 13.567932 17.940631 13.515286 18.025391 13.535156 z M 18.027344 14.539062 C 18.782137 14.757195 19.620836 14.803646 20.326172 14.884766 C 20.99082 14.936699 21.56006 15.010912 22.287109 15.181641 C 22.787635 15.320218 23.279084 15.49133 23.777344 15.697266 C 25.77558 16.507409 27.661103 17.725043 29.337891 18.544922 C 29.41151 18.580918 29.466844 18.653321 29.464844 18.707031 C 29.463444 18.744317 29.461585 18.781119 29.460938 18.818359 C 29.460004 18.871999 29.401885 18.891545 29.328125 18.859375 C 27.374439 18.007188 26.035921 17.025315 23.761719 16.144531 C 23.263096 15.947471 22.771606 15.786224 22.271484 15.65625 C 21.542932 15.498516 20.983808 15.434196 20.320312 15.384766 C 19.621572 15.306734 18.77963 15.254596 18.027344 15.023438 C 17.94391 14.9978 17.878851 14.905133 17.878906 14.820312 C 17.878944 14.761879 17.878937 14.702941 17.878906 14.644531 C 17.878861 14.559869 17.943944 14.514962 18.027344 14.539062 z M 18.027344 15.539062 C 18.781257 15.780135 19.624489 15.83341 20.318359 15.90625 C 20.981576 15.950769 21.536392 16.004226 22.267578 16.148438 C 22.768172 16.269564 23.258339 16.421198 23.757812 16.609375 C 27.979339 18.166319 25.433502 17.703163 29.337891 19.191406 C 29.411883 19.219609 29.472562 19.284721 29.476562 19.337891 C 29.479363 19.374818 29.482828 19.412379 29.486328 19.449219 C 29.491322 19.502308 29.436058 19.526763 29.361328 19.501953 C 29.666766 19.603365 23.771925 17.037356 23.765625 17.035156 C 23.264949 16.854896 22.773305 16.710555 22.271484 16.597656 C 21.537147 16.466116 20.983936 16.424249 20.320312 16.386719 C 19.629171 16.320875 18.784259 16.267654 18.025391 16.021484 C 17.940655 15.993996 17.874427 15.899583 17.875 15.814453 C 17.875392 15.755913 17.87466 15.697202 17.875 15.638672 C 17.875494 15.553707 17.943604 15.512282 18.027344 15.539062 z M 18.023438 16.517578 C 18.790119 16.76419 19.63781 16.810968 20.328125 16.867188 C 20.992855 16.894998 21.547207 16.926501 22.285156 17.044922 C 22.788899 17.149265 23.282934 17.284574 23.785156 17.457031 C 24.743383 17.778531 28.748234 19.631616 29.402344 19.818359 C 29.477446 19.839799 29.545388 19.898592 29.554688 19.951172 C 29.561118 19.987652 29.567219 20.024137 29.574219 20.060547 C 29.584342 20.113087 29.533321 20.14371 29.457031 20.125 C 28.59591 19.913794 24.970267 18.221321 23.814453 17.851562 C 23.310566 17.686477 22.814666 17.558641 22.308594 17.462891 C 21.566936 17.357286 21.006682 17.336192 20.339844 17.320312 C 19.648062 17.276086 18.797576 17.241825 18.021484 17 C 17.934365 16.972856 17.864418 16.878349 17.865234 16.792969 C 17.865434 16.779457 17.867061 16.630698 17.867188 16.617188 C 17.867989 16.531977 17.937938 16.490078 18.023438 16.517578 z M 18.019531 17.511719 C 18.80645 17.742146 19.661008 17.760713 20.357422 17.789062 C 21.028525 17.789717 21.60178 17.798495 22.347656 17.890625 C 22.856428 17.976796 23.353762 18.096525 23.859375 18.253906 C 25.080871 18.625115 28.588517 20.250928 29.527344 20.447266 C 29.604158 20.46333 29.675973 20.518023 29.689453 20.570312 C 29.698693 20.606183 29.70915 20.641864 29.71875 20.677734 C 29.732821 20.730144 29.681716 20.76426 29.603516 20.75 C 28.651542 20.576353 25.135713 18.963 23.914062 18.609375 C 23.407135 18.459181 22.909629 18.348124 22.398438 18.271484 C 21.64805 18.191464 21.057238 18.197141 20.378906 18.212891 C 19.674516 18.202585 18.81609 18.203401 18.019531 17.990234 C 17.929661 17.966185 17.856881 17.874553 17.857422 17.789062 C 17.857786 17.731115 17.858943 17.673204 17.859375 17.615234 C 17.860012 17.529877 17.931381 17.485909 18.019531 17.511719 z M 18.019531 18.498047 C 18.824096 18.685157 19.688556 18.654988 20.40625 18.642578 C 21.097554 18.607518 21.712503 18.589973 22.46875 18.658203 C 22.981966 18.724052 23.480635 18.826242 23.988281 18.96875 C 25.158045 19.290247 28.777842 20.921529 29.693359 21.070312 C 29.772117 21.083113 29.849394 21.13466 29.865234 21.1875 C 29.876184 21.224014 29.887387 21.260235 29.898438 21.296875 C 29.914475 21.350045 29.863093 21.385237 29.783203 21.373047 C 28.960877 21.247569 25.136989 19.562994 24.076172 19.285156 C 23.568876 19.14997 23.066872 19.05503 22.552734 19 C 21.789583 18.94124 21.14981 18.972834 20.439453 19.027344 C 19.703817 19.064494 18.831491 19.127436 18.023438 18.972656 C 17.931637 18.955071 17.85794 18.870546 17.857422 18.785156 C 17.857069 18.726857 17.855648 18.669678 17.855469 18.611328 C 17.855207 18.526026 17.928791 18.476947 18.019531 18.498047 z M 21.558594 19.320312 C 21.916212 19.305931 22.278083 19.306361 22.664062 19.332031 C 23.177612 19.375229 23.678152 19.460397 24.183594 19.587891 C 25.030011 19.79915 29.249881 21.5925 29.875 21.6875 C 29.955296 21.699703 30.033238 21.749927 30.048828 21.804688 C 30.059538 21.84232 30.069628 21.879989 30.080078 21.917969 C 30.095325 21.973389 30.041618 22.011077 29.960938 21.998047 C 29.750321 21.964033 24.72112 19.960278 24.306641 19.861328 C 23.804963 19.741537 23.307763 19.667689 22.796875 19.636719 C 22.014513 19.589601 21.30103 19.646368 20.523438 19.742188 C 19.732743 19.839358 18.837337 19.987458 18.044922 19.923828 C 17.953459 19.916483 17.875647 19.842883 17.873047 19.757812 C 17.871247 19.69991 17.870541 19.641974 17.869141 19.583984 C 17.867029 19.498979 17.93927 19.444121 18.03125 19.457031 C 18.836335 19.570057 19.718152 19.468334 20.478516 19.402344 C 20.847982 19.364689 21.200976 19.334694 21.558594 19.320312 z "
     id="path4220" />
  <rect
     style="opacity:1;fill:#6aa3ae;fill-opacity:1;stroke:none;stroke-width:0.1;stroke-miterlimit:4;stroke-dasharray:none"
     id="rect4253"
     width="13.214058"
     height="0.53033006"
     x="-3.5055146"
     y="24.010672"
     ry="0.26516503"
     transform="matrix(0.98513363,-0.17178977,0.17178977,0.98513363,0,0)" />
  <rect
     transform="matrix(-0.98513363,-0.17178977,-0.17178977,0.98513363,0,0)"
     ry="0.26516503"
     y="18.519335"
     x="-34.995659"
     height="0.53033006"
     width="13.214058"
     id="rect4255"
     style="opacity:1;fill:#6aa3ae;fill-opacity:1;stroke:none;stroke-width:0.1;stroke-miterlimit:4;stroke-dasharray:none" />
</svg>
