<?xml version="1.0" encoding="UTF-8" standalone="no"?>
<svg
   xmlns:dc="http://purl.org/dc/elements/1.1/"
   xmlns:cc="http://creativecommons.org/ns#"
   xmlns:rdf="http://www.w3.org/1999/02/22-rdf-syntax-ns#"
   xmlns:svg="http://www.w3.org/2000/svg"
   xmlns="http://www.w3.org/2000/svg"
   xmlns:sodipodi="http://sodipodi.sourceforge.net/DTD/sodipodi-0.dtd"
   xmlns:inkscape="http://www.inkscape.org/namespaces/inkscape"
   version="1.1"
   width="32"
   height="32"
   data-icon="people"
   data-container-transform="translate(0 8)"
   viewBox="0 0 32 32"
   id="svg2"
   inkscape:version="0.91 r13725"
   sodipodi:docname="publisher.svg"
   inkscape:export-filename="architecture.png"
   inkscape:export-xdpi="56.25"
   inkscape:export-ydpi="56.25">
  <metadata
     id="metadata10">
    <rdf:RDF>
      <cc:Work
         rdf:about="">
        <dc:format>image/svg+xml</dc:format>
        <dc:type
           rdf:resource="http://purl.org/dc/dcmitype/StillImage" />
        <dc:title></dc:title>
      </cc:Work>
    </rdf:RDF>
  </metadata>
  <defs
     id="defs8" />
  <sodipodi:namedview
     pagecolor="#ffffff"
     bordercolor="#666666"
     borderopacity="1"
     objecttolerance="10"
     gridtolerance="10"
     guidetolerance="10"
     inkscape:pageopacity="0"
     inkscape:pageshadow="2"
     inkscape:window-width="1920"
     inkscape:window-height="1057"
     id="namedview6"
     showgrid="false"
     inkscape:zoom="22.627417"
     inkscape:cx="21.932353"
     inkscape:cy="15.856419"
     inkscape:window-x="-8"
     inkscape:window-y="1072"
     inkscape:window-maximized="1"
     inkscape:current-layer="svg2" />
  <path
     style="opacity:1;fill:#6aa3ae;fill-opacity:1;stroke:none;stroke-width:0.1;stroke-miterlimit:4;stroke-dasharray:none"
     d="m 10.677734,20.835938 c -0.9221885,0.01479 -1.8488268,0.15178 -2.7812496,0.380859 -2.0732431,0.509358 -4.1704895,1.480718 -6.28125,2.533203 0.1111819,0.03692 0.2291625,0.05753 0.3535156,0.04102 3.8701301,-1.550755 7.9180261,-2.745979 13.068359,-1.736328 0.100176,-0.0133 0.189892,-0.05028 0.273438,-0.0957 -0.01065,-0.004 -0.02108,-0.0086 -0.03125,-0.01367 -1.537812,-0.81526 -3.064581,-1.134021 -4.601563,-1.109374 z"
     id="rect4234"
     inkscape:connector-curvature="0"
     sodipodi:nodetypes="sscccccs" />
  <path
     style="opacity:1;fill:#6aa3ae;fill-opacity:1;stroke:none;stroke-width:0.1;stroke-miterlimit:4;stroke-dasharray:none"
     d="m 21.322266,20.835938 c -1.536982,-0.02465 -3.063751,0.294114 -4.601563,1.109374 -0.01017,0.0051 -0.0206,0.0097 -0.03125,0.01367 0.08398,0.04593 0.176481,0.08231 0.277344,0.0957 3.803726,-0.894275 8.20436,-0.196793 13.068359,1.736328 0.123416,0.01639 0.241069,-0.0028 0.351563,-0.03906 -2.111553,-1.052938 -4.209192,-2.025609 -6.283203,-2.535156 -0.932423,-0.229079 -1.859062,-0.366072 -2.78125,-0.380859 z"
     id="rect4232"
     inkscape:connector-curvature="0"
     sodipodi:nodetypes="scccccss" />
  <path
     style="opacity:1;fill:#6aa3ae;fill-opacity:1;stroke:none;stroke-width:0.1;stroke-miterlimit:4;stroke-dasharray:none"
     d="M 15.8125 8.4648438 A 0.3273415 0.3273415 0 0 1 15.818359 8.5234375 L 15.761719 21.658203 A 0.3273415 0.3273415 0 0 1 15.279297 21.945312 C 14.839227 21.712012 14.399871 21.532534 13.960938 21.376953 L 13.960938 22.632812 C 13.960938 22.781929 14.081353 22.902344 14.230469 22.902344 L 17.769531 22.902344 C 17.918647 22.902344 18.039062 22.781929 18.039062 22.632812 L 18.039062 21.376953 C 17.600129 21.532534 17.160773 21.712012 16.720703 21.945312 A 0.3273415 0.3273415 0 0 1 16.238281 21.658203 L 16.181641 8.5234375 A 0.3273415 0.3273415 0 0 1 16.1875 8.4648438 L 15.8125 8.4648438 z "
     id="rect4222" />
  <path
     sodipodi:nodetypes="ccccc"
     inkscape:connector-curvature="0"
     id="path4214"
     d="M 14.995462,20.842888 C 10.212494,18.307229 5.4295247,20.71389 0.64655526,23.13658 c 1.51683554,-4.707515 0.008534,-5.483455 0,-8.161275 C 5.112944,11.744256 8.7737832,6.0643305 15.048804,8.4676221 Z"
     style="fill:#6aa3ae;fill-opacity:1;fill-rule:evenodd;stroke:none;stroke-width:1px;stroke-linecap:butt;stroke-linejoin:miter;stroke-opacity:1" />
  <path
     style="fill:#6aa3ae;fill-opacity:1;fill-rule:evenodd;stroke:none;stroke-width:1px;stroke-linecap:butt;stroke-linejoin:miter;stroke-opacity:1"
     d="m 16.980835,20.949372 c 4.79921,-2.54427 9.598419,-0.129437 14.397629,2.301479 -1.521987,-4.723498 -0.0086,-5.502074 0,-8.188986 -4.481555,-3.24202 -8.154825,-8.9412318 -14.451153,-6.5297798 z"
     id="path4220"
     inkscape:connector-curvature="0"
     sodipodi:nodetypes="ccccc" />
  <rect
     style="opacity:1;fill:#6aa3ae;fill-opacity:1;stroke:none;stroke-width:0.1;stroke-miterlimit:4;stroke-dasharray:none"
     id="rect4253"
     width="13.352914"
     height="0.69039726"
     x="-2.6376605"
     y="24.5741"
     ry="0.34519863"
     transform="matrix(0.97488933,-0.2226899,0.13196066,0.99125495,0,0)" />
  <rect
     transform="matrix(-0.97305477,-0.23057411,-0.12728699,0.99186593,0,0)"
     ry="0.3578735"
     y="17.260025"
     x="-34.418354"
     height="0.715747"
     width="13.378089"
     id="rect4255"
     style="opacity:1;fill:#6aa3ae;fill-opacity:1;stroke:none;stroke-width:0.1;stroke-miterlimit:4;stroke-dasharray:none" />
</svg>
