<?xml version="1.0" encoding="UTF-8" standalone="no"?>
<svg
   xmlns:sketch="http://www.bohemiancoding.com/sketch/ns"
   xmlns:dc="http://purl.org/dc/elements/1.1/"
   xmlns:cc="http://creativecommons.org/ns#"
   xmlns:rdf="http://www.w3.org/1999/02/22-rdf-syntax-ns#"
   xmlns:svg="http://www.w3.org/2000/svg"
   xmlns="http://www.w3.org/2000/svg"
   xmlns:sodipodi="http://sodipodi.sourceforge.net/DTD/sodipodi-0.dtd"
   xmlns:inkscape="http://www.inkscape.org/namespaces/inkscape"
   width="41.5"
   height="22"
   viewBox="0 0 41.5 22"
   version="1.1"
   id="svg2"
   inkscape:version="0.91 r13725"
   sodipodi:docname="add_group.svg">
  <metadata
     id="metadata14">
    <rdf:RDF>
      <cc:Work
         rdf:about="">
        <dc:format>image/svg+xml</dc:format>
        <dc:type
           rdf:resource="http://purl.org/dc/dcmitype/StillImage" />
        <dc:title>album_collection</dc:title>
      </cc:Work>
    </rdf:RDF>
  </metadata>
  <sodipodi:namedview
     pagecolor="#ffffff"
     bordercolor="#666666"
     borderopacity="1"
     objecttolerance="10"
     gridtolerance="10"
     guidetolerance="10"
     inkscape:pageopacity="0"
     inkscape:pageshadow="2"
     inkscape:window-width="1920"
     inkscape:window-height="1057"
     id="namedview12"
     showgrid="false"
     inkscape:zoom="11.313708"
     inkscape:cx="20.466643"
     inkscape:cy="25.923708"
     inkscape:window-x="-8"
     inkscape:window-y="1072"
     inkscape:window-maximized="1"
     inkscape:current-layer="svg2" />
  <title
     id="title4">album_collection</title>
  <description
     id="description6">Created with Sketch (http://www.bohemiancoding.com/sketch)</description>
  <defs
     id="defs8" />
  <path
     inkscape:connector-curvature="0"
     style="fill:#2da0b7;fill-opacity:1;fill-rule:evenodd;stroke:none"
     sketch:type="MSShapeGroup"
     id="album_collection"
     d="M 0.14048767,4.3125 C 0.06289847,4.3125 0,4.3704357 0,4.4412911 L 0,20.183709 c 0,0.07113 0.06311035,0.128791 0.14048767,0.128791 l 21.71902433,0 C 21.937101,20.3125 22,20.254564 22,20.183709 L 22,4.4412911 C 22,4.3701617 21.93689,4.3125 21.859512,4.3125 Z M 1.5,1.6875 l 0,1.625 19,0 0,-1.625 z"
     sodipodi:nodetypes="sssssssssccccc" />
  <path
     style="opacity:1;fill:#2da0b7;fill-opacity:1;stroke:none;stroke-width:1;stroke-miterlimit:4;stroke-dasharray:none;stroke-opacity:1"
     d="m 33.544331,3.471692 a 7.5638009,7.5638009 0 0 0 -7.563801,7.563801 7.5638009,7.5638009 0 0 0 7.563801,7.563801 7.5638009,7.5638009 0 0 0 7.563801,-7.563801 7.5638009,7.5638009 0 0 0 -7.563801,-7.563801 z m 0,1.74566 c 0.644669,0 1.164496,0.519826 1.164496,1.164495 l 0,3.48915 3.48915,0 c 0.644669,0 1.164495,0.519827 1.164495,1.164496 0,0.644669 -0.519826,1.164496 -1.164495,1.164496 l -3.48915,0 0,3.48915 c 0,0.644669 -0.519827,1.164495 -1.164496,1.164495 -0.644669,0 -1.164496,-0.519826 -1.164496,-1.164495 l 0,-3.48915 -3.48915,0 c -0.644669,0 -1.164495,-0.519827 -1.164495,-1.164496 0,-0.644669 0.519826,-1.164496 1.164495,-1.164496 l 3.48915,0 0,-3.48915 c 0,-0.644669 0.519827,-1.164495 1.164496,-1.164495 z"
     id="path4688-7"
     inkscape:connector-curvature="0" />
</svg>
