<?xml version="1.0" encoding="UTF-8" standalone="no"?>
<!-- Created with Inkscape (http://www.inkscape.org/) -->

<svg
   xmlns:dc="http://purl.org/dc/elements/1.1/"
   xmlns:cc="http://creativecommons.org/ns#"
   xmlns:rdf="http://www.w3.org/1999/02/22-rdf-syntax-ns#"
   xmlns:svg="http://www.w3.org/2000/svg"
   xmlns="http://www.w3.org/2000/svg"
   xmlns:sodipodi="http://sodipodi.sourceforge.net/DTD/sodipodi-0.dtd"
   xmlns:inkscape="http://www.inkscape.org/namespaces/inkscape"
   width="234.34523mm"
   height="234.34523mm"
   viewBox="0 0 234.34523 234.34523"
   version="1.1"
   id="svg11108"
   inkscape:version="0.92.4 5da689c313, 2019-01-14"
   sodipodi:docname="nav-dropdown.svg"
   inkscape:export-filename="/home/wilkie/occam-web-client/public/images/ui/actions-dropdown.png"
   inkscape:export-xdpi="2.6012905"
   inkscape:export-ydpi="2.6012905">
  <defs
     id="defs11102" />
  <sodipodi:namedview
     id="base"
     pagecolor="#ffffff"
     bordercolor="#666666"
     borderopacity="1.0"
     inkscape:pageopacity="0.0"
     inkscape:pageshadow="2"
     inkscape:zoom="0.37921454"
     inkscape:cx="361.66164"
     inkscape:cy="195.61194"
     inkscape:document-units="mm"
     inkscape:current-layer="layer1"
     showgrid="false"
     inkscape:window-width="1920"
     inkscape:window-height="1152"
     inkscape:window-x="0"
     inkscape:window-y="20"
     inkscape:window-maximized="1"
     inkscape:snap-global="false" />
  <metadata
     id="metadata11105">
    <rdf:RDF>
      <cc:Work
         rdf:about="">
        <dc:format>image/svg+xml</dc:format>
        <dc:type
           rdf:resource="http://purl.org/dc/dcmitype/StillImage" />
        <dc:title />
      </cc:Work>
    </rdf:RDF>
  </metadata>
  <g
     inkscape:label="Layer 1"
     inkscape:groupmode="layer"
     id="layer1"
     transform="translate(28.726185,14.452391)">
    <rect
       style="fill:#103942;fill-opacity:1;stroke-width:0.33698824"
       id="rect1191"
       width="189.14609"
       height="36.489983"
       x="-681.04089"
       y="150.35985"
       ry="18.244991" />
    <rect
       ry="17.896133"
       y="208.34187"
       x="-681.04089"
       height="35.792267"
       width="189.14609"
       id="rect1193"
       style="fill:#103942;fill-opacity:1;stroke-width:0.33375093" />
    <rect
       style="fill:#103942;fill-opacity:1;stroke-width:0.34337124"
       id="rect1195"
       width="189.14609"
       height="37.88541"
       x="-681.04089"
       y="92.028946"
       ry="18.942705" />
    <path
       sodipodi:type="inkscape:offset"
       inkscape:radius="8.7524462"
       inkscape:original="M 85.597656 1.9863281 C 84.788243 1.9994561 83.972637 2.5221536 83.664062 3.2695312 L 73.123047 28.800781 C 72.77041 29.654926 73.21843 30.468985 74.128906 30.626953 L 81.861328 31.96875 L 79.970703 61.880859 L 103.1543 34.419922 L 94.744141 26.839844 L 103.08594 6.6386719 C 103.43857 5.7845261 102.98859 4.9704676 102.07812 4.8125 L 85.943359 2.0117188 C 85.829553 1.9919727 85.713292 1.9844526 85.597656 1.9863281 z "
       style="opacity:1;fill:#ffffff;fill-opacity:1;stroke:none;stroke-width:14.6743679;stroke-miterlimit:4;stroke-dasharray:none;stroke-opacity:1"
       id="path1238"
       d="m 85.455078,-6.765625 c -4.480667,0.072673 -8.045479,2.2499693 -9.880859,6.6953125 L 65.033203,25.460938 c -1.049531,2.542137 -1.075416,5.96051 0.453125,8.736328 1.528224,2.775241 4.432991,4.58174 7.144531,5.052734 l -1.394531,22.078125 a 8.7533214,8.7533214 0 0 0 15.421875,6.199219 L 109.8418,40.066406 a 8.7533214,8.7533214 0 0 0 -0.82813,-12.148437 l -3.82226,-3.445313 5.98437,-14.4941404 c 1.05169,-2.547423 1.07198,-5.9714115 -0.45898,-8.7441406 -1.53096,-2.7727291 -4.43159,-4.5745623 -7.14258,-5.0449219 L 87.439453,-6.6113281 C 86.705194,-6.7387269 86.045138,-6.7751952 85.455078,-6.765625 Z"
       transform="matrix(2.6916592,0,0,2.6916592,-692.38186,227.66738)" />
    <path
       sodipodi:nodetypes="cccc"
       inkscape:connector-curvature="0"
       id="path3658"
       d="m -137.60917,22.963526 -24.41431,23.435959 c 53.25042,62.549325 -3.77538,90.832975 -34.79418,111.648855 32.69417,-12.858 110.703029,-69.848777 59.20849,-135.084814 z"
       style="color:#000000;font-style:normal;font-variant:normal;font-weight:normal;font-stretch:normal;font-size:medium;line-height:normal;font-family:sans-serif;font-variant-ligatures:normal;font-variant-position:normal;font-variant-caps:normal;font-variant-numeric:normal;font-variant-alternates:normal;font-feature-settings:normal;text-indent:0;text-align:start;text-decoration:none;text-decoration-line:none;text-decoration-style:solid;text-decoration-color:#000000;letter-spacing:normal;word-spacing:normal;text-transform:none;writing-mode:lr-tb;direction:ltr;text-orientation:mixed;dominant-baseline:auto;baseline-shift:baseline;text-anchor:start;white-space:normal;shape-padding:0;clip-rule:nonzero;display:inline;overflow:visible;visibility:visible;opacity:1;isolation:auto;mix-blend-mode:normal;color-interpolation:sRGB;color-interpolation-filters:linearRGB;solid-color:#000000;solid-opacity:1;vector-effect:none;fill:#ff00ff;fill-opacity:1;fill-rule:nonzero;stroke:none;stroke-width:34.22833252;stroke-linecap:butt;stroke-linejoin:miter;stroke-miterlimit:4;stroke-dasharray:none;stroke-dashoffset:0;stroke-opacity:1;color-rendering:auto;image-rendering:auto;shape-rendering:auto;text-rendering:auto;enable-background:accumulate" />
    <path
       transform="matrix(0.89441911,-0.63371258,0.38253997,0.73770184,-260.37273,66.117383)"
       inkscape:transform-center-y="19.21673"
       inkscape:transform-center-x="-8.795315"
       d="M 140.12064,39.882601 65.845852,56.252036 88.8069,-16.256535 Z"
       inkscape:randomized="0"
       inkscape:rounded="0"
       inkscape:flatsided="true"
       sodipodi:arg2="1.3538739"
       sodipodi:arg1="0.30667632"
       sodipodi:r2="23.688147"
       sodipodi:r1="43.911663"
       sodipodi:cy="26.626034"
       sodipodi:cx="98.257797"
       sodipodi:sides="3"
       id="path3660"
       style="fill:#ff00ff;fill-opacity:1;stroke:none;stroke-width:30;stroke-miterlimit:4;stroke-dasharray:none;stroke-dashoffset:0;stroke-opacity:1"
       sodipodi:type="star" />
    <rect
       ry="18.244991"
       y="320.90314"
       x="-306.14368"
       height="36.489983"
       width="189.14609"
       id="rect3670"
       style="fill:#103942;fill-opacity:1;stroke-width:0.33698824" />
    <rect
       style="fill:#103942;fill-opacity:1;stroke-width:0.33375093"
       id="rect3672"
       width="189.14609"
       height="35.792267"
       x="-306.14368"
       y="378.88513"
       ry="17.896133" />
    <rect
       ry="18.942705"
       y="262.57224"
       x="-306.14368"
       height="37.88541"
       width="189.14609"
       id="rect3674"
       style="fill:#103942;fill-opacity:1;stroke-width:0.34337124" />
    <path
       transform="matrix(0.28271468,0,0,0.28271468,-341.79663,182.23107)"
       d="m 336.16406,39.205078 a 46.864786,46.864786 0 0 0 -48.06445,51.767578 l 27.2168,257.160154 a 46.864786,46.864786 0 0 0 79.44921,28.48633 l 32.83008,-32.27148 c 23.08263,35.03604 33.71883,64.24456 36.75782,87.93554 4.1534,32.37869 -3.67473,56.91714 -20.70508,82.53516 -34.06071,51.23603 -110.39738,96.75519 -171.5586,137.79883 a 46.864786,46.864786 0 0 0 43.26172,82.51953 c 71.64633,-28.17714 178.90964,-95.51403 251.36328,-196.27149 36.22683,-50.37872 63.30217,-110.1299 66.49219,-176.81835 2.65861,-55.57911 -12.3116,-114.6754 -48.11328,-172.51172 l 37.08789,-36.45508 A 46.864786,46.864786 0 0 0 595.4668,73.205078 L 340.83398,39.583984 a 46.864786,46.864786 0 0 0 -4.66992,-0.378906 z"
       id="path3676"
       style="color:#000000;font-style:normal;font-variant:normal;font-weight:normal;font-stretch:normal;font-size:medium;line-height:normal;font-family:sans-serif;font-variant-ligatures:normal;font-variant-position:normal;font-variant-caps:normal;font-variant-numeric:normal;font-variant-alternates:normal;font-feature-settings:normal;text-indent:0;text-align:start;text-decoration:none;text-decoration-line:none;text-decoration-style:solid;text-decoration-color:#000000;letter-spacing:normal;word-spacing:normal;text-transform:none;writing-mode:lr-tb;direction:ltr;text-orientation:mixed;dominant-baseline:auto;baseline-shift:baseline;text-anchor:start;white-space:normal;shape-padding:0;clip-rule:nonzero;display:inline;overflow:visible;visibility:visible;opacity:1;isolation:auto;mix-blend-mode:normal;color-interpolation:sRGB;color-interpolation-filters:linearRGB;solid-color:#000000;solid-opacity:1;vector-effect:none;fill:#ffffff;fill-opacity:1;fill-rule:nonzero;stroke:none;stroke-width:129.3669281;stroke-linecap:butt;stroke-linejoin:miter;stroke-miterlimit:4;stroke-dasharray:none;stroke-dashoffset:0;stroke-opacity:1;color-rendering:auto;image-rendering:auto;shape-rendering:auto;text-rendering:auto;enable-background:accumulate"
       inkscape:original="M 334.69922 86.041016 L 361.91602 343.20117 L 432.93945 273.38867 C 628.61154 507.1113 414.79987 613.28111 298.20117 691.52734 C 421.30515 643.11288 714.37095 429.14714 524.13477 183.74805 L 589.33203 119.66211 L 334.69922 86.041016 z "
       inkscape:radius="46.8601"
       sodipodi:type="inkscape:offset" />
    <path
       inkscape:connector-curvature="0"
       id="path3678"
       d="m -247.17225,206.55613 7.69459,72.70295 20.07936,-19.73702 c 55.31935,66.07681 -5.12832,96.09258 -38.09249,118.21393 34.80331,-13.68747 117.65729,-74.17872 63.87472,-143.55665 l 18.43223,-18.11804 z"
       style="color:#000000;font-style:normal;font-variant:normal;font-weight:normal;font-stretch:normal;font-size:medium;line-height:normal;font-family:sans-serif;font-variant-ligatures:normal;font-variant-position:normal;font-variant-caps:normal;font-variant-numeric:normal;font-variant-alternates:normal;font-feature-settings:normal;text-indent:0;text-align:start;text-decoration:none;text-decoration-line:none;text-decoration-style:solid;text-decoration-color:#000000;letter-spacing:normal;word-spacing:normal;text-transform:none;writing-mode:lr-tb;direction:ltr;text-orientation:mixed;dominant-baseline:auto;baseline-shift:baseline;text-anchor:start;white-space:normal;shape-padding:0;clip-rule:nonzero;display:inline;overflow:visible;visibility:visible;opacity:1;isolation:auto;mix-blend-mode:normal;color-interpolation:sRGB;color-interpolation-filters:linearRGB;solid-color:#000000;solid-opacity:1;vector-effect:none;fill:#103942;fill-opacity:1;fill-rule:nonzero;stroke:none;stroke-width:36.57392883;stroke-linecap:butt;stroke-linejoin:miter;stroke-miterlimit:4;stroke-dasharray:none;stroke-dashoffset:0;stroke-opacity:1;color-rendering:auto;image-rendering:auto;shape-rendering:auto;text-rendering:auto;enable-background:accumulate" />
    <path
       inkscape:connector-curvature="0"
       style="fill:#103942;fill-opacity:1;stroke-width:0.33698824"
       d="m 259.85013,276.67484 c -10.10772,0 -18.24488,8.13716 -18.24488,18.24489 0,10.10772 8.13716,18.24488 18.24488,18.24488 h 32.39957 l 2.27842,-36.07739 c -0.29441,-0.0511 -0.58939,-0.11035 -0.88522,-0.17312 -0.0515,-0.011 -0.103,-0.0223 -0.15451,-0.0336 -0.28756,-0.0629 -0.57574,-0.13087 -0.86403,-0.20464 -0.002,-5.3e-4 -0.004,-5.3e-4 -0.005,-0.001 z m 136.71724,0 a 23.560958,23.560958 0 0 1 -1.08985,1.57251 23.560958,23.560958 0 0 1 -0.79014,1.03715 l -28.60291,33.88011 h 46.42198 c 10.10772,0 18.24488,-8.13716 18.24488,-18.24488 0,-10.10773 -8.13716,-18.24489 -18.24488,-18.24489 z"
       id="rect1224" />
    <path
       inkscape:connector-curvature="0"
       style="fill:#103942;fill-opacity:1;stroke-width:0.33375093"
       d="m 259.50132,334.65684 c -9.91446,0 -17.89607,7.9816 -17.89607,17.89606 0,9.91446 7.98161,17.89606 17.89607,17.89606 h 153.35395 c 9.91445,0 17.89606,-7.9816 17.89606,-17.89606 0,-9.91446 -7.98161,-17.89606 -17.89606,-17.89606 h -64.91491 l -15.65537,18.54356 a 23.560958,23.560958 0 0 1 -41.51013,-16.68631 l 0.11731,-1.85725 z"
       id="rect1226" />
    <path
       inkscape:connector-curvature="0"
       style="fill:#103942;fill-opacity:1;stroke-width:0.34337124"
       d="m 260.54777,218.34352 c -10.49426,0 -18.94252,8.44877 -18.94252,18.94302 0,10.49426 8.44826,18.94252 18.94252,18.94252 h 12.10261 c -0.0725,-0.35209 -0.13772,-0.7048 -0.19637,-1.05834 -5.2e-4,-0.003 -0.001,-0.006 -0.002,-0.009 -0.0537,-0.32441 -0.10041,-0.64953 -0.14262,-0.97461 -0.006,-0.0486 -0.0131,-0.0971 -0.0191,-0.14573 -0.0838,-0.67273 -0.1434,-1.34603 -0.17932,-2.01797 -0.002,-0.0405 -0.004,-0.0809 -0.006,-0.12143 -0.0151,-0.30569 -0.0251,-0.61093 -0.0305,-0.91571 -5.3e-4,-0.0367 -0.002,-0.0734 -0.003,-0.11007 -0.005,-0.33893 -0.004,-0.67721 0.003,-1.01441 2e-4,-0.01 7.9e-4,-0.0193 0.001,-0.0289 0.007,-0.31429 0.0193,-0.6272 0.0362,-0.93948 0.003,-0.0588 0.007,-0.11749 0.0104,-0.17621 0.0192,-0.31975 0.0423,-0.63847 0.0718,-0.9555 0.0307,-0.32898 0.0674,-0.65637 0.10904,-0.98185 0.006,-0.0484 0.0132,-0.0964 0.0196,-0.1447 0.0355,-0.26668 0.0746,-0.53189 0.1173,-0.79582 0.0111,-0.0688 0.022,-0.13762 0.0336,-0.20618 0.0519,-0.30673 0.10744,-0.61175 0.16899,-0.91416 0.004,-0.0216 0.01,-0.043 0.0139,-0.0646 0.0576,-0.27942 0.1199,-0.55619 0.18552,-0.83147 0.0176,-0.0739 0.0356,-0.14755 0.0537,-0.22118 0.0632,-0.25563 0.12941,-0.50958 0.19947,-0.76119 0.0113,-0.0406 0.0221,-0.0815 0.0336,-0.12196 0.0828,-0.29208 0.17057,-0.58104 0.26252,-0.86713 0.0184,-0.0572 0.0376,-0.11359 0.0563,-0.17053 0.0745,-0.22637 0.15188,-0.45059 0.23202,-0.67283 0.0278,-0.077 0.0553,-0.154 0.0837,-0.23048 0.10095,-0.2715 0.20492,-0.54095 0.31419,-0.80563 l 8.92969,-21.62812 z m 129.45411,0 -7.83156,18.96835 10.28826,9.27333 a 23.560958,23.560958 0 0 1 1.23765,1.2392 23.560958,23.560958 0 0 1 0.63924,0.68782 23.560958,23.560958 0 0 1 0.99425,1.21749 23.560958,23.560958 0 0 1 0.42116,0.55553 23.560958,23.560958 0 0 1 1.00666,1.52135 23.560958,23.560958 0 0 1 0.22686,0.37104 23.560958,23.560958 0 0 1 0.96945,1.84123 23.560958,23.560958 0 0 1 0.0811,0.16795 23.560958,23.560958 0 0 1 0.83044,2.0407 23.560958,23.560958 0 0 1 5.3e-4,0.002 h 12.94236 c 10.49426,0 18.94304,-8.44826 18.94304,-18.94252 0,-10.49425 -8.44878,-18.94302 -18.94304,-18.94302 z"
       id="rect1228" />
    <path
       style="opacity:1;fill:#103942;fill-opacity:1;stroke:none;stroke-width:39.49839401;stroke-miterlimit:4;stroke-dasharray:none;stroke-opacity:1"
       d="m 329.43295,176.78538 c -2.17868,0.0354 -4.37787,1.44135 -5.20844,3.45303 L 295.85152,248.962 c -0.9492,2.29907 0.25995,4.49119 2.71066,4.91637 l 20.81333,3.61135 -5.0886,80.50972 62.40158,-73.91496 -22.63615,-20.40151 22.44895,-54.37448 c 0.94915,-2.29907 -0.26003,-4.49228 -2.71067,-4.91745 l -43.42918,-7.53505 c -0.30632,-0.0532 -0.61725,-0.0756 -0.92849,-0.0706 z"
       id="path1205"
       inkscape:connector-curvature="0" />
    <rect
       ry="18.244991"
       y="352.30026"
       x="-12.406041"
       height="36.489983"
       width="189.14609"
       id="rect4335"
       style="fill:#103942;fill-opacity:1;stroke-width:0.33698824" />
    <rect
       style="fill:#103942;fill-opacity:1;stroke-width:0.33375093"
       id="rect4337"
       width="189.14609"
       height="35.792267"
       x="-12.406041"
       y="410.28229"
       ry="17.896133" />
    <rect
       ry="18.942705"
       y="293.96936"
       x="-12.406041"
       height="37.88541"
       width="189.14609"
       id="rect4339"
       style="fill:#103942;fill-opacity:1;stroke-width:0.34337124" />
    <path
       transform="matrix(0.28271468,0,0,0.28271468,-48.058999,233.20738)"
       d="m 337.13477,8.15625 a 77.930873,77.930873 0 0 0 -79.92579,86.085938 l 27.2168,257.160152 a 77.930873,77.930873 0 0 0 132.11524,47.3711 l 3.98046,-3.91211 c 7.62047,16.38098 11.59373,30.24463 13.02149,41.375 3.16154,24.64638 -1.8847,40.50918 -15.76367,61.38672 -27.75795,41.75506 -99.9417,86.88445 -163,129.20117 a 77.930873,77.930873 0 0 0 71.9414,137.21875 C 405.05844,733.23422 514.45806,664.74384 591.93555,557 630.67429,503.12808 660.68403,437.75238 664.23438,363.53125 666.85284,308.79145 653.76967,250.93424 623.94336,194.9082 l 20.01367,-19.67382 A 77.930873,77.930873 0 0 0 599.5332,42.410156 L 344.90039,8.7890625 A 77.930873,77.930873 0 0 0 337.13477,8.15625 Z"
       id="path4341"
       style="color:#000000;font-style:normal;font-variant:normal;font-weight:normal;font-stretch:normal;font-size:medium;line-height:normal;font-family:sans-serif;font-variant-ligatures:normal;font-variant-position:normal;font-variant-caps:normal;font-variant-numeric:normal;font-variant-alternates:normal;font-feature-settings:normal;text-indent:0;text-align:start;text-decoration:none;text-decoration-line:none;text-decoration-style:solid;text-decoration-color:#000000;letter-spacing:normal;word-spacing:normal;text-transform:none;writing-mode:lr-tb;direction:ltr;text-orientation:mixed;dominant-baseline:auto;baseline-shift:baseline;text-anchor:start;white-space:normal;shape-padding:0;clip-rule:nonzero;display:inline;overflow:visible;visibility:visible;opacity:1;isolation:auto;mix-blend-mode:normal;color-interpolation:sRGB;color-interpolation-filters:linearRGB;solid-color:#000000;solid-opacity:1;vector-effect:none;fill:#ffffff;fill-opacity:1;fill-rule:nonzero;stroke:none;stroke-width:129.3669281;stroke-linecap:butt;stroke-linejoin:miter;stroke-miterlimit:4;stroke-dasharray:none;stroke-dashoffset:0;stroke-opacity:1;color-rendering:auto;image-rendering:auto;shape-rendering:auto;text-rendering:auto;enable-background:accumulate"
       inkscape:original="M 334.69922 86.041016 L 361.91602 343.20117 L 432.93945 273.38867 C 628.61154 507.1113 414.79987 613.28111 298.20117 691.52734 C 421.30515 643.11288 714.37095 429.14714 524.13477 183.74805 L 589.33203 119.66211 L 334.69922 86.041016 z "
       inkscape:radius="77.92308"
       sodipodi:type="inkscape:offset" />
    <path
       inkscape:connector-curvature="0"
       id="path4343"
       d="m 46.565385,257.53243 7.694589,72.70296 20.079366,-19.73702 c 55.31934,66.07693 -5.128325,96.0927 -38.09249,118.21405 34.803303,-13.68747 117.65728,-74.17877 63.87471,-143.55677 l 18.43223,-18.11803 z"
       style="color:#000000;font-style:normal;font-variant:normal;font-weight:normal;font-stretch:normal;font-size:medium;line-height:normal;font-family:sans-serif;font-variant-ligatures:normal;font-variant-position:normal;font-variant-caps:normal;font-variant-numeric:normal;font-variant-alternates:normal;font-feature-settings:normal;text-indent:0;text-align:start;text-decoration:none;text-decoration-line:none;text-decoration-style:solid;text-decoration-color:#000000;letter-spacing:normal;word-spacing:normal;text-transform:none;writing-mode:lr-tb;direction:ltr;text-orientation:mixed;dominant-baseline:auto;baseline-shift:baseline;text-anchor:start;white-space:normal;shape-padding:0;clip-rule:nonzero;display:inline;overflow:visible;visibility:visible;opacity:1;isolation:auto;mix-blend-mode:normal;color-interpolation:sRGB;color-interpolation-filters:linearRGB;solid-color:#000000;solid-opacity:1;vector-effect:none;fill:#103942;fill-opacity:1;fill-rule:nonzero;stroke:none;stroke-width:36.57392883;stroke-linecap:butt;stroke-linejoin:miter;stroke-miterlimit:4;stroke-dasharray:none;stroke-dashoffset:0;stroke-opacity:1;color-rendering:auto;image-rendering:auto;shape-rendering:auto;text-rendering:auto;enable-background:accumulate" />
    <rect
       ry="18.244991"
       y="48.794628"
       x="254.12074"
       height="36.489983"
       width="189.14609"
       id="rect4355"
       style="fill:#103942;fill-opacity:1;stroke-width:0.33698824" />
    <rect
       style="fill:#103942;fill-opacity:1;stroke-width:0.33375093"
       id="rect4357"
       width="189.14609"
       height="35.792267"
       x="254.12074"
       y="106.77664"
       ry="17.896133" />
    <rect
       ry="18.942705"
       y="-9.5362749"
       x="254.12074"
       height="37.88541"
       width="189.14609"
       id="rect4359"
       style="fill:#103942;fill-opacity:1;stroke-width:0.34337124" />
    <path
       sodipodi:nodetypes="cccscccsccccsccc"
       inkscape:connector-curvature="0"
       id="path4361"
       d="m 313.78074,-67.99236 c -13.35307,-0.416017 -24.00069,11.052241 -22.5962,24.337758 l 7.69459,72.70295 c 0.89139,8.407177 6.51493,15.562841 14.47312,18.416323 7.9582,2.853484 16.84737,0.901478 22.8778,-5.023818 l 1.12533,-1.10601 c 25.36867,24.618223 -9.23869,51.325939 -23.83318,64.881597 -9.3262,6.27209 -24.29757,12.27925 -19.07887,22.23324 5.21871,9.954 29.65217,-3.75627 40.11548,-7.85947 33.81137,-18.9871 49.6518,-23.70143 71.69779,-88.112841 0.74027,-15.475745 -2.95853,-31.83282764 -11.39087,-47.672212 l 5.65816,-5.562077 c 6.00351,-5.903561 8.11739,-14.712537 5.44672,-22.697627 -2.67065,-7.985091 -9.6588,-13.749841 -18.00599,-14.853731 l -71.98843,-9.505177 c -0.72838,-0.0962 -1.46111,-0.155913 -2.19545,-0.178905 z"
       style="color:#000000;font-style:normal;font-variant:normal;font-weight:normal;font-stretch:normal;font-size:medium;line-height:normal;font-family:sans-serif;font-variant-ligatures:normal;font-variant-position:normal;font-variant-caps:normal;font-variant-numeric:normal;font-variant-alternates:normal;font-feature-settings:normal;text-indent:0;text-align:start;text-decoration:none;text-decoration-line:none;text-decoration-style:solid;text-decoration-color:#000000;letter-spacing:normal;word-spacing:normal;text-transform:none;writing-mode:lr-tb;direction:ltr;text-orientation:mixed;dominant-baseline:auto;baseline-shift:baseline;text-anchor:start;white-space:normal;shape-padding:0;clip-rule:nonzero;display:inline;overflow:visible;visibility:visible;opacity:1;isolation:auto;mix-blend-mode:normal;color-interpolation:sRGB;color-interpolation-filters:linearRGB;solid-color:#000000;solid-opacity:1;vector-effect:none;fill:#ffffff;fill-opacity:1;fill-rule:nonzero;stroke:none;stroke-width:36.57392883;stroke-linecap:butt;stroke-linejoin:miter;stroke-miterlimit:4;stroke-dasharray:none;stroke-dashoffset:0;stroke-opacity:1;color-rendering:auto;image-rendering:auto;shape-rendering:auto;text-rendering:auto;enable-background:accumulate" />
    <path
       inkscape:connector-curvature="0"
       id="path4363"
       d="m 313.09217,-45.9732 7.69459,72.702959 20.07937,-19.7370188 C 396.18547,73.069665 335.7378,103.08544 302.77364,125.20679 337.57694,111.51932 420.43092,51.028015 366.64835,-18.349979 l 18.43223,-18.118039 z"
       style="color:#000000;font-style:normal;font-variant:normal;font-weight:normal;font-stretch:normal;font-size:medium;line-height:normal;font-family:sans-serif;font-variant-ligatures:normal;font-variant-position:normal;font-variant-caps:normal;font-variant-numeric:normal;font-variant-alternates:normal;font-feature-settings:normal;text-indent:0;text-align:start;text-decoration:none;text-decoration-line:none;text-decoration-style:solid;text-decoration-color:#000000;letter-spacing:normal;word-spacing:normal;text-transform:none;writing-mode:lr-tb;direction:ltr;text-orientation:mixed;dominant-baseline:auto;baseline-shift:baseline;text-anchor:start;white-space:normal;shape-padding:0;clip-rule:nonzero;display:inline;overflow:visible;visibility:visible;opacity:1;isolation:auto;mix-blend-mode:normal;color-interpolation:sRGB;color-interpolation-filters:linearRGB;solid-color:#000000;solid-opacity:1;vector-effect:none;fill:#103942;fill-opacity:1;fill-rule:nonzero;stroke:none;stroke-width:36.57392883;stroke-linecap:butt;stroke-linejoin:miter;stroke-miterlimit:4;stroke-dasharray:none;stroke-dashoffset:0;stroke-opacity:1;color-rendering:auto;image-rendering:auto;shape-rendering:auto;text-rendering:auto;enable-background:accumulate" />
    <path
       style="fill:#103942;fill-opacity:1;stroke-width:1.38811052"
       d="M 18.287109 155.39453 L 18.287109 298.58398 L 238.36719 298.58398 L 222.51758 155.39453 L 18.287109 155.39453 z M 672.375 155.39453 C 667.97554 164.15406 662.13016 172.28109 654.9082 179.38281 L 631.58398 202.31055 C 652.02484 240.70687 668.44409 268.9001 677.89062 298.58398 L 867.42578 298.58398 L 867.42578 155.39453 L 672.375 155.39453 z M 18.287109 375.85742 L 18.287109 513.77344 L 431.15039 513.77344 C 434.36575 482.85284 424.83259 451.58975 394.50586 422.16016 L 389.86719 426.71875 C 365.00773 451.14478 328.36301 459.19267 295.55664 447.42969 C 264.13206 436.16207 251.22275 408.61724 246.96094 375.85742 L 18.287109 375.85742 z M 685.84375 375.85742 C 681.79023 423.90002 665.92417 470.27122 642.0957 513.77344 L 867.42578 513.77344 L 867.42578 375.85742 L 685.84375 375.85742 z M 18.287109 595.00195 L 18.287109 730.28125 L 251.94336 730.28125 C 266.52619 720.763 282.81191 711.85127 296.25781 702.80859 C 323.23861 677.74829 366.80181 639.12834 397.22656 595.00195 L 18.287109 595.00195 z M 586.26367 595.00195 C 542.46567 647.68068 488.80172 693.75131 434.50781 730.28125 L 867.42578 730.28125 L 867.42578 595.00195 L 586.26367 595.00195 z "
       transform="matrix(0.26458333,0,0,0.26458333,-28.726185,-14.452391)"
       id="rect5379" />
    <path
       style="color:#000000;font-style:normal;font-variant:normal;font-weight:normal;font-stretch:normal;font-size:medium;line-height:normal;font-family:sans-serif;font-variant-ligatures:normal;font-variant-position:normal;font-variant-caps:normal;font-variant-numeric:normal;font-variant-alternates:normal;font-feature-settings:normal;text-indent:0;text-align:start;text-decoration:none;text-decoration-line:none;text-decoration-style:solid;text-decoration-color:#000000;letter-spacing:normal;word-spacing:normal;text-transform:none;writing-mode:lr-tb;direction:ltr;text-orientation:mixed;dominant-baseline:auto;baseline-shift:baseline;text-anchor:start;white-space:normal;shape-padding:0;clip-rule:nonzero;display:inline;overflow:visible;visibility:visible;opacity:1;isolation:auto;mix-blend-mode:normal;color-interpolation:sRGB;color-interpolation-filters:linearRGB;solid-color:#000000;solid-opacity:1;vector-effect:none;fill:#103942;fill-opacity:1;fill-rule:nonzero;stroke:none;stroke-width:39.89123154;stroke-linecap:butt;stroke-linejoin:miter;stroke-miterlimit:4;stroke-dasharray:none;stroke-dashoffset:0;stroke-opacity:1;color-rendering:auto;image-rendering:auto;shape-rendering:auto;text-rendering:auto;enable-background:accumulate"
       d="m 49.189662,5.5057454 8.3925,79.2972096 21.900596,-21.527194 C 139.81963,135.34594 73.889281,168.08419 37.935228,192.21197 75.895234,177.28303 166.26417,111.30509 107.60345,35.634429 L 127.70751,15.87306 Z"
       id="path3652"
       inkscape:connector-curvature="0" />
  </g>
</svg>
