<?xml version="1.0" encoding="UTF-8" standalone="no"?>
<!-- Created with Inkscape (http://www.inkscape.org/) -->

<svg
   xmlns:dc="http://purl.org/dc/elements/1.1/"
   xmlns:cc="http://creativecommons.org/ns#"
   xmlns:rdf="http://www.w3.org/1999/02/22-rdf-syntax-ns#"
   xmlns:svg="http://www.w3.org/2000/svg"
   xmlns="http://www.w3.org/2000/svg"
   xmlns:sodipodi="http://sodipodi.sourceforge.net/DTD/sodipodi-0.dtd"
   xmlns:inkscape="http://www.inkscape.org/namespaces/inkscape"
   width="234.34523mm"
   height="234.34523mm"
   viewBox="0 0 234.34523 234.34523"
   version="1.1"
   id="svg11108"
   inkscape:version="0.92.2 2405546, 2018-03-11"
   sodipodi:docname="publish.svg">
  <defs
     id="defs11102" />
  <sodipodi:namedview
     id="base"
     pagecolor="#ffffff"
     bordercolor="#666666"
     borderopacity="1.0"
     inkscape:pageopacity="0.0"
     inkscape:pageshadow="2"
     inkscape:zoom="0.53629035"
     inkscape:cx="-223.82185"
     inkscape:cy="115.41412"
     inkscape:document-units="mm"
     inkscape:current-layer="layer1"
     showgrid="false"
     inkscape:window-width="1920"
     inkscape:window-height="1152"
     inkscape:window-x="0"
     inkscape:window-y="20"
     inkscape:window-maximized="1" />
  <metadata
     id="metadata11105">
    <rdf:RDF>
      <cc:Work
         rdf:about="">
        <dc:format>image/svg+xml</dc:format>
        <dc:type
           rdf:resource="http://purl.org/dc/dcmitype/StillImage" />
        <dc:title></dc:title>
      </cc:Work>
    </rdf:RDF>
  </metadata>
  <g
     inkscape:label="Layer 1"
     inkscape:groupmode="layer"
     id="layer1"
     transform="translate(28.726185,14.452391)">
    <g
       id="g1851"
       transform="matrix(1,0,0,-1,0,169.75508)">
      <path
         sodipodi:nodetypes="ccccccscc"
         inkscape:connector-curvature="0"
         id="path11670"
         d="M 1.593326,-0.37724401 19.133805,43.333862 C 47.267383,33.066484 69.692849,21.500466 86.208191,21.205512 116.1748,17.947693 129.43348,38.434649 131.16485,64.849328 c 0.75877,15.269613 -0.34272,32.786226 -6.67192,56.522482 l 13.87339,6.1809 C 145.09429,102.32096 152.69807,76.833525 151.7489,57.732434 150.79976,38.631351 145.25118,21.923192 133.23743,10.310078 96.506414,-20.910086 40.569665,-14.026782 1.593326,-0.37724401 Z"
         style="color:#000000;font-style:normal;font-variant:normal;font-weight:normal;font-stretch:normal;font-size:medium;line-height:normal;font-family:sans-serif;font-variant-ligatures:normal;font-variant-position:normal;font-variant-caps:normal;font-variant-numeric:normal;font-variant-alternates:normal;font-feature-settings:normal;text-indent:0;text-align:start;text-decoration:none;text-decoration-line:none;text-decoration-style:solid;text-decoration-color:#000000;letter-spacing:normal;word-spacing:normal;text-transform:none;writing-mode:lr-tb;direction:ltr;text-orientation:mixed;dominant-baseline:auto;baseline-shift:baseline;text-anchor:start;white-space:normal;shape-padding:0;clip-rule:nonzero;display:inline;overflow:visible;visibility:visible;opacity:1;isolation:auto;mix-blend-mode:normal;color-interpolation:sRGB;color-interpolation-filters:linearRGB;solid-color:#000000;solid-opacity:1;vector-effect:none;fill:#6aa3ae;fill-opacity:1;fill-rule:nonzero;stroke:none;stroke-width:23.99866295;stroke-linecap:butt;stroke-linejoin:miter;stroke-miterlimit:4;stroke-dasharray:none;stroke-dashoffset:0;stroke-opacity:1;color-rendering:auto;image-rendering:auto;shape-rendering:auto;text-rendering:auto;enable-background:accumulate" />
      <path
         inkscape:transform-center-x="-7.6401029"
         transform="matrix(-2.3376658,-0.76920531,0.76920531,-2.3376658,-36.465707,-285.30678)"
         inkscape:transform-center-y="4.9928703"
         d="m -99.610986,-131.51638 -34.407104,0 17.20355,-29.79742 z"
         inkscape:randomized="0"
         inkscape:rounded="0"
         inkscape:flatsided="true"
         sodipodi:arg2="1.5707963"
         sodipodi:arg1="0.52359878"
         sodipodi:r2="9.932476"
         sodipodi:r1="19.86495"
         sodipodi:cy="-141.44885"
         sodipodi:cx="-116.81454"
         sodipodi:sides="3"
         id="path11674"
         style="opacity:1;fill:#6aa3ae;fill-opacity:1;stroke:none;stroke-width:15;stroke-miterlimit:4;stroke-dasharray:none;stroke-opacity:1"
         sodipodi:type="star" />
    </g>
    <rect
       style="fill:#6aa3ae;fill-opacity:1;stroke-width:0.26458332"
       id="rect4574"
       width="215.59761"
       height="19.734335"
       x="-17.378942"
       y="197.19836" />
  </g>
</svg>
