<?xml version="1.0" encoding="UTF-8" standalone="no"?>
<svg
   xmlns:dc="http://purl.org/dc/elements/1.1/"
   xmlns:cc="http://creativecommons.org/ns#"
   xmlns:rdf="http://www.w3.org/1999/02/22-rdf-syntax-ns#"
   xmlns:svg="http://www.w3.org/2000/svg"
   xmlns="http://www.w3.org/2000/svg"
   xmlns:sodipodi="http://sodipodi.sourceforge.net/DTD/sodipodi-0.dtd"
   xmlns:inkscape="http://www.inkscape.org/namespaces/inkscape"
   version="1.1"
   width="32"
   height="32"
   data-icon="people"
   data-container-transform="translate(0 8)"
   viewBox="0 0 32 32"
   id="svg2"
   inkscape:version="0.91 r13725"
   sodipodi:docname="list-view.svg"
   inkscape:export-filename="architecture.png"
   inkscape:export-xdpi="56.25"
   inkscape:export-ydpi="56.25">
  <metadata
     id="metadata10">
    <rdf:RDF>
      <cc:Work
         rdf:about="">
        <dc:format>image/svg+xml</dc:format>
        <dc:type
           rdf:resource="http://purl.org/dc/dcmitype/StillImage" />
        <dc:title></dc:title>
      </cc:Work>
    </rdf:RDF>
  </metadata>
  <defs
     id="defs8" />
  <sodipodi:namedview
     pagecolor="#ffffff"
     bordercolor="#666666"
     borderopacity="1"
     objecttolerance="10"
     gridtolerance="10"
     guidetolerance="10"
     inkscape:pageopacity="0"
     inkscape:pageshadow="2"
     inkscape:window-width="1920"
     inkscape:window-height="1058"
     id="namedview6"
     showgrid="false"
     inkscape:zoom="1"
     inkscape:cx="-31.16305"
     inkscape:cy="-13.234153"
     inkscape:window-x="-8"
     inkscape:window-y="-8"
     inkscape:window-maximized="1"
     inkscape:current-layer="svg2" />
  <rect
     style="fill:#6aa3ae;fill-opacity:1;stroke:none;stroke-linejoin:miter;stroke-opacity:0.58139535"
     id="rect4159"
     width="23.5"
     height="4.4993176"
     x="4.125"
     y="5.8226852"
     ry="1.8152661" />
  <rect
     ry="1.8152661"
     y="21.677998"
     x="4.125"
     height="4.4993176"
     width="23.5"
     id="rect4161"
     style="fill:#6aa3ae;fill-opacity:1;stroke:none;stroke-linejoin:miter;stroke-opacity:0.58139535" />
  <rect
     style="fill:#6aa3ae;fill-opacity:1;stroke:none;stroke-linejoin:miter;stroke-opacity:0.58139535"
     id="rect4163"
     width="23.5"
     height="4.4993176"
     x="4.125"
     y="13.750342"
     ry="1.8152661" />
</svg>
