<?xml version="1.0" encoding="UTF-8" standalone="no"?>
<svg
   xmlns:sketch="http://www.bohemiancoding.com/sketch/ns"
   xmlns:dc="http://purl.org/dc/elements/1.1/"
   xmlns:cc="http://creativecommons.org/ns#"
   xmlns:rdf="http://www.w3.org/1999/02/22-rdf-syntax-ns#"
   xmlns:svg="http://www.w3.org/2000/svg"
   xmlns="http://www.w3.org/2000/svg"
   xmlns:xlink="http://www.w3.org/1999/xlink"
   xmlns:sodipodi="http://sodipodi.sourceforge.net/DTD/sodipodi-0.dtd"
   xmlns:inkscape="http://www.inkscape.org/namespaces/inkscape"
   width="23.466667"
   height="23.466667"
   viewBox="0 0 22 22"
   version="1.1"
   id="svg2"
   inkscape:version="0.91 r13725"
   sodipodi:docname="maven-package.svg"
   inkscape:export-filename="Z:\projects\occam\Large-Icons\group_large.png"
   inkscape:export-xdpi="392.72726"
   inkscape:export-ydpi="392.72726">
  <metadata
     id="metadata14">
    <rdf:RDF>
      <cc:Work
         rdf:about="">
        <dc:format>image/svg+xml</dc:format>
        <dc:type
           rdf:resource="http://purl.org/dc/dcmitype/StillImage" />
        <dc:title>album_collection</dc:title>
      </cc:Work>
    </rdf:RDF>
  </metadata>
  <sodipodi:namedview
     pagecolor="#ffffff"
     bordercolor="#666666"
     borderopacity="1"
     objecttolerance="10"
     gridtolerance="10"
     guidetolerance="10"
     inkscape:pageopacity="0"
     inkscape:pageshadow="2"
     inkscape:window-width="1920"
     inkscape:window-height="1057"
     id="namedview12"
     showgrid="false"
     inkscape:zoom="23.613637"
     inkscape:cx="8.0101621"
     inkscape:cy="12.960419"
     inkscape:window-x="-8"
     inkscape:window-y="1072"
     inkscape:window-maximized="1"
     inkscape:current-layer="Page-1" />
  <title
     id="title4">album_collection</title>
  <description
     id="description6">Created with Sketch (http://www.bohemiancoding.com/sketch)</description>
  <defs
     id="defs8">
    <linearGradient
       x1="-7708.7969"
       y1="-803.36011"
       x2="-7633.1528"
       y2="-714.90741"
       id="linearGradient5344"
       xlink:href="#SVGID_1_"
       gradientUnits="userSpaceOnUse"
       gradientTransform="matrix(0.02440371,-0.03708532,0.03708532,0.02440371,585.79893,-67.103619)" />
    <linearGradient
       x1="-7708.7969"
       y1="-803.36011"
       x2="-7633.1528"
       y2="-714.90741"
       id="SVGID_1_"
       gradientUnits="userSpaceOnUse"
       gradientTransform="matrix(0.4226,-0.9063,0.9063,0.4226,4226.9761,-6584.5938)">
      <stop
         id="stop4704"
         style="stop-color:#f69923;stop-opacity:1"
         offset="0" />
      <stop
         id="stop4706"
         style="stop-color:#f79a23;stop-opacity:1"
         offset="0.3123" />
      <stop
         id="stop4708"
         style="stop-color:#e97826;stop-opacity:1"
         offset="0.83829999" />
    </linearGradient>
    <linearGradient
       x1="-8268.6387"
       y1="-813.12323"
       x2="-7728.9585"
       y2="-813.12323"
       id="linearGradient5346"
       xlink:href="#SVGID_2_"
       gradientUnits="userSpaceOnUse"
       gradientTransform="matrix(0.02440371,-0.03708532,0.03708532,0.02440371,585.79893,-67.103619)" />
    <linearGradient
       x1="-8268.6387"
       y1="-813.12323"
       x2="-7728.9585"
       y2="-813.12323"
       id="SVGID_2_"
       gradientUnits="userSpaceOnUse"
       gradientTransform="matrix(0.4226,-0.9063,0.9063,0.4226,4226.9761,-6584.5938)">
      <stop
         id="stop4729"
         style="stop-color:#9e2064;stop-opacity:1"
         offset="0.3233" />
      <stop
         id="stop4731"
         style="stop-color:#c92037;stop-opacity:1"
         offset="0.63020003" />
      <stop
         id="stop4733"
         style="stop-color:#cd2335;stop-opacity:1"
         offset="0.75139999" />
      <stop
         id="stop4735"
         style="stop-color:#e97826;stop-opacity:1"
         offset="1" />
    </linearGradient>
    <linearGradient
       x1="-8203.4922"
       y1="-758.99402"
       x2="-7881.895"
       y2="-758.99402"
       id="linearGradient5348"
       xlink:href="#SVGID_3_"
       gradientUnits="userSpaceOnUse"
       gradientTransform="matrix(0.02440371,-0.03708532,0.03708532,0.02440371,585.79893,-67.103619)" />
    <linearGradient
       x1="-8203.4922"
       y1="-758.99402"
       x2="-7881.895"
       y2="-758.99402"
       id="SVGID_3_"
       gradientUnits="userSpaceOnUse"
       gradientTransform="matrix(0.4226,-0.9063,0.9063,0.4226,4226.9761,-6584.5938)">
      <stop
         id="stop4740"
         style="stop-color:#282662;stop-opacity:1"
         offset="0" />
      <stop
         id="stop4742"
         style="stop-color:#662e8d;stop-opacity:1"
         offset="0.0954839" />
      <stop
         id="stop4744"
         style="stop-color:#9f2064;stop-opacity:1"
         offset="0.78820002" />
      <stop
         id="stop4746"
         style="stop-color:#cd2032;stop-opacity:1"
         offset="0.94870001" />
    </linearGradient>
    <linearGradient
       x1="-8238.3281"
       y1="-818.15222"
       x2="-7698.647"
       y2="-818.15222"
       id="linearGradient5350"
       xlink:href="#SVGID_4_"
       gradientUnits="userSpaceOnUse"
       gradientTransform="matrix(0.02440371,-0.03708532,0.03708532,0.02440371,585.79893,-67.103619)" />
    <linearGradient
       x1="-8238.3281"
       y1="-818.15222"
       x2="-7698.647"
       y2="-818.15222"
       id="SVGID_4_"
       gradientUnits="userSpaceOnUse"
       gradientTransform="matrix(0.4226,-0.9063,0.9063,0.4226,4226.9761,-6584.5938)">
      <stop
         id="stop4751"
         style="stop-color:#9e2064;stop-opacity:1"
         offset="0.3233" />
      <stop
         id="stop4753"
         style="stop-color:#c92037;stop-opacity:1"
         offset="0.63020003" />
      <stop
         id="stop4755"
         style="stop-color:#cd2335;stop-opacity:1"
         offset="0.75139999" />
      <stop
         id="stop4757"
         style="stop-color:#e97826;stop-opacity:1"
         offset="1" />
    </linearGradient>
    <linearGradient
       x1="-8198.9678"
       y1="-810.85059"
       x2="-7915.3501"
       y2="-810.85059"
       id="linearGradient5352"
       xlink:href="#SVGID_5_"
       gradientUnits="userSpaceOnUse"
       gradientTransform="matrix(0.02440371,-0.03708532,0.03708532,0.02440371,585.79893,-67.103619)" />
    <linearGradient
       x1="-8198.9678"
       y1="-810.85059"
       x2="-7915.3501"
       y2="-810.85059"
       id="SVGID_5_"
       gradientUnits="userSpaceOnUse"
       gradientTransform="matrix(0.4226,-0.9063,0.9063,0.4226,4226.9761,-6584.5938)">
      <stop
         id="stop4762"
         style="stop-color:#282662;stop-opacity:1"
         offset="0" />
      <stop
         id="stop4764"
         style="stop-color:#662e8d;stop-opacity:1"
         offset="0.0954839" />
      <stop
         id="stop4766"
         style="stop-color:#9f2064;stop-opacity:1"
         offset="0.78820002" />
      <stop
         id="stop4768"
         style="stop-color:#cd2032;stop-opacity:1"
         offset="0.94870001" />
    </linearGradient>
    <linearGradient
       x1="-8238.3281"
       y1="-762.29712"
       x2="-7698.647"
       y2="-762.29712"
       id="linearGradient5354"
       xlink:href="#SVGID_6_"
       gradientUnits="userSpaceOnUse"
       gradientTransform="matrix(0.02440371,-0.03708532,0.03708532,0.02440371,585.79893,-67.103619)" />
    <linearGradient
       x1="-8238.3281"
       y1="-762.29712"
       x2="-7698.647"
       y2="-762.29712"
       id="SVGID_6_"
       gradientUnits="userSpaceOnUse"
       gradientTransform="matrix(0.4226,-0.9063,0.9063,0.4226,4226.9761,-6584.5938)">
      <stop
         id="stop4773"
         style="stop-color:#9e2064;stop-opacity:1"
         offset="0.3233" />
      <stop
         id="stop4775"
         style="stop-color:#c92037;stop-opacity:1"
         offset="0.63020003" />
      <stop
         id="stop4777"
         style="stop-color:#cd2335;stop-opacity:1"
         offset="0.75139999" />
      <stop
         id="stop4779"
         style="stop-color:#e97826;stop-opacity:1"
         offset="1" />
    </linearGradient>
    <linearGradient
       x1="-8271.8057"
       y1="-765.07068"
       x2="-7732.125"
       y2="-765.07068"
       id="linearGradient5356"
       xlink:href="#SVGID_7_"
       gradientUnits="userSpaceOnUse"
       gradientTransform="matrix(0.02440371,-0.03708532,0.03708532,0.02440371,585.79893,-67.103619)" />
    <linearGradient
       x1="-8271.8057"
       y1="-765.07068"
       x2="-7732.125"
       y2="-765.07068"
       id="SVGID_7_"
       gradientUnits="userSpaceOnUse"
       gradientTransform="matrix(0.4226,-0.9063,0.9063,0.4226,4226.9761,-6584.5938)">
      <stop
         id="stop4784"
         style="stop-color:#9e2064;stop-opacity:1"
         offset="0.3233" />
      <stop
         id="stop4786"
         style="stop-color:#c92037;stop-opacity:1"
         offset="0.63020003" />
      <stop
         id="stop4788"
         style="stop-color:#cd2335;stop-opacity:1"
         offset="0.75139999" />
      <stop
         id="stop4790"
         style="stop-color:#e97826;stop-opacity:1"
         offset="1" />
    </linearGradient>
    <linearGradient
       x1="-8238.3281"
       y1="-745.68481"
       x2="-7698.647"
       y2="-745.68481"
       id="linearGradient5358"
       xlink:href="#SVGID_8_"
       gradientUnits="userSpaceOnUse"
       gradientTransform="matrix(0.02440371,-0.03708532,0.03708532,0.02440371,585.79893,-67.103619)" />
    <linearGradient
       x1="-8238.3281"
       y1="-745.68481"
       x2="-7698.647"
       y2="-745.68481"
       id="SVGID_8_"
       gradientUnits="userSpaceOnUse"
       gradientTransform="matrix(0.4226,-0.9063,0.9063,0.4226,4226.9761,-6584.5938)">
      <stop
         id="stop4799"
         style="stop-color:#9e2064;stop-opacity:1"
         offset="0.3233" />
      <stop
         id="stop4801"
         style="stop-color:#c92037;stop-opacity:1"
         offset="0.63020003" />
      <stop
         id="stop4803"
         style="stop-color:#cd2335;stop-opacity:1"
         offset="0.75139999" />
      <stop
         id="stop4805"
         style="stop-color:#e97826;stop-opacity:1"
         offset="1" />
    </linearGradient>
    <linearGradient
       x1="-8238.3281"
       y1="-747.58557"
       x2="-7698.647"
       y2="-747.58557"
       id="linearGradient5360"
       xlink:href="#SVGID_9_"
       gradientUnits="userSpaceOnUse"
       gradientTransform="matrix(0.02440371,-0.03708532,0.03708532,0.02440371,585.79893,-67.103619)" />
    <linearGradient
       x1="-8238.3281"
       y1="-747.58557"
       x2="-7698.647"
       y2="-747.58557"
       id="SVGID_9_"
       gradientUnits="userSpaceOnUse"
       gradientTransform="matrix(0.4226,-0.9063,0.9063,0.4226,4226.9761,-6584.5938)">
      <stop
         id="stop4814"
         style="stop-color:#9e2064;stop-opacity:1"
         offset="0.3233" />
      <stop
         id="stop4816"
         style="stop-color:#c92037;stop-opacity:1"
         offset="0.63020003" />
      <stop
         id="stop4818"
         style="stop-color:#cd2335;stop-opacity:1"
         offset="0.75139999" />
      <stop
         id="stop4820"
         style="stop-color:#e97826;stop-opacity:1"
         offset="1" />
    </linearGradient>
    <linearGradient
       x1="-7935.1431"
       y1="-747.9668"
       x2="-7815.856"
       y2="-747.9668"
       id="linearGradient5362"
       xlink:href="#SVGID_10_"
       gradientUnits="userSpaceOnUse"
       gradientTransform="matrix(0.02440371,-0.03708532,0.03708532,0.02440371,585.79893,-67.103619)" />
    <linearGradient
       x1="-7935.1431"
       y1="-747.9668"
       x2="-7815.856"
       y2="-747.9668"
       id="SVGID_10_"
       gradientUnits="userSpaceOnUse"
       gradientTransform="matrix(0.4226,-0.9063,0.9063,0.4226,4226.9761,-6584.5938)">
      <stop
         id="stop4829"
         style="stop-color:#9e2064;stop-opacity:1"
         offset="0.3233" />
      <stop
         id="stop4831"
         style="stop-color:#c92037;stop-opacity:1"
         offset="0.63020003" />
      <stop
         id="stop4833"
         style="stop-color:#cd2335;stop-opacity:1"
         offset="0.75139999" />
      <stop
         id="stop4835"
         style="stop-color:#e97826;stop-opacity:1"
         offset="1" />
    </linearGradient>
    <linearGradient
       gradientTransform="matrix(0.4226,-0.9063,0.9063,0.4226,4226.9761,-6584.5938)"
       gradientUnits="userSpaceOnUse"
       id="linearGradient4582"
       y2="-714.90741"
       x2="-7633.1528"
       y1="-803.36011"
       x1="-7708.7969">
      <stop
         offset="0"
         style="stop-color:#f69923;stop-opacity:1"
         id="stop4584" />
      <stop
         offset="0.3123"
         style="stop-color:#f79a23;stop-opacity:1"
         id="stop4586" />
      <stop
         offset="0.83829999"
         style="stop-color:#e97826;stop-opacity:1"
         id="stop4588" />
    </linearGradient>
    <linearGradient
       gradientTransform="matrix(0.4226,-0.9063,0.9063,0.4226,4226.9761,-6584.5938)"
       gradientUnits="userSpaceOnUse"
       id="linearGradient4599"
       y2="-813.12323"
       x2="-7728.9585"
       y1="-813.12323"
       x1="-8268.6387">
      <stop
         offset="0.3233"
         style="stop-color:#9e2064;stop-opacity:1"
         id="stop4601" />
      <stop
         offset="0.63020003"
         style="stop-color:#c92037;stop-opacity:1"
         id="stop4603" />
      <stop
         offset="0.75139999"
         style="stop-color:#cd2335;stop-opacity:1"
         id="stop4605" />
      <stop
         offset="1"
         style="stop-color:#e97826;stop-opacity:1"
         id="stop4607" />
    </linearGradient>
    <linearGradient
       gradientTransform="matrix(0.4226,-0.9063,0.9063,0.4226,4226.9761,-6584.5938)"
       gradientUnits="userSpaceOnUse"
       id="linearGradient4610"
       y2="-758.99402"
       x2="-7881.895"
       y1="-758.99402"
       x1="-8203.4922">
      <stop
         offset="0"
         style="stop-color:#282662;stop-opacity:1"
         id="stop4612" />
      <stop
         offset="0.0954839"
         style="stop-color:#662e8d;stop-opacity:1"
         id="stop4614" />
      <stop
         offset="0.78820002"
         style="stop-color:#9f2064;stop-opacity:1"
         id="stop4616" />
      <stop
         offset="0.94870001"
         style="stop-color:#cd2032;stop-opacity:1"
         id="stop4618" />
    </linearGradient>
    <linearGradient
       gradientTransform="matrix(0.4226,-0.9063,0.9063,0.4226,4226.9761,-6584.5938)"
       gradientUnits="userSpaceOnUse"
       id="linearGradient4621"
       y2="-818.15222"
       x2="-7698.647"
       y1="-818.15222"
       x1="-8238.3281">
      <stop
         offset="0.3233"
         style="stop-color:#9e2064;stop-opacity:1"
         id="stop4623" />
      <stop
         offset="0.63020003"
         style="stop-color:#c92037;stop-opacity:1"
         id="stop4625" />
      <stop
         offset="0.75139999"
         style="stop-color:#cd2335;stop-opacity:1"
         id="stop4627" />
      <stop
         offset="1"
         style="stop-color:#e97826;stop-opacity:1"
         id="stop4629" />
    </linearGradient>
    <linearGradient
       gradientTransform="matrix(0.4226,-0.9063,0.9063,0.4226,4226.9761,-6584.5938)"
       gradientUnits="userSpaceOnUse"
       id="linearGradient4632"
       y2="-810.85059"
       x2="-7915.3501"
       y1="-810.85059"
       x1="-8198.9678">
      <stop
         offset="0"
         style="stop-color:#282662;stop-opacity:1"
         id="stop4634" />
      <stop
         offset="0.0954839"
         style="stop-color:#662e8d;stop-opacity:1"
         id="stop4636" />
      <stop
         offset="0.78820002"
         style="stop-color:#9f2064;stop-opacity:1"
         id="stop4638" />
      <stop
         offset="0.94870001"
         style="stop-color:#cd2032;stop-opacity:1"
         id="stop4640" />
    </linearGradient>
    <linearGradient
       gradientTransform="matrix(0.4226,-0.9063,0.9063,0.4226,4226.9761,-6584.5938)"
       gradientUnits="userSpaceOnUse"
       id="linearGradient4643"
       y2="-762.29712"
       x2="-7698.647"
       y1="-762.29712"
       x1="-8238.3281">
      <stop
         offset="0.3233"
         style="stop-color:#9e2064;stop-opacity:1"
         id="stop4645" />
      <stop
         offset="0.63020003"
         style="stop-color:#c92037;stop-opacity:1"
         id="stop4647" />
      <stop
         offset="0.75139999"
         style="stop-color:#cd2335;stop-opacity:1"
         id="stop4649" />
      <stop
         offset="1"
         style="stop-color:#e97826;stop-opacity:1"
         id="stop4651" />
    </linearGradient>
    <linearGradient
       gradientTransform="matrix(0.4226,-0.9063,0.9063,0.4226,4226.9761,-6584.5938)"
       gradientUnits="userSpaceOnUse"
       id="linearGradient4654"
       y2="-765.07068"
       x2="-7732.125"
       y1="-765.07068"
       x1="-8271.8057">
      <stop
         offset="0.3233"
         style="stop-color:#9e2064;stop-opacity:1"
         id="stop4656" />
      <stop
         offset="0.63020003"
         style="stop-color:#c92037;stop-opacity:1"
         id="stop4658" />
      <stop
         offset="0.75139999"
         style="stop-color:#cd2335;stop-opacity:1"
         id="stop4660" />
      <stop
         offset="1"
         style="stop-color:#e97826;stop-opacity:1"
         id="stop4662" />
    </linearGradient>
    <linearGradient
       gradientTransform="matrix(0.4226,-0.9063,0.9063,0.4226,4226.9761,-6584.5938)"
       gradientUnits="userSpaceOnUse"
       id="linearGradient4667"
       y2="-745.68481"
       x2="-7698.647"
       y1="-745.68481"
       x1="-8238.3281">
      <stop
         offset="0.3233"
         style="stop-color:#9e2064;stop-opacity:1"
         id="stop4669" />
      <stop
         offset="0.63020003"
         style="stop-color:#c92037;stop-opacity:1"
         id="stop4671" />
      <stop
         offset="0.75139999"
         style="stop-color:#cd2335;stop-opacity:1"
         id="stop4673" />
      <stop
         offset="1"
         style="stop-color:#e97826;stop-opacity:1"
         id="stop4675" />
    </linearGradient>
    <linearGradient
       gradientTransform="matrix(0.4226,-0.9063,0.9063,0.4226,4226.9761,-6584.5938)"
       gradientUnits="userSpaceOnUse"
       id="linearGradient4680"
       y2="-747.58557"
       x2="-7698.647"
       y1="-747.58557"
       x1="-8238.3281">
      <stop
         offset="0.3233"
         style="stop-color:#9e2064;stop-opacity:1"
         id="stop4682" />
      <stop
         offset="0.63020003"
         style="stop-color:#c92037;stop-opacity:1"
         id="stop4684" />
      <stop
         offset="0.75139999"
         style="stop-color:#cd2335;stop-opacity:1"
         id="stop4686" />
      <stop
         offset="1"
         style="stop-color:#e97826;stop-opacity:1"
         id="stop4688" />
    </linearGradient>
    <linearGradient
       gradientTransform="matrix(0.4226,-0.9063,0.9063,0.4226,4226.9761,-6584.5938)"
       gradientUnits="userSpaceOnUse"
       id="linearGradient4693"
       y2="-747.9668"
       x2="-7815.856"
       y1="-747.9668"
       x1="-7935.1431">
      <stop
         offset="0.3233"
         style="stop-color:#9e2064;stop-opacity:1"
         id="stop4695" />
      <stop
         offset="0.63020003"
         style="stop-color:#c92037;stop-opacity:1"
         id="stop4697" />
      <stop
         offset="0.75139999"
         style="stop-color:#cd2335;stop-opacity:1"
         id="stop4699" />
      <stop
         offset="1"
         style="stop-color:#e97826;stop-opacity:1"
         id="stop4701" />
    </linearGradient>
    <linearGradient
       gradientTransform="matrix(0.4226,-0.9063,0.9063,0.4226,4226.9761,-6584.5938)"
       gradientUnits="userSpaceOnUse"
       id="linearGradient7250"
       y2="-714.90741"
       x2="-7633.1528"
       y1="-803.36011"
       x1="-7708.7969">
      <stop
         offset="0"
         style="stop-color:#f69923;stop-opacity:1"
         id="stop7252" />
      <stop
         offset="0.3123"
         style="stop-color:#f79a23;stop-opacity:1"
         id="stop7254" />
      <stop
         offset="0.83829999"
         style="stop-color:#e97826;stop-opacity:1"
         id="stop7256" />
    </linearGradient>
    <linearGradient
       gradientTransform="matrix(0.4226,-0.9063,0.9063,0.4226,4226.9761,-6584.5938)"
       gradientUnits="userSpaceOnUse"
       id="linearGradient7276"
       y2="-813.12323"
       x2="-7728.9585"
       y1="-813.12323"
       x1="-8268.6387">
      <stop
         offset="0.3233"
         style="stop-color:#9e2064;stop-opacity:1"
         id="stop7278" />
      <stop
         offset="0.63020003"
         style="stop-color:#c92037;stop-opacity:1"
         id="stop7280" />
      <stop
         offset="0.75139999"
         style="stop-color:#cd2335;stop-opacity:1"
         id="stop7282" />
      <stop
         offset="1"
         style="stop-color:#e97826;stop-opacity:1"
         id="stop7284" />
    </linearGradient>
    <linearGradient
       gradientTransform="matrix(0.4226,-0.9063,0.9063,0.4226,4226.9761,-6584.5938)"
       gradientUnits="userSpaceOnUse"
       id="linearGradient7288"
       y2="-758.99402"
       x2="-7881.895"
       y1="-758.99402"
       x1="-8203.4922">
      <stop
         offset="0"
         style="stop-color:#282662;stop-opacity:1"
         id="stop7290" />
      <stop
         offset="0.0954839"
         style="stop-color:#662e8d;stop-opacity:1"
         id="stop7292" />
      <stop
         offset="0.78820002"
         style="stop-color:#9f2064;stop-opacity:1"
         id="stop7294" />
      <stop
         offset="0.94870001"
         style="stop-color:#cd2032;stop-opacity:1"
         id="stop7296" />
    </linearGradient>
    <linearGradient
       gradientTransform="matrix(0.4226,-0.9063,0.9063,0.4226,4226.9761,-6584.5938)"
       gradientUnits="userSpaceOnUse"
       id="linearGradient7300"
       y2="-818.15222"
       x2="-7698.647"
       y1="-818.15222"
       x1="-8238.3281">
      <stop
         offset="0.3233"
         style="stop-color:#9e2064;stop-opacity:1"
         id="stop7302" />
      <stop
         offset="0.63020003"
         style="stop-color:#c92037;stop-opacity:1"
         id="stop7304" />
      <stop
         offset="0.75139999"
         style="stop-color:#cd2335;stop-opacity:1"
         id="stop7306" />
      <stop
         offset="1"
         style="stop-color:#e97826;stop-opacity:1"
         id="stop7308" />
    </linearGradient>
    <linearGradient
       gradientTransform="matrix(0.4226,-0.9063,0.9063,0.4226,4226.9761,-6584.5938)"
       gradientUnits="userSpaceOnUse"
       id="linearGradient7312"
       y2="-810.85059"
       x2="-7915.3501"
       y1="-810.85059"
       x1="-8198.9678">
      <stop
         offset="0"
         style="stop-color:#282662;stop-opacity:1"
         id="stop7314" />
      <stop
         offset="0.0954839"
         style="stop-color:#662e8d;stop-opacity:1"
         id="stop7316" />
      <stop
         offset="0.78820002"
         style="stop-color:#9f2064;stop-opacity:1"
         id="stop7318" />
      <stop
         offset="0.94870001"
         style="stop-color:#cd2032;stop-opacity:1"
         id="stop7320" />
    </linearGradient>
    <linearGradient
       gradientTransform="matrix(0.4226,-0.9063,0.9063,0.4226,4226.9761,-6584.5938)"
       gradientUnits="userSpaceOnUse"
       id="linearGradient7324"
       y2="-762.29712"
       x2="-7698.647"
       y1="-762.29712"
       x1="-8238.3281">
      <stop
         offset="0.3233"
         style="stop-color:#9e2064;stop-opacity:1"
         id="stop7326" />
      <stop
         offset="0.63020003"
         style="stop-color:#c92037;stop-opacity:1"
         id="stop7328" />
      <stop
         offset="0.75139999"
         style="stop-color:#cd2335;stop-opacity:1"
         id="stop7330" />
      <stop
         offset="1"
         style="stop-color:#e97826;stop-opacity:1"
         id="stop7332" />
    </linearGradient>
    <linearGradient
       gradientTransform="matrix(0.4226,-0.9063,0.9063,0.4226,4226.9761,-6584.5938)"
       gradientUnits="userSpaceOnUse"
       id="linearGradient7336"
       y2="-765.07068"
       x2="-7732.125"
       y1="-765.07068"
       x1="-8271.8057">
      <stop
         offset="0.3233"
         style="stop-color:#9e2064;stop-opacity:1"
         id="stop7338" />
      <stop
         offset="0.63020003"
         style="stop-color:#c92037;stop-opacity:1"
         id="stop7340" />
      <stop
         offset="0.75139999"
         style="stop-color:#cd2335;stop-opacity:1"
         id="stop7342" />
      <stop
         offset="1"
         style="stop-color:#e97826;stop-opacity:1"
         id="stop7344" />
    </linearGradient>
    <linearGradient
       gradientTransform="matrix(0.4226,-0.9063,0.9063,0.4226,4226.9761,-6584.5938)"
       gradientUnits="userSpaceOnUse"
       id="linearGradient7352"
       y2="-745.68481"
       x2="-7698.647"
       y1="-745.68481"
       x1="-8238.3281">
      <stop
         offset="0.3233"
         style="stop-color:#9e2064;stop-opacity:1"
         id="stop7354" />
      <stop
         offset="0.63020003"
         style="stop-color:#c92037;stop-opacity:1"
         id="stop7356" />
      <stop
         offset="0.75139999"
         style="stop-color:#cd2335;stop-opacity:1"
         id="stop7358" />
      <stop
         offset="1"
         style="stop-color:#e97826;stop-opacity:1"
         id="stop7360" />
    </linearGradient>
    <linearGradient
       gradientTransform="matrix(0.4226,-0.9063,0.9063,0.4226,4226.9761,-6584.5938)"
       gradientUnits="userSpaceOnUse"
       id="linearGradient7368"
       y2="-747.58557"
       x2="-7698.647"
       y1="-747.58557"
       x1="-8238.3281">
      <stop
         offset="0.3233"
         style="stop-color:#9e2064;stop-opacity:1"
         id="stop7370" />
      <stop
         offset="0.63020003"
         style="stop-color:#c92037;stop-opacity:1"
         id="stop7372" />
      <stop
         offset="0.75139999"
         style="stop-color:#cd2335;stop-opacity:1"
         id="stop7374" />
      <stop
         offset="1"
         style="stop-color:#e97826;stop-opacity:1"
         id="stop7376" />
    </linearGradient>
    <linearGradient
       gradientTransform="matrix(0.4226,-0.9063,0.9063,0.4226,4226.9761,-6584.5938)"
       gradientUnits="userSpaceOnUse"
       id="linearGradient7384"
       y2="-747.9668"
       x2="-7815.856"
       y1="-747.9668"
       x1="-7935.1431">
      <stop
         offset="0.3233"
         style="stop-color:#9e2064;stop-opacity:1"
         id="stop7386" />
      <stop
         offset="0.63020003"
         style="stop-color:#c92037;stop-opacity:1"
         id="stop7388" />
      <stop
         offset="0.75139999"
         style="stop-color:#cd2335;stop-opacity:1"
         id="stop7390" />
      <stop
         offset="1"
         style="stop-color:#e97826;stop-opacity:1"
         id="stop7392" />
    </linearGradient>
  </defs>
  <g
     id="g6299"
     transform="translate(179.67237,-70.223625)">
    <g
       transform="matrix(0.93749998,0,0,0.93749998,-507.21564,-113.6814)"
       style="fill:none;fill-rule:evenodd;stroke:none;stroke-width:1"
       id="Page-1"
       sketch:type="MSPage">
      <path
         style="fill:#2da0b7;fill-opacity:1"
         d="m 354.08159,197.03309 c -0.28227,-0.0117 -0.60137,0.065 -0.74914,0.41389 -0.14353,0.33877 -0.25554,1.07451 -0.30714,2.06013 l 1.10123,0.53563 0.006,0.002 c -0.0183,-0.70554 0.008,-1.3691 0.0787,-1.9721 -0.0223,0.1985 -0.0685,0.82131 -0.004,1.94589 0.0172,0.30956 0.0436,0.65813 0.0787,1.04317 0.002,0.0219 0.003,0.0403 0.007,0.0599 0.0319,0.33607 0.0731,0.69798 0.12548,1.09374 0.0447,0.34071 0.094,0.70092 0.15545,1.08999 0.0504,0.33386 0.11077,0.68224 0.17417,1.05254 l -0.007,0.007 c 0.012,0.01 0.0139,0.0172 0.0131,0.0225 l -0.002,0 c 0.009,0.0498 0.0196,0.0944 0.0281,0.14421 0.0286,0.1471 0.0535,0.29561 0.0843,0.44574 0.0315,0.16368 0.0646,0.33181 0.0974,0.50379 0.0164,0.086 0.0337,0.1713 0.0524,0.26033 0.0537,0.26403 0.11083,0.53441 0.17043,0.81281 0.074,0.34253 0.15506,0.69404 0.2416,1.06003 0.0815,0.34637 0.16852,0.70633 0.26032,1.07314 0.089,0.3502 0.17976,0.70997 0.27906,1.08062 0.087,0.32836 0.18027,0.66558 0.2753,1.01134 0.003,0.0166 0.0121,0.0339 0.015,0.0506 0.0958,0.3405 0.19383,0.69276 0.29778,1.05066 9.6e-4,0.009 0.003,0.0164 0.007,0.0225 0.016,0.0536 0.0308,0.10371 0.0468,0.15732 0.0814,0.27636 0.16435,0.5599 0.25471,0.8484 0.002,0.003 8.7e-4,0.0104 0.004,0.0131 0.0124,0.0423 0.0221,0.0798 0.0375,0.11986 0.059,0.19483 0.11548,0.36839 0.23785,0.76412 0.23914,-0.0495 0.53861,0.0594 0.85027,0.20414 -0.20001,-0.24071 -0.47823,-0.40282 -0.80907,-0.44012 0.90583,-0.60414 1.50147,-1.38279 1.41774,-2.31108 -0.009,-0.0822 -0.0192,-0.16685 -0.0356,-0.25284 -0.0142,0.35593 -0.16206,0.61441 -0.59556,0.89522 0.40945,-0.7207 0.52224,-1.21079 0.47383,-1.84288 -0.012,-0.14993 -0.0304,-0.30828 -0.0581,-0.47944 -0.13094,0.94112 -0.63547,1.54984 -1.37467,1.9103 -0.0113,0.004 -0.0212,0.011 -0.0356,0.0169 0.53216,-0.50262 0.98949,-1.51031 1.09374,-2.41784 0.0479,-0.41805 0.0425,-0.86306 -0.015,-1.34844 -0.0414,-0.36178 -0.11424,-0.74235 -0.21537,-1.15367 -0.0881,-0.35547 -0.1986,-0.73198 -0.3315,-1.12933 -0.0823,0.16778 -0.19766,0.33331 -0.34085,0.49443 -0.0259,0.0284 -0.0528,0.0559 -0.0787,0.0843 -0.0259,0.0284 -0.0534,0.0538 -0.0824,0.0843 0.3925,-0.61021 0.43855,-1.26566 0.32213,-1.94588 -0.0713,0.20176 -0.21148,0.50114 -0.44386,0.76974 -0.0297,0.0359 -0.0643,0.0699 -0.0993,0.10488 -0.009,0.007 -0.016,0.0173 -0.0281,0.0262 0.13022,-0.21696 0.22678,-0.42252 0.28841,-0.63115 0.0148,-0.0435 0.0242,-0.0887 0.0337,-0.13297 0.0157,-0.0676 0.027,-0.13575 0.0375,-0.20414 0.004,-0.0452 0.009,-0.0878 0.0131,-0.13298 0.008,-0.1038 0.009,-0.21099 -0.002,-0.32025 -0.003,-0.0354 -0.002,-0.068 -0.007,-0.10113 -0.009,-0.0498 -0.0149,-0.096 -0.0244,-0.14047 -0.0355,-0.20738 -0.0756,-0.38799 -0.11612,-0.54499 -0.0202,-0.0785 -0.0384,-0.15043 -0.0581,-0.21538 -0.01,-0.0257 -0.0149,-0.0492 -0.0243,-0.0749 -0.0241,-0.071 -0.0424,-0.13661 -0.0637,-0.19103 -0.0308,-0.0801 -0.0595,-0.14339 -0.0824,-0.18729 -0.007,0.0286 -0.0165,0.0599 -0.0318,0.0899 -0.0926,0.21735 -0.30929,0.51529 -0.50567,0.72479 -0.003,0.002 -0.005,0.004 -0.006,0.009 -0.0113,0.0111 -0.0251,0.0246 -0.0374,0.0375 0.28805,-0.5256 0.35232,-0.85706 0.34834,-1.26604 -0.002,-0.11068 -0.009,-0.22669 -0.0168,-0.34648 -0.0226,-0.36157 -0.0657,-0.74595 -0.12735,-1.11621 -0.058,-0.35892 -0.12852,-0.70305 -0.20976,-0.99822 -0.0515,-0.19099 -0.10724,-0.36168 -0.16294,-0.50754 -0.0506,-0.12624 -0.10239,-0.24164 -0.15545,-0.3521 -0.2606,0.2683 -0.55556,0.56096 -0.84277,0.83342 0.28758,-0.27321 0.58364,-0.56811 0.84465,-0.83904 -0.55141,-1.1266 -1.23795,-1.3241 -1.23795,-1.3241 0,0 -0.24588,-0.0988 -0.52814,-0.11049 z m 0.045,3.00965 -1.10498,-0.53376 c -0.002,0.0669 -0.008,0.13752 -0.0112,0.20976 -0.011,0.26487 -0.0183,0.54509 -0.0206,0.84091 -0.003,0.33345 0.001,0.68251 0.007,1.04691 0.008,0.33507 0.0211,0.68393 0.0393,1.03943 0.0179,0.30431 0.0372,0.61177 0.0618,0.92518 6.1e-4,0.0135 0.003,0.0221 0.004,0.0356 l 0.004,0.002 c 0.002,0.0214 0.007,0.0459 0.006,0.0693 0.0296,0.33304 0.0598,0.67142 0.0993,1.01133 0.0385,0.34517 0.0817,0.69148 0.13297,1.0413 0.0436,0.29478 0.0897,0.58651 0.13859,0.88211 0.01,0.0581 0.0238,0.11985 0.0337,0.17792 0.0677,0.3658 0.13861,0.71901 0.21725,1.04879 0.0879,0.37429 0.18382,0.72559 0.27905,1.05253 0.0641,0.21446 0.12493,0.42053 0.18916,0.61617 0.0555,0.16469 0.11751,0.3301 0.17605,0.49256 0.14058,0.38236 0.29658,0.75389 0.46446,1.11621 l 0.004,0.002 c 0.005,0.0174 0.009,0.0307 0.0169,0.0468 0.20475,0.43798 0.43031,0.85995 0.68359,1.2623 0.009,0.0122 0.0173,0.029 0.0262,0.0412 -0.41081,-0.16535 -1.13832,-0.087 -1.13307,-0.0862 0.75159,0.26071 1.41023,0.57994 1.82602,1.06377 -0.16524,0.18197 -0.47453,0.31998 -0.86338,0.43263 0.53764,0.0583 0.83801,-0.0365 0.94766,-0.0843 -0.28096,0.23422 -0.43882,0.66293 -0.57684,1.12371 0.31626,-0.5169 0.63095,-0.8599 0.93642,-0.99074 0.44614,1.47933 0.98347,3.08376 1.57881,4.76638 0.10071,-0.12995 0.11148,-0.27304 0.0693,-0.41951 -0.10979,-0.30226 -0.81741,-2.3042 -1.62562,-5.02109 -0.0233,-0.0762 -0.0438,-0.15479 -0.0693,-0.2341 -0.008,-0.0226 -0.0133,-0.0429 -0.0206,-0.0656 -0.0829,-0.28466 -0.16713,-0.57712 -0.25283,-0.87837 -0.0189,-0.0702 -0.0374,-0.13581 -0.0562,-0.20601 l -0.002,-0.002 -0.006,-0.002 c -0.0788,-0.27208 -0.1501,-0.54938 -0.23036,-0.82967 -0.0202,-0.0785 -0.0412,-0.15633 -0.0637,-0.23785 -0.0943,-0.35103 -0.18716,-0.70821 -0.2828,-1.06752 -0.0898,-0.34495 -0.17814,-0.69074 -0.26407,-1.04317 -0.0859,-0.35245 -0.16807,-0.70724 -0.25096,-1.06191 -0.0843,-0.36297 -0.16371,-0.7256 -0.23973,-1.08999 -0.0768,-0.35911 -0.14756,-0.72231 -0.21912,-1.08063 -0.0258,-0.13049 -0.0484,-0.2587 -0.0712,-0.39142 -0.0413,-0.22175 -0.0796,-0.44464 -0.11799,-0.66861 -0.004,-0.0113 -0.004,-0.0261 -0.007,-0.0374 l -0.88023,-0.44948 0.8821,0.4476 c -0.0513,-0.34982 -0.10518,-0.69674 -0.15731,-1.0413 -0.0511,-0.36864 -0.0983,-0.73161 -0.14047,-1.08812 -0.0429,-0.37005 -0.0755,-0.7344 -0.10113,-1.09373 -0.002,-0.0219 -0.004,-0.043 -0.004,-0.0618 -0.0243,-0.35104 -0.0427,-0.69312 -0.0506,-1.02819 z"
         id="path7258"
         inkscape:connector-curvature="0" />
      <path
         style="fill:#2da0b7;fill-opacity:1"
         d="m 368.09044,197.66423 c -0.0888,0.001 -0.18376,0.0191 -0.2828,0.0599 -0.3847,0.15868 -1.05945,0.66156 -1.88408,1.41399 l 0.46447,1.31286 c 0.54584,-0.58251 1.09501,-1.09734 1.63124,-1.52636 -0.17573,0.14201 -0.70905,0.60737 -1.55071,1.56382 -0.23218,0.26281 -0.4865,0.56481 -0.76412,0.90271 -0.0157,0.0192 -0.0316,0.0346 -0.0431,0.0543 -0.24133,0.2959 -0.49558,0.61931 -0.76786,0.9795 -0.23477,0.30976 -0.48013,0.63992 -0.73977,1.00197 -0.22432,0.30821 -0.45216,0.63733 -0.69483,0.98511 l -0.0131,0 c 0.002,0.0174 -0.005,0.0245 -0.009,0.0281 -0.0327,0.0468 -0.0609,0.0899 -0.0936,0.13672 -0.0939,0.14112 -0.1902,0.28168 -0.28468,0.42701 -0.10474,0.15673 -0.21006,0.31865 -0.32025,0.48319 -0.0551,0.0823 -0.11097,0.16448 -0.16668,0.25096 -0.16654,0.25523 -0.33433,0.51888 -0.50754,0.79034 -0.21259,0.33453 -0.42689,0.68165 -0.64801,1.04504 -0.2096,0.34358 -0.42672,0.70305 -0.64425,1.07127 -0.20664,0.35261 -0.41847,0.71273 -0.63302,1.08999 -0.19091,0.33341 -0.38425,0.67996 -0.58246,1.03381 -0.0109,0.0156 -0.0172,0.0349 -0.0281,0.0506 -0.19337,0.35025 -0.39301,0.71367 -0.59369,1.08437 -0.006,0.008 -0.01,0.0159 -0.0112,0.0243 -0.0297,0.0559 -0.0583,0.10706 -0.088,0.16294 l -0.002,0 c -0.15401,0.28719 -0.31361,0.58181 -0.47009,0.88585 -6.1e-4,0.004 -0.006,0.007 -0.006,0.0112 -0.0237,0.0438 -0.0462,0.0848 -0.0655,0.12922 -0.10732,0.20369 -0.19799,0.38767 -0.41389,0.80345 0.23181,0.15018 0.38476,0.4749 0.52065,0.83904 0.0302,-0.35268 -0.0629,-0.70347 -0.29966,-0.99636 1.20922,0.23336 2.3058,0.0815 2.97595,-0.73228 0.0581,-0.0733 0.1172,-0.15183 0.1723,-0.2341 -0.29424,0.27522 -0.61717,0.36558 -1.18926,0.24721 0.90222,-0.25485 1.38151,-0.55767 1.84475,-1.10497 0.10946,-0.13023 0.22145,-0.2748 0.33524,-0.4345 -0.85316,0.65358 -1.74427,0.74288 -2.62572,0.44573 -0.012,-0.006 -0.025,-0.008 -0.0412,-0.015 0.82773,0.0182 1.99492,-0.42913 2.79989,-1.07688 0.37078,-0.29841 0.72064,-0.66108 1.06003,-1.09749 0.25409,-0.32413 0.49626,-0.68789 0.74164,-1.09935 0.21147,-0.35621 0.42431,-0.74695 0.63302,-1.1724 -0.19953,0.0697 -0.42531,0.10954 -0.6686,0.12548 -0.0433,0.002 -0.0858,0.006 -0.12923,0.007 -0.0433,0.002 -0.0873,2.3e-4 -0.13484,0.002 0.80079,-0.17938 1.35869,-0.66904 1.80542,-1.30911 -0.21774,0.10572 -0.56779,0.23434 -0.96826,0.26594 -0.0524,0.005 -0.10695,0.006 -0.16294,0.006 -0.0127,-0.002 -0.0262,5.4e-4 -0.0431,-0.002 0.2772,-0.0712 0.51689,-0.16007 0.73228,-0.27905 0.0464,-0.0233 0.0901,-0.0524 0.13297,-0.0805 0.0664,-0.0419 0.13011,-0.0881 0.1929,-0.13485 0.0392,-0.033 0.0768,-0.0626 0.11612,-0.0955 0.0888,-0.0773 0.1742,-0.16243 0.25283,-0.25845 0.026,-0.0306 0.0513,-0.0568 0.073,-0.088 0.0327,-0.0468 0.0657,-0.0897 0.0937,-0.13297 0.1362,-0.19514 0.24874,-0.3733 0.34085,-0.53188 0.046,-0.0793 0.086,-0.15124 0.12174,-0.21913 0.0127,-0.0283 0.0285,-0.0505 0.0412,-0.0787 0.037,-0.0763 0.0731,-0.1453 0.0993,-0.20601 0.0388,-0.089 0.0678,-0.16186 0.0843,-0.21537 -0.0284,0.0174 -0.0613,0.0348 -0.0974,0.0468 -0.24722,0.1014 -0.65869,0.16904 -0.98324,0.18166 -0.004,-6.2e-4 -0.009,-0.001 -0.0131,0.002 -0.0176,-6e-5 -0.0383,10e-4 -0.0581,0.002 0.64955,-0.19424 0.96488,-0.40924 1.28664,-0.74165 0.0864,-0.0906 0.17391,-0.18895 0.2622,-0.29216 0.26908,-0.30903 0.53831,-0.65304 0.78285,-1.0001 0.23846,-0.33503 0.45453,-0.66794 0.62365,-0.97013 0.11032,-0.19464 0.20238,-0.37583 0.27344,-0.5375 0.0596,-0.14186 0.10852,-0.27534 0.15357,-0.40641 -0.42238,0.009 -0.89191,0.009 -1.33908,0 0.44833,0.009 0.91932,0.007 1.3447,-0.004 0.45122,-1.34505 0.0543,-2.04888 0.0543,-2.04888 0,0 -0.36328,-0.84037 -0.98511,-0.83155 z m -2.1725,1.47393 c -0.0549,0.0522 -0.11249,0.10343 -0.1723,0.15919 -0.21932,0.20447 -0.45044,0.42481 -0.68733,0.66111 -0.26711,0.2663 -0.54123,0.5484 -0.82592,0.84653 -0.25992,0.27595 -0.52625,0.56839 -0.79409,0.869 -0.22734,0.25921 -0.45438,0.52222 -0.68359,0.79408 -0.0103,0.0114 -0.016,0.0204 -0.0262,0.0318 l 0.002,0.006 c -0.0153,0.0188 -0.0314,0.042 -0.0506,0.0599 -0.24072,0.29168 -0.48643,0.58654 -0.72479,0.89147 -0.24318,0.30853 -0.48254,0.62151 -0.71917,0.94391 -0.19909,0.27197 -0.39444,0.54539 -0.58994,0.82218 -0.0382,0.0547 -0.0761,0.11204 -0.11425,0.16668 -0.23612,0.34829 -0.45865,0.69087 -0.65736,1.01883 -0.22657,0.3712 -0.42932,0.72866 -0.61242,1.06752 -0.11886,0.22351 -0.23338,0.43949 -0.33711,0.648 -0.0862,0.17667 -0.16902,0.35834 -0.25097,0.53563 -0.19062,0.4195 -0.36043,0.84097 -0.51315,1.26604 l 0.002,0.007 c -0.009,0.0171 -0.016,0.0324 -0.0225,0.0506 -0.18316,0.51525 -0.33745,1.03494 -0.45322,1.56008 -0.003,0.0169 -0.009,0.0374 -0.0112,0.0543 -0.19934,-0.45951 -0.84637,-0.97684 -0.84278,-0.972 0.3979,0.80703 0.67522,1.58748 0.62553,2.30734 -0.27759,0.0152 -0.63689,-0.11885 -1.03943,-0.33712 0.38652,0.47407 0.70156,0.63682 0.8278,0.68546 -0.41226,-0.0347 -0.87873,0.18446 -1.35594,0.44574 0.66527,-0.16484 1.18962,-0.18979 1.53948,-0.0524 -0.8162,1.54535 -1.65762,3.26283 -2.51523,5.09038 0.18432,-0.0246 0.3071,-0.1314 0.38955,-0.2828 0.15177,-0.33054 1.17204,-2.50457 2.68004,-5.33385 0.0418,-0.0799 0.0887,-0.15934 0.1311,-0.24347 0.0122,-0.0241 0.0235,-0.0434 0.0356,-0.0674 0.15946,-0.29499 0.32408,-0.59772 0.49443,-0.90833 0.0406,-0.0715 0.0774,-0.14014 0.11799,-0.21163 l 0,-0.004 -0.002,-0.004 c 0.15281,-0.28176 0.3138,-0.5626 0.47195,-0.85214 0.046,-0.0793 0.092,-0.15809 0.13859,-0.2416 0.20304,-0.35744 0.41143,-0.71912 0.61991,-1.08437 0.2018,-0.34902 0.4072,-0.6968 0.61804,-1.04879 0.21084,-0.352 0.42546,-0.70304 0.64051,-1.05441 0.22051,-0.35919 0.44591,-0.71379 0.67423,-1.06752 0.22348,-0.35014 0.45463,-0.69974 0.68171,-1.04505 0.0829,-0.12552 0.16567,-0.24593 0.25283,-0.37082 0.14289,-0.21138 0.28928,-0.42227 0.43638,-0.63302 0.006,-0.012 0.0163,-0.0235 0.0225,-0.0356 l -0.40641,-1.22859 0.41203,1.22859 c 0.23662,-0.3224 0.46865,-0.64571 0.70044,-0.96452 0.25173,-0.33738 0.50175,-0.66644 0.75101,-0.98698 0.25953,-0.33195 0.52173,-0.65113 0.78659,-0.96077 0.0157,-0.0192 0.0317,-0.0375 0.0468,-0.0524 0.25942,-0.30184 0.51543,-0.59118 0.77536,-0.86713 l -0.46634,-1.30724 z"
         id="path4710"
         inkscape:connector-curvature="0" />
    </g>
  </g>
</svg>
