<?xml version="1.0" encoding="UTF-8" standalone="no"?>
<svg
   xmlns:dc="http://purl.org/dc/elements/1.1/"
   xmlns:cc="http://creativecommons.org/ns#"
   xmlns:rdf="http://www.w3.org/1999/02/22-rdf-syntax-ns#"
   xmlns:svg="http://www.w3.org/2000/svg"
   xmlns="http://www.w3.org/2000/svg"
   xmlns:sodipodi="http://sodipodi.sourceforge.net/DTD/sodipodi-0.dtd"
   xmlns:inkscape="http://www.inkscape.org/namespaces/inkscape"
   width="22"
   height="22"
   viewBox="0 0 22 22"
   version="1.1"
   id="svg2"
   inkscape:version="0.48.4 r9939"
   sodipodi:docname="paper.svg"
   inkscape:export-filename="Z:\projects\occam\Large-Icons\group_large.png"
   inkscape:export-xdpi="392.72726"
   inkscape:export-ydpi="392.72726">
  <metadata
     id="metadata14">
    <rdf:RDF>
      <cc:Work
         rdf:about="">
        <dc:format>image/svg+xml</dc:format>
        <dc:type
           rdf:resource="http://purl.org/dc/dcmitype/StillImage" />
        <dc:title>album_collection</dc:title>
      </cc:Work>
    </rdf:RDF>
  </metadata>
  <sodipodi:namedview
     pagecolor="#ffffff"
     bordercolor="#666666"
     borderopacity="1"
     objecttolerance="10"
     gridtolerance="10"
     guidetolerance="10"
     inkscape:pageopacity="0"
     inkscape:pageshadow="2"
     inkscape:window-width="1366"
     inkscape:window-height="744"
     id="namedview12"
     showgrid="false"
     inkscape:zoom="11.313708"
     inkscape:cx="12.763684"
     inkscape:cy="10.866598"
     inkscape:window-x="0"
     inkscape:window-y="24"
     inkscape:window-maximized="1"
     inkscape:current-layer="svg2" />
  <title
     id="title4">album_collection</title>
  <description
     id="description6">Created with Sketch (http://www.bohemiancoding.com/sketch)</description>
  <defs
     id="defs8" />
  <path
     sodipodi:type="arc"
     style="fill:#6aa3ae;fill-opacity:1;fill-rule:evenodd;stroke:none"
     id="path3055"
     sodipodi:cx="11.00435"
     sodipodi:cy="3.5710287"
     sodipodi:rx="9.9436893"
     sodipodi:ry="3.0493982"
     d="m 20.948039,3.5710287 a 9.9436893,3.0493982 0 1 1 -19.8873786,0 9.9436893,3.0493982 0 1 1 19.8873786,0 z"
     transform="matrix(1,0,0,1.4782609,-0.1767767,-0.1610871)" />
  <path
     style="fill:#6aa3ae;fill-opacity:1;fill-rule:evenodd;stroke:none"
     d="M 1.125 15.96875 C 0.97409331 16.28096 0.875 16.604756 0.875 16.9375 C 0.875 19.427093 5.320752 21.4375 10.8125 21.4375 C 16.304248 21.4375 20.78125 19.427093 20.78125 16.9375 C 20.78125 16.604756 20.682157 16.28096 20.53125 15.96875 C 19.553071 17.992498 15.570255 19.5 10.8125 19.5 C 6.0547453 19.5 2.1031793 17.992498 1.125 15.96875 z "
     id="path3831" />
  <path
     style="fill:#6aa3ae;fill-opacity:1;fill-rule:evenodd;stroke:none"
     d="M 1.125 8.09375 C 0.97409331 8.4059597 0.875 8.7297564 0.875 9.0625 C 0.875 11.552093 5.320752 13.5625 10.8125 13.5625 C 16.304248 13.5625 20.78125 11.552093 20.78125 9.0625 C 20.78125 8.7297564 20.682157 8.4059597 20.53125 8.09375 C 19.553071 10.117498 15.570255 11.625 10.8125 11.625 C 6.0547453 11.625 2.1031793 10.117498 1.125 8.09375 z "
     id="path3833" />
  <path
     style="fill:#6aa3ae;fill-opacity:1;fill-rule:evenodd;stroke:none"
     d="M 1.125 12.03125 C 0.97409331 12.34346 0.875 12.667256 0.875 13 C 0.875 15.489593 5.320752 17.5 10.8125 17.5 C 16.304248 17.5 20.78125 15.489593 20.78125 13 C 20.78125 12.667256 20.682157 12.34346 20.53125 12.03125 C 19.553071 14.054998 15.570255 15.5625 10.8125 15.5625 C 6.0547453 15.5625 2.1031793 14.054998 1.125 12.03125 z "
     id="path3835" />
</svg>
