<?xml version="1.0" encoding="UTF-8" standalone="no"?>
<svg
   xmlns:dc="http://purl.org/dc/elements/1.1/"
   xmlns:cc="http://creativecommons.org/ns#"
   xmlns:rdf="http://www.w3.org/1999/02/22-rdf-syntax-ns#"
   xmlns:svg="http://www.w3.org/2000/svg"
   xmlns="http://www.w3.org/2000/svg"
   xmlns:sodipodi="http://sodipodi.sourceforge.net/DTD/sodipodi-0.dtd"
   xmlns:inkscape="http://www.inkscape.org/namespaces/inkscape"
   width="22"
   height="22"
   viewBox="0 0 22 22"
   version="1.1"
   id="svg2"
   inkscape:version="0.91 r13725"
   sodipodi:docname="wad.svg"
   inkscape:export-filename="Z:\projects\occam\Large-Icons\group_large.png"
   inkscape:export-xdpi="392.72726"
   inkscape:export-ydpi="392.72726">
  <metadata
     id="metadata14">
    <rdf:RDF>
      <cc:Work
         rdf:about="">
        <dc:format>image/svg+xml</dc:format>
        <dc:type
           rdf:resource="http://purl.org/dc/dcmitype/StillImage" />
        <dc:title>album_collection</dc:title>
      </cc:Work>
    </rdf:RDF>
  </metadata>
  <sodipodi:namedview
     pagecolor="#ffffff"
     bordercolor="#666666"
     borderopacity="1"
     objecttolerance="10"
     gridtolerance="10"
     guidetolerance="10"
     inkscape:pageopacity="0"
     inkscape:pageshadow="2"
     inkscape:window-width="1680"
     inkscape:window-height="1027"
     id="namedview12"
     showgrid="false"
     inkscape:zoom="22.627417"
     inkscape:cx="6.2001716"
     inkscape:cy="4.6655508"
     inkscape:window-x="5752"
     inkscape:window-y="1102"
     inkscape:window-maximized="1"
     inkscape:current-layer="g6299" />
  <title
     id="title4">album_collection</title>
  <description
     id="description6">Created with Sketch (http://www.bohemiancoding.com/sketch)</description>
  <defs
     id="defs8" />
  <g
     id="g6299"
     transform="translate(179.67237,-70.223625)">
    <path
       style="opacity:1;fill:#2da0b7;fill-opacity:1;stroke:none"
       d="m -174.58743,70.83123 a 1.6092397,1.6092397 0 0 1 0.10156,0.5625 1.6092397,1.6092397 0 0 1 -0.0156,0.201172 l 13.40234,0 a 1.6092397,1.6092397 0 0 1 -0.0137,-0.201172 1.6092397,1.6092397 0 0 1 0.10351,-0.5625 l -13.57812,0 z m -1.05078,2.103516 a 1.6092397,1.6092397 0 0 1 -0.45703,0.06836 1.6092397,1.6092397 0 0 1 -0.3418,-0.03906 l 2.67773,7.328126 a 1.6092397,1.6092397 0 0 1 0.69727,-0.312501 l -2.57617,-7.044921 z m 16.59765,0 a 1.6092397,1.6092397 0 0 1 -0.46289,0.06836 1.6092397,1.6092397 0 0 1 -0.29883,-0.03125 l 0,16.501953 a 1.6092397,1.6092397 0 0 1 0.29883,-0.0293 1.6092397,1.6092397 0 0 1 0.46289,0.06836 l 0,-16.578125 z m -17.23242,8.273437 a 1.6092397,1.6092397 0 0 1 0.041,0.353516 1.6092397,1.6092397 0 0 1 -0.0547,0.408203 l 1.95703,0 a 1.6092397,1.6092397 0 0 1 -0.0527,-0.408203 1.6092397,1.6092397 0 0 1 0.041,-0.353516 l -1.93164,0 z m 4.29883,1.75 a 1.6092397,1.6092397 0 0 1 -0.73437,0.210938 l 2.35156,6.43164 a 1.6092397,1.6092397 0 0 1 0.68554,-0.15625 1.6092397,1.6092397 0 0 1 0.0703,0.0039 l -2.37305,-6.490235 z m -5.44531,0.15625 a 1.6092397,1.6092397 0 0 1 -0.42188,0.05664 1.6092397,1.6092397 0 0 1 -0.33984,-0.03711 l 0,6.34961 a 1.6092397,1.6092397 0 0 1 0.33984,-0.03906 1.6092397,1.6092397 0 0 1 0.42188,0.05859 l 0,-6.388672 z m 1.14453,7.578125 a 1.6092397,1.6092397 0 0 1 0.043,0.361328 1.6092397,1.6092397 0 0 1 -0.0547,0.402344 l 5.05859,0 a 1.6092397,1.6092397 0 0 1 -0.0527,-0.402344 1.6092397,1.6092397 0 0 1 0.041,-0.361328 l -5.03516,0 z m 8.16797,0 a 1.6092397,1.6092397 0 0 1 0.043,0.361328 1.6092397,1.6092397 0 0 1 -0.0508,0.402344 l 7.05469,0 a 1.6092397,1.6092397 0 0 1 -0.0527,-0.402344 1.6092397,1.6092397 0 0 1 0.043,-0.361328 l -7.03711,0 z"
       id="rect4146"
       inkscape:connector-curvature="0" />
    <rect
       style="opacity:1;fill:#2da0b7;fill-opacity:1;stroke:none"
       id="rect4154"
       width="1.9056784"
       height="0.7622714"
       x="-91.222649"
       y="-165.00156"
       transform="matrix(0,-1,1,0,0,0)" />
    <rect
       transform="matrix(0,-1,1,0,0,0)"
       y="-168.18732"
       x="-73.012833"
       height="0.7622714"
       width="1.9056784"
       id="rect4156"
       style="opacity:1;fill:#2da0b7;fill-opacity:1;stroke:none" />
    <rect
       transform="matrix(0,-1,1,0,0,0)"
       y="-174.14879"
       x="-91.222649"
       height="0.7622714"
       width="1.9056784"
       id="rect4180"
       style="opacity:1;fill:#2da0b7;fill-opacity:1;stroke:none" />
    <rect
       style="opacity:1;fill:#2da0b7;fill-opacity:1;stroke:none"
       id="rect4184"
       width="1.9056784"
       height="0.7622714"
       x="-161.4751"
       y="80.868469" />
    <circle
       style="opacity:1;fill:#2da0b7;fill-opacity:1;stroke:none"
       id="path4186"
       cx="-176.09587"
       cy="71.393013"
       r="0.93166506" />
    <circle
       r="0.93166506"
       cy="71.393013"
       cx="-159.50296"
       id="circle4192"
       style="opacity:1;fill:#2da0b7;fill-opacity:1;stroke:none" />
    <circle
       style="opacity:1;fill:#2da0b7;fill-opacity:1;stroke:none"
       id="circle4196"
       cx="-159.50296"
       cy="91.054237"
       r="0.93166506" />
    <circle
       r="0.93166506"
       cy="91.054237"
       cx="-177.84177"
       id="circle4200"
       style="opacity:1;fill:#2da0b7;fill-opacity:1;stroke:none" />
    <circle
       style="opacity:1;fill:#2da0b7;fill-opacity:1;stroke:none"
       id="circle4204"
       cx="-177.84177"
       cy="81.562401"
       r="0.93166506" />
    <circle
       r="0.93166506"
       cy="91.054237"
       cx="-169.67236"
       id="circle4208"
       style="opacity:1;fill:#2da0b7;fill-opacity:1;stroke:none" />
    <circle
       r="0.93166506"
       cy="81.562401"
       cx="-172.77332"
       id="circle4218"
       style="opacity:1;fill:#2da0b7;fill-opacity:1;stroke:none" />
    <rect
       style="opacity:1;fill:#2da0b7;fill-opacity:1;stroke:none"
       id="rect4223"
       width="1.9056784"
       height="0.7622714"
       x="-83.303505"
       y="-175.71568"
       transform="matrix(0,-1,1,0,0,0)" />
    <rect
       y="85.907936"
       x="-177.65219"
       height="0.7622714"
       width="1.9056784"
       id="rect4225"
       style="opacity:1;fill:#2da0b7;fill-opacity:1;stroke:none" />
    <rect
       style="opacity:1;fill:#2da0b7;fill-opacity:1;stroke:none"
       id="rect4227"
       width="1.9056784"
       height="0.7622714"
       x="-185.28096"
       y="48.538021"
       transform="matrix(0.97816238,-0.20784216,0.20784216,0.97816238,0,0)" />
    <rect
       transform="matrix(0.97816238,-0.20784216,0.20784216,0.97816238,0,0)"
       y="38.085354"
       x="-186.99969"
       height="0.7622714"
       width="1.9056784"
       id="rect4229"
       style="opacity:1;fill:#2da0b7;fill-opacity:1;stroke:none" />
  </g>
</svg>
